1600
1 0 0 0
2 0 1 0
3 1 1 0
4 1 0 0
5 0.02564102564097712 0 0
6 0.05128205128194782 0 0
7 0.07692307692292639 0 0
8 0.1025641025639128 0 0
9 0.1282051282048931 0 0
10 0.1538461538458455 0 0
11 0.1794871794867963 0 0
12 0.2051282051277471 0 0
13 0.2307692307686978 0 0
14 0.2564102564096487 0 0
15 0.2820512820505994 0 0
16 0.3076923076915502 0 0
17 0.333333333332501 0 0
18 0.3589743589734518 0 0
19 0.3846153846144026 0 0
20 0.4102564102553534 0 0
21 0.4358974358963042 0 0
22 0.461538461537255 0 0
23 0.4871794871782058 0 0
24 0.5128205128192278 0 0
25 0.5384615384603212 0 0
26 0.5641025641014143 0 0
27 0.5897435897425076 0 0
28 0.6153846153836009 0 0
29 0.6410256410246943 0 0
30 0.6666666666657874 0 0
31 0.6923076923068806 0 0
32 0.717948717947974 0 0
33 0.7435897435890673 0 0
34 0.7692307692301605 0 0
35 0.7948717948712537 0 0
36 0.8205128205123471 0 0
37 0.8461538461534404 0 0
38 0.8717948717945336 0 0
39 0.8974358974356268 0 0
40 0.9230769230767202 0 0
41 0.9487179487178135 0 0
42 0.9743589743589067 0 0
43 1 0.02564102564097712 0
44 1 0.05128205128194782 0
45 1 0.07692307692292639 0
46 1 0.1025641025639128 0
47 1 0.1282051282048931 0
48 1 0.1538461538458455 0
49 1 0.1794871794867963 0
50 1 0.2051282051277471 0
51 1 0.2307692307686978 0
52 1 0.2564102564096487 0
53 1 0.2820512820505994 0
54 1 0.3076923076915502 0
55 1 0.333333333332501 0
56 1 0.3589743589734518 0
57 1 0.3846153846144026 0
58 1 0.4102564102553534 0
59 1 0.4358974358963042 0
60 1 0.461538461537255 0
61 1 0.4871794871782058 0
62 1 0.5128205128192278 0
63 1 0.5384615384603212 0
64 1 0.5641025641014143 0
65 1 0.5897435897425076 0
66 1 0.6153846153836009 0
67 1 0.6410256410246943 0
68 1 0.6666666666657874 0
69 1 0.6923076923068806 0
70 1 0.717948717947974 0
71 1 0.7435897435890673 0
72 1 0.7692307692301605 0
73 1 0.7948717948712537 0
74 1 0.8205128205123471 0
75 1 0.8461538461534404 0
76 1 0.8717948717945336 0
77 1 0.8974358974356268 0
78 1 0.9230769230767202 0
79 1 0.9487179487178135 0
80 1 0.9743589743589067 0
81 0.9743589743588676 1 0
82 0.9487179487177352 1 0
83 0.9230769230766028 1 0
84 0.8974358974354704 1 0
85 0.8717948717943863 1 0
86 0.8461538461535258 1 0
87 0.8205128205126782 1 0
88 0.7948717948718305 1 0
89 0.7692307692309828 1 0
90 0.7435897435901351 1 0
91 0.7179487179492873 1 0
92 0.6923076923084395 1 0
93 0.6666666666675918 1 0
94 0.6410256410267439 1 0
95 0.6153846153858962 1 0
96 0.5897435897450484 1 0
97 0.5641025641042006 1 0
98 0.5384615384633528 1 0
99 0.512820512822505 1 0
100 0.4871794871815149 1 0
101 0.4615384615403826 1 0
102 0.4358974358992502 1 0
103 0.4102564102581178 1 0
104 0.3846153846169855 1 0
105 0.3589743589758531 1 0
106 0.3333333333347207 1 0
107 0.3076923076935884 1 0
108 0.282051282052456 1 0
109 0.2564102564113235 1 0
110 0.2307692307701913 1 0
111 0.2051282051290588 1 0
112 0.1794871794879265 1 0
113 0.1538461538467942 1 0
114 0.1282051282056618 1 0
115 0.1025641025645295 1 0
116 0.07692307692339706 1 0
117 0.05128205128226471 1 0
118 0.02564102564113235 1 0
119 0 0.9743589743588676 0
120 0 0.9487179487177352 0
121 0 0.9230769230766028 0
122 0 0.8974358974354704 0
123 0 0.8717948717943863 0
124 0 0.8461538461535258 0
125 0 0.8205128205126782 0
126 0 0.7948717948718305 0
127 0 0.7692307692309828 0
128 0 0.7435897435901351 0
129 0 0.7179487179492873 0
130 0 0.6923076923084395 0
131 0 0.6666666666675918 0
132 0 0.6410256410267439 0
133 0 0.6153846153858962 0
134 0 0.5897435897450484 0
135 0 0.5641025641042006 0
136 0 0.5384615384633528 0
137 0 0.512820512822505 0
138 0 0.4871794871815149 0
139 0 0.4615384615403826 0
140 0 0.4358974358992502 0
141 0 0.4102564102581178 0
142 0 0.3846153846169855 0
143 0 0.3589743589758531 0
144 0 0.3333333333347207 0
145 0 0.3076923076935884 0
146 0 0.282051282052456 0
147 0 0.2564102564113235 0
148 0 0.2307692307701913 0
149 0 0.2051282051290588 0
150 0 0.1794871794879265 0
151 0 0.1538461538467942 0
152 0 0.1282051282056618 0
153 0 0.1025641025645295 0
154 0 0.07692307692339706 0
155 0 0.05128205128226471 0
156 0 0.02564102564113235 0
157 0.0256410256409782 0.02564102564112734 0
158 0.02564102564098049 0.05128205128225462 0
159 0.02564102564098309 0.07692307692338179 0
160 0.02564102564098594 0.1025641025645088 0
161 0.02564102564098903 0.1282051282056355 0
162 0.02564102564099236 0.153846153846762 0
163 0.02564102564099587 0.1794871794878881 0
164 0.02564102564099951 0.2051282051290136 0
165 0.02564102564100326 0.2307692307701387 0
166 0.02564102564100709 0.2564102564112629 0
167 0.02564102564101097 0.2820512820523862 0
168 0.02564102564101488 0.3076923076935083 0
169 0.02564102564101883 0.3333333333346289 0
170 0.02564102564102278 0.3589743589757474 0
171 0.02564102564102674 0.384615384616863 0
172 0.0256410256410307 0.4102564102579742 0
173 0.02564102564103467 0.4358974358990783 0
174 0.02564102564103864 0.4615384615401692 0
175 0.02564102564104264 0.4871794871812322 0
176 0.02564102564104662 0.5128205128222243 0
177 0.02564102564105063 0.5384615384631456 0
178 0.02564102564105466 0.5641025641040394 0
179 0.02564102564105871 0.5897435897449205 0
180 0.02564102564106279 0.6153846153857948 0
181 0.02564102564106691 0.6410256410266655 0
182 0.02564102564107108 0.6666666666675343 0
183 0.02564102564107531 0.6923076923084022 0
184 0.0256410256410796 0.7179487179492702 0
185 0.02564102564108396 0.7435897435901391 0
186 0.02564102564108841 0.7692307692310104 0
187 0.02564102564109294 0.7948717948718861 0
188 0.02564102564109758 0.8205128205127696 0
189 0.02564102564110231 0.8461538461536694 0
190 0.02564102564110713 0.871794871794606 0
191 0.02564102564111204 0.897435897435631 0
192 0.02564102564111703 0.9230769230767039 0
193 0.02564102564112209 0.9487179487177958 0
194 0.02564102564112721 0.9743589743588963 0
195 0.05128205128195521 0.02564102564112233 0
196 0.05128205128196062 0.05128205128224454 0
197 0.0512820512819659 0.0769230769233665 0
198 0.05128205128197159 0.1025641025644882 0
199 0.05128205128197782 0.1282051282056094 0
200 0.05128205128198449 0.1538461538467299 0
201 0.05128205128199153 0.1794871794878498 0
202 0.05128205128199885 0.2051282051289686 0
203 0.05128205128200639 0.2307692307700864 0
204 0.05128205128201403 0.2564102564112027 0
205 0.05128205128202182 0.2820512820523172 0
206 0.05128205128202962 0.3076923076934293 0
207 0.05128205128203749 0.3333333333345386 0
208 0.05128205128204539 0.358974358975644 0
209 0.05128205128205329 0.3846153846167442 0
210 0.0512820512820612 0.410256410257837 0
211 0.05128205128206911 0.4358974358989188 0
212 0.05128205128207705 0.4615384615399833 0
213 0.051282051282085 0.4871794871810199 0
214 0.05128205128209293 0.5128205128220141 0
215 0.05128205128210093 0.5384615384629661 0
216 0.05128205128210897 0.5641025641038907 0
217 0.05128205128211706 0.5897435897447988 0
218 0.0512820512821252 0.6153846153856968 0
219 0.05128205128213342 0.6410256410265889 0
220 0.05128205128214175 0.6666666666674776 0
221 0.05128205128215019 0.6923076923083649 0
222 0.05128205128215878 0.7179487179492521 0
223 0.05128205128216752 0.743589743590141 0
224 0.05128205128217643 0.7692307692310341 0
225 0.05128205128218551 0.7948717948719339 0
226 0.0512820512821948 0.8205128205128451 0
227 0.0512820512822043 0.8461538461537754 0
228 0.05128205128221397 0.871794871794737 0
229 0.05128205128222384 0.8974358974357441 0
230 0.05128205128223388 0.923076923076786 0
231 0.05128205128224407 0.9487179487178484 0
232 0.05128205128225435 0.9743589743589217 0
233 0.07692307692293421 0.02564102564111734 0
234 0.0769230769229409 0.05128205128223449 0
235 0.07692307692294828 0.07692307692335129 0
236 0.07692307692295675 0.1025641025644677 0
237 0.07692307692296611 0.1282051282055833 0
238 0.07692307692297622 0.1538461538466981 0
239 0.07692307692298685 0.1794871794878118 0
240 0.07692307692299789 0.2051282051289241 0
241 0.07692307692300925 0.2307692307700348 0
242 0.07692307692302075 0.2564102564111435 0
243 0.07692307692303239 0.2820512820522495 0
244 0.07692307692304412 0.3076923076933524 0
245 0.07692307692305592 0.3333333333344513 0
246 0.07692307692306773 0.3589743589755449 0
247 0.07692307692307951 0.3846153846166319 0
248 0.07692307692309135 0.41025641025771 0
249 0.07692307692310317 0.4358974358987757 0
250 0.07692307692311502 0.4615384615398243 0
251 0.07692307692312687 0.4871794871808495 0
252 0.07692307692313877 0.5128205128218457 0
253 0.0769230769231507 0.5384615384628133 0
254 0.07692307692316271 0.5641025641037581 0
255 0.07692307692317478 0.5897435897446869 0
256 0.07692307692318695 0.6153846153856046 0
257 0.07692307692319926 0.6410256410265155 0
258 0.07692307692321171 0.6666666666674222 0
259 0.07692307692322435 0.6923076923083271 0
260 0.07692307692323724 0.7179487179492321 0
261 0.07692307692325034 0.7435897435901394 0
262 0.07692307692326371 0.769230769231051 0
263 0.07692307692327739 0.7948717948719708 0
264 0.07692307692329138 0.8205128205129022 0
265 0.07692307692330567 0.8461538461538506 0
266 0.0769230769233203 0.8717948717948227 0
267 0.07692307692333522 0.8974358974358231 0
268 0.07692307692335042 0.9230769230768479 0
269 0.07692307692336582 0.9487179487178901 0
270 0.07692307692338141 0.9743589743589425 0
271 0.1025641025639143 0.02564102564111238 0
272 0.1025641025639204 0.05128205128222452 0
273 0.1025641025639296 0.07692307692333623 0
274 0.1025641025639409 0.1025641025644473 0
275 0.1025641025639536 0.1282051282055576 0
276 0.1025641025639673 0.1538461538466667 0
277 0.1025641025639817 0.1794871794877744 0
278 0.1025641025639965 0.2051282051288804 0
279 0.1025641025640117 0.2307692307699843 0
280 0.1025641025640271 0.2564102564110857 0
281 0.1025641025640427 0.2820512820521839 0
282 0.1025641025640583 0.3076923076932782 0
283 0.102564102564074 0.3333333333343677 0
284 0.1025641025640897 0.3589743589754513 0
285 0.1025641025641053 0.3846153846165274 0
286 0.102564102564121 0.410256410257594 0
287 0.1025641025641367 0.4358974358986483 0
288 0.1025641025641524 0.4615384615396871 0
289 0.1025641025641681 0.4871794871807069 0
290 0.1025641025641839 0.5128205128217052 0
291 0.1025641025641997 0.5384615384626821 0
292 0.1025641025642156 0.5641025641036408 0
293 0.1025641025642316 0.5897435897445853 0
294 0.1025641025642478 0.6153846153855194 0
295 0.1025641025642641 0.6410256410264461 0
296 0.1025641025642807 0.6666666666673687 0
297 0.1025641025642975 0.6923076923082894 0
298 0.1025641025643147 0.7179487179492101 0
299 0.1025641025643321 0.7435897435901332 0
300 0.10256410256435 0.769230769231061 0
301 0.1025641025643683 0.7948717948719963 0
302 0.102564102564387 0.8205128205129424 0
303 0.1025641025644062 0.8461538461539027 0
304 0.1025641025644259 0.8717948717948806 0
305 0.102564102564446 0.8974358974358777 0
306 0.1025641025644664 0.9230769230768928 0
307 0.1025641025644872 0.9487179487179208 0
308 0.1025641025645083 0.9743589743589586 0
309 0.1282051282048897 0.02564102564110748 0
310 0.1282051282048968 0.05128205128221467 0
311 0.1282051282049088 0.07692307692332137 0
312 0.1282051282049236 0.1025641025644273 0
313 0.12820512820494 0.1282051282055322 0
314 0.1282051282049576 0.1538461538466358 0
315 0.1282051282049759 0.1794871794877378 0
316 0.1282051282049947 0.2051282051288376 0
317 0.1282051282050138 0.2307692307699352 0
318 0.1282051282050332 0.2564102564110297 0
319 0.1282051282050526 0.2820512820521207 0
320 0.1282051282050721 0.3076923076932073 0
321 0.1282051282050916 0.3333333333342886 0
322 0.1282051282051111 0.3589743589753636 0
323 0.1282051282051306 0.3846153846164308 0
324 0.1282051282051501 0.4102564102574887 0
325 0.1282051282051695 0.435897435898535 0
326 0.128205128205189 0.4615384615395676 0
327 0.1282051282052085 0.4871794871805847 0
328 0.1282051282052281 0.5128205128215848 0
329 0.1282051282052477 0.5384615384625682 0
330 0.1282051282052674 0.5641025641035369 0
331 0.1282051282052873 0.5897435897444935 0
332 0.1282051282053073 0.6153846153854406 0
333 0.1282051282053277 0.641025641026381 0
334 0.1282051282053483 0.6666666666673173 0
335 0.1282051282053693 0.6923076923082516 0
336 0.1282051282053907 0.7179487179491861 0
337 0.1282051282054125 0.7435897435901228 0
338 0.1282051282054349 0.7692307692310639 0
339 0.1282051282054578 0.7948717948720116 0
340 0.1282051282054814 0.8205128205129688 0
341 0.1282051282055056 0.8461538461539372 0
342 0.1282051282055304 0.8717948717949193 0
343 0.1282051282055559 0.8974358974359155 0
344 0.1282051282055818 0.9230769230769242 0
345 0.1282051282056082 0.9487179487179433 0
346 0.1282051282056349 0.9743589743589699 0
347 0.1538461538458548 0.02564102564110265 0
348 0.1538461538458683 0.05128205128220497 0
349 0.1538461538458852 0.0769230769233067 0
350 0.1538461538459044 0.1025641025644076 0
351 0.1538461538459252 0.1282051282055073 0
352 0.153846153845947 0.1538461538466055 0
353 0.1538461538459694 0.1794871794877019 0
354 0.1538461538459924 0.2051282051287961 0
355 0.1538461538460155 0.2307692307698876 0
356 0.1538461538460388 0.2564102564109757 0
357 0.1538461538460621 0.2820512820520601 0
358 0.1538461538460854 0.3076923076931398 0
359 0.1538461538461088 0.3333333333342141 0
360 0.153846153846132 0.3589743589752818 0
361 0.1538461538461553 0.3846153846163419 0
362 0.1538461538461784 0.410256410257393 0
363 0.1538461538462016 0.4358974358984337 0
364 0.1538461538462247 0.4615384615394623 0
365 0.1538461538462479 0.4871794871804778 0
366 0.1538461538462711 0.5128205128214797 0
367 0.1538461538462944 0.538461538462468 0
368 0.1538461538463179 0.5641025641034443 0
369 0.1538461538463415 0.5897435897444103 0
370 0.1538461538463654 0.6153846153853681 0
371 0.1538461538463897 0.6410256410263199 0
372 0.1538461538464142 0.6666666666672678 0
373 0.1538461538464393 0.6923076923082139 0
374 0.1538461538464649 0.7179487179491602 0
375 0.1538461538464911 0.7435897435901087 0
376 0.1538461538465181 0.7692307692310607 0
377 0.1538461538465457 0.7948717948720185 0
378 0.1538461538465742 0.8205128205129842 0
379 0.1538461538466035 0.8461538461539592 0
380 0.1538461538466337 0.8717948717949444 0
381 0.1538461538466646 0.8974358974359403 0
382 0.1538461538466962 0.9230769230769457 0
383 0.1538461538467285 0.9487179487179592 0
384 0.1538461538467612 0.9743589743589781 0
385 0.1794871794868155 0.02564102564109788 0
386 0.1794871794868365 0.0512820512821954 0
387 0.1794871794868593 0.07692307692329228 0
388 0.1794871794868837 0.1025641025643882 0
389 0.1794871794869093 0.1282051282054829 0
390 0.1794871794869356 0.153846153846576 0
391 0.1794871794869624 0.179487179487667 0
392 0.1794871794869896 0.2051282051287557 0
393 0.1794871794870168 0.2307692307698415 0
394 0.179487179487044 0.2564102564109239 0
395 0.1794871794870712 0.2820512820520023 0
396 0.1794871794870984 0.3076923076930759 0
397 0.1794871794871254 0.3333333333341439 0
398 0.1794871794871523 0.3589743589752056 0
399 0.1794871794871792 0.3846153846162599 0
400 0.1794871794872059 0.4102564102573057 0
401 0.1794871794872326 0.4358974358983421 0
402 0.1794871794872593 0.4615384615393681 0
403 0.179487179487286 0.487179487180383 0
404 0.1794871794873128 0.5128205128213863 0
405 0.1794871794873397 0.5384615384623787 0
406 0.1794871794873667 0.5641025641033608 0
407 0.179487179487394 0.5897435897443345 0
408 0.1794871794874217 0.615384615385301 0
409 0.1794871794874497 0.6410256410262624 0
410 0.1794871794874782 0.6666666666672201 0
411 0.1794871794875073 0.6923076923081763 0
412 0.1794871794875371 0.7179487179491326 0
413 0.1794871794875676 0.7435897435900907 0
414 0.1794871794875991 0.7692307692310522 0
415 0.1794871794876315 0.7948717948720184 0
416 0.179487179487665 0.8205128205129913 0
417 0.1794871794876997 0.8461538461539715 0
418 0.1794871794877353 0.8717948717949596 0
419 0.179487179487772 0.8974358974359559 0
420 0.1794871794878097 0.9230769230769594 0
421 0.1794871794878481 0.9487179487179693 0
422 0.1794871794878871 0.9743589743589838 0
423 0.2051282051277745 0.02564102564109319 0
424 0.2051282051278026 0.05128205128218599 0
425 0.2051282051278318 0.0769230769232781 0
426 0.2051282051278618 0.1025641025643692 0
427 0.2051282051278925 0.128205128205459 0
428 0.2051282051279236 0.1538461538465471 0
429 0.205128205127955 0.1794871794876331 0
430 0.2051282051279863 0.2051282051287166 0
431 0.2051282051280177 0.2307692307697971 0
432 0.2051282051280489 0.2564102564108741 0
433 0.2051282051280799 0.2820512820519469 0
434 0.2051282051281108 0.3076923076930151 0
435 0.2051282051281415 0.3333333333340779 0
436 0.2051282051281719 0.3589743589751345 0
437 0.2051282051282022 0.3846153846161839 0
438 0.2051282051282325 0.4102564102572256 0
439 0.2051282051282626 0.435897435898259 0
440 0.2051282051282927 0.461538461539283 0
441 0.2051282051283228 0.4871794871802975 0
442 0.2051282051283529 0.5128205128213024 0
443 0.2051282051283832 0.5384615384622981 0
444 0.2051282051284137 0.5641025641032851 0
445 0.2051282051284445 0.5897435897442648 0
446 0.2051282051284757 0.6153846153852386 0
447 0.2051282051285074 0.6410256410262077 0
448 0.2051282051285397 0.666666666667174 0
449 0.2051282051285728 0.6923076923081387 0
450 0.2051282051286067 0.7179487179491036 0
451 0.2051282051286416 0.7435897435900701 0
452 0.2051282051286776 0.7692307692310395 0
453 0.2051282051287149 0.7948717948720131 0
454 0.2051282051287535 0.8205128205129917 0
455 0.2051282051287935 0.8461538461539763 0
456 0.2051282051288349 0.8717948717949673 0
457 0.2051282051288777 0.8974358974359647 0
458 0.2051282051289218 0.9230769230769679 0
459 0.2051282051289668 0.9487179487179759 0
460 0.2051282051290126 0.974358974358987 0
461 0.2307692307687327 0.02564102564108858 0
462 0.2307692307687678 0.05128205128217676 0
463 0.2307692307688033 0.07692307692326419 0
464 0.2307692307688392 0.1025641025643506 0
465 0.2307692307688752 0.1282051282054356 0
466 0.2307692307689113 0.1538461538465189 0
467 0.2307692307689472 0.1794871794876 0
468 0.230769230768983 0.2051282051286786 0
469 0.2307692307690185 0.2307692307697542 0
470 0.2307692307690536 0.2564102564108262 0
471 0.2307692307690883 0.2820512820518942 0
472 0.2307692307691228 0.3076923076929575 0
473 0.230769230769157 0.3333333333340156 0
474 0.2307692307691909 0.3589743589750678 0
475 0.2307692307692245 0.3846153846161133 0
476 0.230769230769258 0.4102564102571517 0
477 0.2307692307692914 0.4358974358981825 0
478 0.2307692307693247 0.4615384615392053 0
479 0.230769230769358 0.4871794871802198 0
480 0.2307692307693914 0.512820512821226 0
481 0.2307692307694249 0.5384615384622243 0
482 0.2307692307694586 0.5641025641032154 0
483 0.2307692307694928 0.5897435897442003 0
484 0.2307692307695274 0.6153846153851802 0
485 0.2307692307695625 0.641025641026156 0
486 0.2307692307695985 0.6666666666671295 0
487 0.2307692307696354 0.6923076923081016 0
488 0.2307692307696733 0.7179487179490738 0
489 0.2307692307697125 0.7435897435900475 0
490 0.2307692307697531 0.7692307692310235 0
491 0.2307692307697953 0.7948717948720032 0
492 0.2307692307698391 0.8205128205129871 0
493 0.2307692307698847 0.8461538461539757 0
494 0.2307692307699321 0.8717948717949696 0
495 0.2307692307699814 0.8974358974359684 0
496 0.2307692307700321 0.923076923076972 0
497 0.2307692307700843 0.9487179487179792 0
498 0.2307692307701375 0.974358974358989 0
499 0.2564102564096907 0.02564102564108404 0
500 0.2564102564097326 0.05128205128216767 0
501 0.2564102564097746 0.07692307692325055 0
502 0.2564102564098164 0.1025641025643324 0
503 0.2564102564098579 0.1282051282054128 0
504 0.256410256409899 0.1538461538464914 0
505 0.2564102564099396 0.179487179487568 0
506 0.2564102564099798 0.2051282051286419 0
507 0.2564102564100192 0.2307692307697128 0
508 0.2564102564100582 0.2564102564107802 0
509 0.2564102564100966 0.2820512820518437 0
510 0.2564102564101345 0.3076923076929027 0
511 0.256410256410172 0.3333333333339566 0
512 0.2564102564102091 0.3589743589750051 0
513 0.256410256410246 0.3846153846160473 0
514 0.2564102564102825 0.410256410257083 0
515 0.2564102564103189 0.4358974358981119 0
516 0.2564102564103553 0.4615384615391336 0
517 0.2564102564103916 0.4871794871801482 0
518 0.2564102564104279 0.5128205128211555 0
519 0.2564102564104644 0.5384615384621562 0
520 0.2564102564105012 0.5641025641031507 0
521 0.2564102564105385 0.58974358974414 0
522 0.2564102564105762 0.615384615385125 0
523 0.2564102564106148 0.6410256410261067 0
524 0.2564102564106543 0.6666666666670861 0
525 0.2564102564106948 0.6923076923080645 0
526 0.2564102564107366 0.7179487179490432 0
527 0.25641025641078 0.7435897435900231 0
528 0.2564102564108251 0.7692307692310052 0
529 0.2564102564108722 0.79487179487199 0
530 0.2564102564109214 0.8205128205129786 0
531 0.2564102564109727 0.8461538461539709 0
532 0.2564102564110264 0.8717948717949677 0
533 0.2564102564110824 0.8974358974359685 0
534 0.2564102564111405 0.923076923076973 0
535 0.2564102564112004 0.9487179487179802 0
536 0.2564102564112616 0.9743589743589894 0
537 0.2820512820506486 0.02564102564107959 0
538 0.2820512820506975 0.05128205128215875 0
539 0.282051282050746 0.07692307692323716 0
540 0.2820512820507938 0.1025641025643145 0
541 0.2820512820508408 0.1282051282053905 0
542 0.2820512820508871 0.1538461538464647 0
543 0.2820512820509324 0.1794871794875367 0
544 0.2820512820509767 0.2051282051286062 0
545 0.2820512820510202 0.2307692307696728 0
546 0.2820512820510628 0.2564102564107359 0
547 0.2820512820511047 0.2820512820517952 0
548 0.2820512820511459 0.3076923076928503 0
549 0.2820512820511866 0.3333333333339005 0
550 0.2820512820512267 0.3589743589749456 0
551 0.2820512820512664 0.3846153846159852 0
552 0.2820512820513059 0.4102564102570186 0
553 0.2820512820513451 0.4358974358980458 0
554 0.2820512820513841 0.4615384615390668 0
555 0.2820512820514232 0.4871794871800816 0
556 0.2820512820514623 0.5128205128210902 0
557 0.2820512820515016 0.5384615384620928 0
558 0.2820512820515412 0.5641025641030903 0
559 0.2820512820515814 0.5897435897440834 0
560 0.2820512820516222 0.6153846153850727 0
561 0.2820512820516637 0.6410256410260592 0
562 0.2820512820517065 0.6666666666670439 0
563 0.2820512820517505 0.692307692308028 0
564 0.2820512820517961 0.7179487179490123 0
565 0.2820512820518435 0.7435897435899975 0
566 0.2820512820518931 0.7692307692309845 0
567 0.282051282051945 0.7948717948719743 0
568 0.2820512820519996 0.8205128205129671 0
569 0.2820512820520569 0.8461538461539629 0
570 0.2820512820521172 0.8717948717949627 0
571 0.2820512820521804 0.8974358974359656 0
572 0.2820512820522464 0.9230769230769713 0
573 0.2820512820523147 0.9487179487179795 0
574 0.2820512820523849 0.9743589743589892 0
575 0.3076923076916067 0.0256410256410752 0
576 0.3076923076916627 0.05128205128214998 0
577 0.3076923076917179 0.07692307692322402 0
578 0.3076923076917719 0.102564102564297 0
579 0.3076923076918246 0.1282051282053686 0
580 0.3076923076918759 0.1538461538464385 0
581 0.3076923076919258 0.1794871794875062 0
582 0.3076923076919744 0.2051282051285716 0
583 0.3076923076920217 0.230769230769634 0
584 0.3076923076920679 0.2564102564106931 0
585 0.307692307692113 0.2820512820517486 0
586 0.3076923076921573 0.3076923076928 0
587 0.3076923076922009 0.333333333333847 0
588 0.3076923076922436 0.3589743589748892 0
589 0.3076923076922861 0.3846153846159262 0
590 0.307692307692328 0.4102564102569577 0
591 0.3076923076923698 0.4358974358979837 0
592 0.3076923076924113 0.4615384615390042 0
593 0.3076923076924529 0.4871794871800191 0
594 0.3076923076924944 0.5128205128210286 0
595 0.3076923076925363 0.5384615384620332 0
596 0.3076923076925784 0.5641025641030332 0
597 0.3076923076926212 0.5897435897440293 0
598 0.3076923076926647 0.6153846153850224 0
599 0.3076923076927092 0.6410256410260132 0
600 0.307692307692755 0.6666666666670027 0
601 0.3076923076928022 0.6923076923079916 0
602 0.3076923076928513 0.7179487179489809 0
603 0.3076923076929026 0.7435897435899709 0
604 0.3076923076929564 0.7692307692309625 0
605 0.307692307693013 0.7948717948719565 0
606 0.307692307693073 0.8205128205129534 0
607 0.3076923076931365 0.8461538461539528 0
608 0.3076923076932037 0.8717948717949552 0
609 0.3076923076932745 0.8974358974359604 0
610 0.3076923076933492 0.923076923076968 0
611 0.3076923076934268 0.9487179487179775 0
612 0.3076923076935069 0.9743589743589883 0
613 0.3333333333325653 0.02564102564107088 0
614 0.3333333333326289 0.05128205128214134 0
615 0.333333333332691 0.07692307692321107 0
616 0.3333333333327514 0.1025641025642798 0
617 0.3333333333328098 0.1282051282053471 0
618 0.3333333333328662 0.1538461538464128 0
619 0.3333333333329206 0.1794871794874765 0
620 0.3333333333329732 0.2051282051285377 0
621 0.3333333333330241 0.2307692307695962 0
622 0.3333333333330735 0.2564102564106516 0
623 0.3333333333331217 0.2820512820517035 0
624 0.3333333333331687 0.3076923076927516 0
625 0.3333333333332149 0.3333333333337956 0
626 0.3333333333332602 0.3589743589748351 0
627 0.3333333333333049 0.3846153846158699 0
628 0.3333333333333492 0.4102564102568998 0
629 0.3333333333333932 0.4358974358979247 0
630 0.3333333333334368 0.4615384615389447 0
631 0.3333333333334805 0.4871794871799598 0
632 0.3333333333335243 0.5128205128209702 0
633 0.3333333333335683 0.5384615384619763 0
634 0.3333333333336128 0.5641025641029787 0
635 0.3333333333336578 0.5897435897439778 0
636 0.3333333333337037 0.6153846153849742 0
637 0.3333333333337508 0.6410256410259688 0
638 0.3333333333337992 0.6666666666669624 0
639 0.3333333333338494 0.6923076923079554 0
640 0.3333333333339017 0.717948717948949 0
641 0.3333333333339566 0.7435897435899436 0
642 0.3333333333340145 0.7692307692309394 0
643 0.3333333333340758 0.7948717948719375 0
644 0.3333333333341411 0.8205128205129376 0
645 0.3333333333342106 0.8461538461539404 0
646 0.3333333333342849 0.8717948717949457 0
647 0.333333333334364 0.8974358974359535 0
648 0.3333333333344479 0.9230769230769633 0
649 0.333333333334536 0.9487179487179745 0
650 0.3333333333346273 0.9743589743589869 0
651 0.3589743589735248 0.02564102564106662 0
652 0.3589743589735965 0.05128205128213283 0
653 0.358974358973666 0.07692307692319834 0
654 0.358974358973733 0.1025641025642629 0
655 0.3589743589737971 0.1282051282053261 0
656 0.3589743589738584 0.1538461538463877 0
657 0.3589743589739172 0.1794871794874473 0
658 0.3589743589739735 0.2051282051285046 0
659 0.3589743589740277 0.2307692307695594 0
660 0.3589743589740801 0.2564102564106112 0
661 0.3589743589741309 0.2820512820516597 0
662 0.3589743589741805 0.3076923076927048 0
663 0.3589743589742288 0.333333333333746 0
664 0.3589743589742762 0.358974358974783 0
665 0.3589743589743231 0.3846153846158158 0
666 0.3589743589743692 0.4102564102568443 0
667 0.358974358974415 0.4358974358978682 0
668 0.3589743589744606 0.4615384615388877 0
669 0.3589743589745061 0.4871794871799031 0
670 0.3589743589745518 0.5128205128209145 0
671 0.3589743589745976 0.538461538461922 0
672 0.358974358974644 0.5641025641029263 0
673 0.3589743589746909 0.5897435897439279 0
674 0.358974358974739 0.6153846153849275 0
675 0.3589743589747882 0.6410256410259255 0
676 0.358974358974839 0.6666666666669226 0
677 0.3589743589748918 0.6923076923079197 0
678 0.358974358974947 0.717948717948917 0
679 0.3589743589750051 0.7435897435899156 0
680 0.3589743589750667 0.7692307692309153 0
681 0.3589743589751325 0.7948717948719171 0
682 0.3589743589752027 0.820512820512921 0
683 0.3589743589752784 0.846153846153927 0
684 0.3589743589753599 0.8717948717949351 0
685 0.3589743589754475 0.8974358974359454 0
686 0.3589743589755416 0.9230769230769573 0
687 0.3589743589756414 0.9487179487179709 0
688 0.3589743589757459 0.9743589743589851 0
689 0.3846153846144853 0.02564102564106241 0
690 0.3846153846145661 0.05128205128212444 0
691 0.3846153846146437 0.07692307692318578 0
692 0.3846153846147174 0.1025641025642462 0
693 0.3846153846147872 0.1282051282053054 0
694 0.3846153846148533 0.1538461538463629 0
695 0.384615384614916 0.1794871794874187 0
696 0.3846153846149757 0.2051282051284722 0
697 0.3846153846150329 0.2307692307695234 0
698 0.3846153846150879 0.2564102564105717 0
699 0.3846153846151411 0.2820512820516172 0
700 0.3846153846151926 0.3076923076926593 0
701 0.3846153846152428 0.3333333333336978 0
702 0.384615384615292 0.3589743589747327 0
703 0.3846153846153405 0.3846153846157636 0
704 0.3846153846153884 0.4102564102567907 0
705 0.3846153846154357 0.4358974358978138 0
706 0.3846153846154826 0.4615384615388329 0
707 0.3846153846155296 0.4871794871798485 0
708 0.3846153846155767 0.5128205128208606 0
709 0.3846153846156241 0.5384615384618696 0
710 0.384615384615672 0.5641025641028757 0
711 0.3846153846157206 0.5897435897438799 0
712 0.3846153846157703 0.615384615384882 0
713 0.3846153846158213 0.6410256410258831 0
714 0.384615384615874 0.6666666666668836 0
715 0.3846153846159289 0.692307692307884 0
716 0.3846153846159866 0.717948717948885 0
717 0.3846153846160476 0.7435897435898872 0
718 0.3846153846161125 0.7692307692308905 0
719 0.3846153846161821 0.7948717948718959 0
720 0.384615384616257 0.820512820512903 0
721 0.3846153846163384 0.8461538461539122 0
722 0.3846153846164272 0.8717948717949234 0
723 0.3846153846165237 0.8974358974359362 0
724 0.3846153846166286 0.9230769230769507 0
725 0.3846153846167416 0.9487179487179666 0
726 0.3846153846168616 0.9743589743589832 0
727 0.410256410255448 0.02564102564105826 0
728 0.4102564102555391 0.05128205128211615 0
729 0.4102564102556253 0.07692307692317342 0
730 0.4102564102557059 0.1025641025642298 0
731 0.4102564102557812 0.1282051282052849 0
732 0.4102564102558516 0.1538461538463386 0
733 0.4102564102559179 0.1794871794873905 0
734 0.4102564102559806 0.2051282051284404 0
735 0.4102564102560402 0.230769230769488 0
736 0.4102564102560973 0.2564102564105331 0
737 0.4102564102561523 0.2820512820515754 0
738 0.4102564102562054 0.3076923076926147 0
739 0.4102564102562572 0.3333333333336509 0
740 0.4102564102563078 0.3589743589746836 0
741 0.4102564102563575 0.3846153846157129 0
742 0.4102564102564065 0.4102564102567387 0
743 0.4102564102564551 0.435897435897761 0
744 0.4102564102565032 0.46153846153878 0
745 0.4102564102565512 0.4871794871797957 0
746 0.4102564102565993 0.5128205128208084 0
747 0.4102564102566478 0.5384615384618187 0
748 0.4102564102566968 0.5641025641028267 0
749 0.4102564102567467 0.5897435897438327 0
750 0.4102564102567976 0.6153846153848375 0
751 0.4102564102568499 0.6410256410258415 0
752 0.4102564102569042 0.6666666666668449 0
753 0.4102564102569607 0.6923076923078487 0
754 0.4102564102570203 0.7179487179488532 0
755 0.4102564102570835 0.7435897435898584 0
756 0.410256410257151 0.7692307692308655 0
757 0.4102564102572239 0.7948717948718741 0
758 0.4102564102573031 0.8205128205128847 0
759 0.4102564102573897 0.846153846153897 0
760 0.410256410257485 0.871794871794911 0
761 0.4102564102575904 0.8974358974359268 0
762 0.4102564102577066 0.9230769230769436 0
763 0.4102564102578343 0.9487179487179618 0
764 0.4102564102579727 0.9743589743589807 0
765 0.4358974358964139 0.02564102564105415 0
766 0.4358974358965174 0.05128205128210795 0
767 0.4358974358966126 0.07692307692316114 0
768 0.4358974358966997 0.1025641025642135 0
769 0.43589743589678 0.1282051282052647 0
770 0.4358974358968542 0.1538461538463145 0
771 0.4358974358969234 0.1794871794873627 0
772 0.4358974358969884 0.2051282051284091 0
773 0.4358974358970499 0.2307692307694533 0
774 0.4358974358971088 0.2564102564104952 0
775 0.4358974358971649 0.2820512820515346 0
776 0.4358974358972192 0.3076923076925712 0
777 0.435897435897272 0.333333333333605 0
778 0.4358974358973235 0.3589743589746357 0
779 0.4358974358973741 0.3846153846156634 0
780 0.435897435897424 0.410256410256688 0
781 0.4358974358974732 0.4358974358977096 0
782 0.4358974358975221 0.4615384615387282 0
783 0.4358974358975709 0.4871794871797442 0
784 0.4358974358976196 0.5128205128207576 0
785 0.4358974358976688 0.5384615384617689 0
786 0.4358974358977185 0.5641025641027784 0
787 0.4358974358977692 0.5897435897437865 0
788 0.4358974358978209 0.6153846153847936 0
789 0.4358974358978741 0.6410256410258002 0
790 0.4358974358979293 0.6666666666668065 0
791 0.435897435897987 0.6923076923078133 0
792 0.4358974358980478 0.7179487179488211 0
793 0.4358974358981125 0.7435897435898299 0
794 0.4358974358981821 0.76923076923084 0
795 0.4358974358982573 0.7948717948718519 0
796 0.4358974358983396 0.8205128205128656 0
797 0.4358974358984304 0.8461538461538808 0
798 0.4358974358985315 0.8717948717948978 0
799 0.4358974358986448 0.8974358974359163 0
800 0.4358974358987723 0.9230769230769359 0
801 0.4358974358989163 0.9487179487179569 0
802 0.4358974358990768 0.9743589743589783 0
803 0.4615384615373863 0.02564102564105007 0
804 0.4615384615375039 0.0512820512820998 0
805 0.4615384615376081 0.07692307692314898 0
806 0.4615384615377011 0.1025641025641973 0
807 0.461538461537785 0.1282051282052447 0
808 0.461538461537862 0.1538461538462907 0
809 0.4615384615379333 0.1794871794873352 0
810 0.4615384615379999 0.2051282051283781 0
811 0.4615384615380626 0.230769230769419 0
812 0.4615384615381222 0.2564102564104577 0
813 0.4615384615381794 0.2820512820514943 0
814 0.4615384615382344 0.3076923076925284 0
815 0.4615384615382877 0.3333333333335598 0
816 0.4615384615383398 0.3589743589745887 0
817 0.4615384615383907 0.3846153846156148 0
818 0.4615384615384409 0.4102564102566383 0
819 0.4615384615384904 0.4358974358976591 0
820 0.4615384615385397 0.4615384615386775 0
821 0.4615384615385886 0.4871794871796936 0
822 0.4615384615386378 0.5128205128207077 0
823 0.4615384615386872 0.5384615384617201 0
824 0.4615384615387373 0.5641025641027311 0
825 0.4615384615387881 0.589743589743741 0
826 0.4615384615388401 0.6153846153847503 0
827 0.4615384615388938 0.6410256410257593 0
828 0.4615384615389495 0.6666666666667687 0
829 0.4615384615390077 0.6923076923077782 0
830 0.4615384615390691 0.7179487179487889 0
831 0.4615384615391346 0.7435897435898008 0
832 0.461538461539205 0.7692307692308142 0
833 0.4615384615392816 0.7948717948718291 0
834 0.4615384615393659 0.8205128205128459 0
835 0.4615384615394594 0.8461538461538642 0
836 0.4615384615395644 0.8717948717948844 0
837 0.4615384615396838 0.8974358974359056 0
838 0.4615384615398211 0.9230769230769281 0
839 0.4615384615399808 0.9487179487179517 0
840 0.4615384615401678 0.9743589743589757 0
841 0.4871794871783728 0.02564102564104603 0
842 0.4871794871785043 0.05128205128209173 0
843 0.4871794871786149 0.07692307692313689 0
844 0.4871794871787115 0.1025641025641813 0
845 0.4871794871787976 0.1282051282052248 0
846 0.4871794871788759 0.1538461538462671 0
847 0.487179487178948 0.179487179487308 0
848 0.4871794871790153 0.2051282051283474 0
849 0.4871794871790786 0.230769230769385 0
850 0.4871794871791386 0.2564102564104208 0
851 0.4871794871791957 0.2820512820514544 0
852 0.4871794871792509 0.307692307692486 0
853 0.4871794871793043 0.3333333333335152 0
854 0.4871794871793563 0.3589743589745422 0
855 0.4871794871794072 0.3846153846155669 0
856 0.4871794871794574 0.4102564102565893 0
857 0.4871794871795069 0.4358974358976094 0
858 0.487179487179556 0.4615384615386275 0
859 0.4871794871796049 0.4871794871796438 0
860 0.4871794871796539 0.5128205128206585 0
861 0.4871794871797033 0.5384615384616719 0
862 0.4871794871797531 0.5641025641026843 0
863 0.4871794871798038 0.5897435897436959 0
864 0.4871794871798557 0.6153846153847075 0
865 0.4871794871799091 0.6410256410257187 0
866 0.4871794871799646 0.6666666666667306 0
867 0.4871794871800226 0.6923076923077431 0
868 0.4871794871800839 0.7179487179487568 0
869 0.4871794871801494 0.7435897435897718 0
870 0.4871794871802198 0.7692307692307881 0
871 0.4871794871802964 0.794871794871806 0
872 0.4871794871803811 0.8205128205128259 0
873 0.4871794871804753 0.8461538461538474 0
874 0.4871794871805818 0.8717948717948701 0
875 0.487179487180704 0.8974358974358944 0
876 0.4871794871808467 0.9230769230769198 0
877 0.4871794871810179 0.9487179487179462 0
878 0.4871794871812311 0.974358974358973 0
879 0.5128205128193946 0.025641025641042 0
880 0.5128205128195259 0.0512820512820837 0
881 0.5128205128196361 0.0769230769231249 0
882 0.5128205128197324 0.1025641025641654 0
883 0.5128205128198183 0.1282051282052051 0
884 0.5128205128198964 0.1538461538462437 0
885 0.5128205128199681 0.179487179487281 0
886 0.512820512820035 0.205128205128317 0
887 0.5128205128200979 0.2307692307693514 0
888 0.5128205128201575 0.256410256410384 0
889 0.5128205128202143 0.2820512820514149 0
890 0.512820512820269 0.307692307692444 0
891 0.5128205128203219 0.333333333333471 0
892 0.5128205128203736 0.3589743589744961 0
893 0.5128205128204241 0.3846153846155193 0
894 0.5128205128204737 0.4102564102565406 0
895 0.5128205128205228 0.4358974358975601 0
896 0.5128205128205714 0.4615384615385781 0
897 0.5128205128206198 0.4871794871795945 0
898 0.5128205128206682 0.5128205128206098 0
899 0.5128205128207171 0.5384615384616241 0
900 0.5128205128207663 0.5641025641026378 0
901 0.5128205128208163 0.5897435897436512 0
902 0.5128205128208677 0.6153846153846647 0
903 0.5128205128209204 0.6410256410256785 0
904 0.5128205128209751 0.6666666666666928 0
905 0.5128205128210324 0.6923076923077082 0
906 0.5128205128210926 0.7179487179487245 0
907 0.512820512821157 0.7435897435897426 0
908 0.5128205128212262 0.7692307692307618 0
909 0.5128205128213016 0.7948717948717827 0
910 0.5128205128213847 0.8205128205128056 0
911 0.5128205128214774 0.84615384615383 0
912 0.5128205128215824 0.8717948717948559 0
913 0.5128205128217027 0.8974358974358833 0
914 0.5128205128218435 0.9230769230769115 0
915 0.5128205128220125 0.9487179487179408 0
916 0.5128205128222234 0.97435897435897 0
917 0.5384615384604517 0.02564102564103798 0
918 0.5384615384605687 0.05128205128207571 0
919 0.538461538460672 0.07692307692311297 0
920 0.5384615384607643 0.1025641025641496 0
921 0.5384615384608474 0.1282051282051855 0
922 0.5384615384609234 0.1538461538462204 0
923 0.5384615384609936 0.1794871794872542 0
924 0.5384615384610593 0.2051282051282868 0
925 0.538461538461121 0.2307692307693179 0
926 0.5384615384611794 0.2564102564103476 0
927 0.5384615384612353 0.2820512820513757 0
928 0.5384615384612891 0.3076923076924022 0
929 0.5384615384613411 0.3333333333334271 0
930 0.5384615384613918 0.3589743589744504 0
931 0.5384615384614414 0.3846153846154722 0
932 0.5384615384614901 0.4102564102564925 0
933 0.5384615384615383 0.4358974358975112 0
934 0.5384615384615861 0.4615384615385289 0
935 0.5384615384616336 0.4871794871795455 0
936 0.538461538461681 0.5128205128205613 0
937 0.538461538461729 0.5384615384615766 0
938 0.5384615384617772 0.5641025641025916 0
939 0.5384615384618262 0.5897435897436066 0
940 0.5384615384618765 0.6153846153846221 0
941 0.5384615384619279 0.6410256410256381 0
942 0.5384615384619813 0.666666666666655 0
943 0.5384615384620369 0.692307692307673 0
944 0.5384615384620955 0.7179487179486921 0
945 0.5384615384621579 0.7435897435897129 0
946 0.538461538462225 0.7692307692307351 0
947 0.5384615384622977 0.7948717948717594 0
948 0.5384615384623774 0.8205128205127851 0
949 0.5384615384624664 0.8461538461538125 0
950 0.5384615384625664 0.8717948717948413 0
951 0.5384615384626801 0.8974358974358716 0
952 0.5384615384628112 0.9230769230769028 0
953 0.5384615384629645 0.9487179487179349 0
954 0.5384615384631448 0.9743589743589673 0
955 0.5641025641015229 0.02564102564103399 0
956 0.5641025641016252 0.05128205128206775 0
957 0.5641025641017192 0.0769230769231011 0
958 0.5641025641018053 0.1025641025641339 0
959 0.564102564101884 0.128205128205166 0
960 0.5641025641019568 0.1538461538461972 0
961 0.5641025641020245 0.1794871794872274 0
962 0.5641025641020878 0.2051282051282566 0
963 0.5641025641021477 0.2307692307692845 0
964 0.5641025641022046 0.2564102564103112 0
965 0.5641025641022589 0.2820512820513366 0
966 0.5641025641023113 0.3076923076923607 0
967 0.5641025641023618 0.3333333333333833 0
968 0.5641025641024111 0.3589743589744048 0
969 0.5641025641024594 0.384615384615425 0
970 0.5641025641025069 0.4102564102564441 0
971 0.5641025641025538 0.4358974358974623 0
972 0.5641025641026003 0.4615384615384797 0
973 0.5641025641026466 0.4871794871794964 0
974 0.5641025641026929 0.5128205128205128 0
975 0.5641025641027394 0.5384615384615289 0
976 0.5641025641027863 0.5641025641025452 0
977 0.5641025641028338 0.5897435897435619 0
978 0.5641025641028824 0.6153846153845793 0
979 0.5641025641029321 0.6410256410255976 0
980 0.5641025641029835 0.6666666666666169 0
981 0.5641025641030371 0.6923076923076377 0
982 0.5641025641030933 0.7179487179486597 0
983 0.5641025641031527 0.743589743589683 0
984 0.5641025641032165 0.7692307692307083 0
985 0.5641025641032852 0.7948717948717354 0
986 0.5641025641033602 0.8205128205127643 0
987 0.5641025641034432 0.8461538461537947 0
988 0.5641025641035355 0.8717948717948267 0
989 0.5641025641036392 0.8974358974358599 0
990 0.5641025641037565 0.923076923076894 0
991 0.5641025641038895 0.9487179487179291 0
992 0.5641025641040387 0.9743589743589645 0
993 0.5897435897426005 0.02564102564103002 0
994 0.5897435897426903 0.05128205128205982 0
995 0.5897435897427749 0.07692307692308928 0
996 0.5897435897428538 0.1025641025641182 0
997 0.5897435897429273 0.1282051282051465 0
998 0.5897435897429961 0.153846153846174 0
999 0.5897435897430603 0.1794871794872007 0
1000 0.5897435897431207 0.2051282051282264 0
1001 0.589743589743178 0.2307692307692511 0
1002 0.5897435897432327 0.2564102564102748 0
1003 0.589743589743285 0.2820512820512975 0
1004 0.5897435897433354 0.307692307692319 0
1005 0.5897435897433845 0.3333333333333396 0
1006 0.5897435897434319 0.3589743589743591 0
1007 0.5897435897434784 0.3846153846153778 0
1008 0.5897435897435244 0.4102564102563957 0
1009 0.5897435897435697 0.4358974358974131 0
1010 0.5897435897436145 0.4615384615384302 0
1011 0.5897435897436593 0.4871794871794472 0
1012 0.589743589743704 0.512820512820464 0
1013 0.5897435897437487 0.538461538461481 0
1014 0.5897435897437937 0.5641025641024986 0
1015 0.5897435897438394 0.5897435897435169 0
1016 0.589743589743886 0.6153846153845363 0
1017 0.5897435897439335 0.6410256410255567 0
1018 0.5897435897439824 0.6666666666665786 0
1019 0.5897435897440333 0.6923076923076018 0
1020 0.5897435897440865 0.7179487179486267 0
1021 0.5897435897441423 0.7435897435896531 0
1022 0.5897435897442017 0.7692307692306812 0
1023 0.5897435897442653 0.7948717948717114 0
1024 0.5897435897443344 0.8205128205127433 0
1025 0.5897435897444098 0.8461538461537766 0
1026 0.5897435897444926 0.8717948717948116 0
1027 0.5897435897445841 0.8974358974358478 0
1028 0.5897435897446857 0.9230769230768852 0
1029 0.5897435897447978 0.9487179487179231 0
1030 0.5897435897449198 0.9743589743589615 0
1031 0.6153846153836818 0.02564102564102607 0
1032 0.615384615383761 0.05128205128205193 0
1033 0.6153846153838368 0.0769230769230775 0
1034 0.6153846153839085 0.1025641025641026 0
1035 0.6153846153839763 0.1282051282051271 0
1036 0.6153846153840402 0.1538461538461509 0
1037 0.6153846153841005 0.179487179487174 0
1038 0.6153846153841575 0.2051282051281963 0
1039 0.6153846153842119 0.2307692307692178 0
1040 0.6153846153842639 0.2564102564102385 0
1041 0.6153846153843137 0.2820512820512582 0
1042 0.615384615384362 0.3076923076922773 0
1043 0.6153846153844087 0.3333333333332956 0
1044 0.6153846153844541 0.3589743589743131 0
1045 0.6153846153844986 0.3846153846153303 0
1046 0.6153846153845427 0.4102564102563471 0
1047 0.6153846153845861 0.4358974358973637 0
1048 0.6153846153846291 0.4615384615383805 0
1049 0.6153846153846718 0.4871794871793974 0
1050 0.6153846153847143 0.5128205128204147 0
1051 0.6153846153847572 0.5384615384614327 0
1052 0.6153846153848003 0.5641025641024515 0
1053 0.6153846153848437 0.5897435897434716 0
1054 0.6153846153848876 0.6153846153844927 0
1055 0.6153846153849327 0.6410256410255155 0
1056 0.6153846153849789 0.66666666666654 0
1057 0.6153846153850265 0.6923076923075658 0
1058 0.6153846153850757 0.7179487179485934 0
1059 0.6153846153851275 0.7435897435896228 0
1060 0.6153846153851817 0.7692307692306539 0
1061 0.6153846153852396 0.794871794871687 0
1062 0.6153846153853014 0.8205128205127221 0
1063 0.6153846153853679 0.8461538461537587 0
1064 0.6153846153854402 0.8717948717947964 0
1065 0.6153846153855187 0.8974358974358356 0
1066 0.6153846153856041 0.9230769230768761 0
1067 0.6153846153856962 0.9487179487179169 0
1068 0.6153846153857944 0.9743589743589582 0
1069 0.6410256410247653 0.02564102564102212 0
1070 0.6410256410248353 0.05128205128204407 0
1071 0.6410256410249031 0.07692307692306574 0
1072 0.6410256410249681 0.102564102564087 0
1073 0.6410256410250299 0.1282051282051077 0
1074 0.6410256410250887 0.1538461538461279 0
1075 0.6410256410251447 0.1794871794871474 0
1076 0.641025641025198 0.2051282051281662 0
1077 0.6410256410252491 0.2307692307691844 0
1078 0.641025641025298 0.2564102564102019 0
1079 0.6410256410253451 0.2820512820512189 0
1080 0.6410256410253907 0.3076923076922352 0
1081 0.6410256410254349 0.3333333333332512 0
1082 0.6410256410254782 0.3589743589742668 0
1083 0.6410256410255204 0.3846153846152824 0
1084 0.6410256410255621 0.4102564102562978 0
1085 0.6410256410256032 0.4358974358973137 0
1086 0.641025641025644 0.4615384615383301 0
1087 0.6410256410256846 0.487179487179347 0
1088 0.641025641025725 0.5128205128203648 0
1089 0.6410256410257655 0.5384615384613837 0
1090 0.6410256410258062 0.5641025641024039 0
1091 0.641025641025847 0.5897435897434256 0
1092 0.6410256410258883 0.6153846153844487 0
1093 0.6410256410259304 0.6410256410254738 0
1094 0.6410256410259733 0.6666666666665007 0
1095 0.6410256410260171 0.692307692307529 0
1096 0.6410256410260623 0.7179487179485594 0
1097 0.6410256410261093 0.743589743589592 0
1098 0.6410256410261581 0.7692307692306264 0
1099 0.6410256410262093 0.7948717948716626 0
1100 0.6410256410262631 0.8205128205127005 0
1101 0.6410256410263203 0.8461538461537402 0
1102 0.6410256410263812 0.8717948717947813 0
1103 0.6410256410264461 0.8974358974358234 0
1104 0.6410256410265154 0.9230769230768666 0
1105 0.6410256410265887 0.9487179487179109 0
1106 0.6410256410266654 0.9743589743589554 0
1107 0.6666666666658503 0.0256410256410182 0
1108 0.6666666666659122 0.05128205128203624 0
1109 0.6666666666659726 0.076923076923054 0
1110 0.6666666666660309 0.1025641025640714 0
1111 0.6666666666660872 0.1282051282050883 0
1112 0.6666666666661409 0.1538461538461048 0
1113 0.6666666666661925 0.1794871794871206 0
1114 0.6666666666662419 0.205128205128136 0
1115 0.6666666666662892 0.2307692307691508 0
1116 0.6666666666663349 0.2564102564101651 0
1117 0.6666666666663789 0.2820512820511791 0
1118 0.6666666666664217 0.3076923076921927 0
1119 0.6666666666664632 0.3333333333332063 0
1120 0.6666666666665039 0.3589743589742199 0
1121 0.6666666666665437 0.3846153846152336 0
1122 0.6666666666665829 0.4102564102562479 0
1123 0.6666666666666217 0.4358974358972627 0
1124 0.6666666666666601 0.4615384615382787 0
1125 0.6666666666666984 0.4871794871792957 0
1126 0.6666666666667361 0.512820512820314 0
1127 0.666666666666774 0.5384615384613338 0
1128 0.666666666666812 0.5641025641023553 0
1129 0.66666666666685 0.5897435897433786 0
1130 0.6666666666668883 0.6153846153844037 0
1131 0.6666666666669272 0.6410256410254311 0
1132 0.6666666666669664 0.6666666666664604 0
1133 0.6666666666670062 0.6923076923074917 0
1134 0.6666666666670472 0.717948717948525 0
1135 0.666666666667089 0.7435897435895605 0
1136 0.6666666666671318 0.769230769230598 0
1137 0.666666666667176 0.7948717948716374 0
1138 0.6666666666672216 0.8205128205126784 0
1139 0.6666666666672689 0.8461538461537212 0
1140 0.6666666666673179 0.8717948717947654 0
1141 0.6666666666673692 0.897435897435811 0
1142 0.6666666666674225 0.9230769230768572 0
1143 0.6666666666674776 0.9487179487179047 0
1144 0.6666666666675343 0.9743589743589524 0
1145 0.6923076923069361 0.0256410256410143 0
1146 0.692307692306991 0.05128205128202843 0
1147 0.6923076923070447 0.07692307692304232 0
1148 0.692307692307097 0.1025641025640559 0
1149 0.6923076923071476 0.128205128205069 0
1150 0.6923076923071964 0.1538461538460817 0
1151 0.6923076923072435 0.1794871794870939 0
1152 0.6923076923072888 0.2051282051281057 0
1153 0.6923076923073325 0.2307692307691171 0
1154 0.6923076923073745 0.2564102564101281 0
1155 0.6923076923074153 0.2820512820511389 0
1156 0.692307692307455 0.3076923076921498 0
1157 0.6923076923074937 0.3333333333331607 0
1158 0.6923076923075314 0.3589743589741721 0
1159 0.6923076923075686 0.3846153846151842 0
1160 0.6923076923076052 0.4102564102561969 0
1161 0.6923076923076414 0.4358974358972108 0
1162 0.6923076923076772 0.4615384615382261 0
1163 0.6923076923077126 0.4871794871792431 0
1164 0.6923076923077479 0.5128205128202619 0
1165 0.692307692307783 0.5384615384612825 0
1166 0.6923076923078182 0.5641025641023053 0
1167 0.6923076923078532 0.5897435897433303 0
1168 0.6923076923078885 0.6153846153843577 0
1169 0.6923076923079238 0.6410256410253874 0
1170 0.6923076923079594 0.6666666666664193 0
1171 0.6923076923079952 0.6923076923074534 0
1172 0.6923076923080312 0.71794871794849 0
1173 0.6923076923080677 0.7435897435895286 0
1174 0.6923076923081043 0.7692307692305692 0
1175 0.692307692308141 0.7948717948716117 0
1176 0.6923076923081781 0.8205128205126561 0
1177 0.6923076923082154 0.8461538461537023 0
1178 0.6923076923082526 0.8717948717947495 0
1179 0.6923076923082901 0.8974358974357982 0
1180 0.6923076923083277 0.9230769230768479 0
1181 0.6923076923083652 0.9487179487178986 0
1182 0.6923076923084024 0.9743589743589491 0
1183 0.7179487179480226 0.02564102564101041 0
1184 0.7179487179480711 0.05128205128202067 0
1185 0.7179487179481188 0.0769230769230307 0
1186 0.7179487179481654 0.1025641025640404 0
1187 0.7179487179482108 0.1282051282050497 0
1188 0.7179487179482547 0.1538461538460586 0
1189 0.7179487179482974 0.1794871794870671 0
1190 0.7179487179483386 0.2051282051280752 0
1191 0.7179487179483783 0.2307692307690831 0
1192 0.7179487179484167 0.2564102564100906 0
1193 0.7179487179484542 0.2820512820510983 0
1194 0.7179487179484906 0.3076923076921061 0
1195 0.7179487179485262 0.3333333333331143 0
1196 0.7179487179485611 0.3589743589741234 0
1197 0.7179487179485955 0.3846153846151333 0
1198 0.7179487179486292 0.4102564102561445 0
1199 0.7179487179486626 0.4358974358971573 0
1200 0.7179487179486956 0.461538461538172 0
1201 0.7179487179487283 0.4871794871791888 0
1202 0.7179487179487607 0.5128205128202079 0
1203 0.717948717948793 0.5384615384612295 0
1204 0.7179487179488252 0.5641025641022537 0
1205 0.7179487179488571 0.5897435897432806 0
1206 0.717948717948889 0.6153846153843102 0
1207 0.7179487179489209 0.6410256410253424 0
1208 0.7179487179489525 0.6666666666663771 0
1209 0.7179487179489841 0.6923076923074144 0
1210 0.7179487179490155 0.7179487179484541 0
1211 0.7179487179490465 0.7435897435894959 0
1212 0.7179487179490768 0.7692307692305398 0
1213 0.7179487179491063 0.7948717948715858 0
1214 0.7179487179491348 0.8205128205126334 0
1215 0.7179487179491619 0.8461538461536827 0
1216 0.7179487179491876 0.8717948717947335 0
1217 0.7179487179492114 0.8974358974357854 0
1218 0.7179487179492331 0.9230769230768381 0
1219 0.7179487179492527 0.9487179487178919 0
1220 0.7179487179492705 0.9743589743589459 0
1221 0.74358974358911 0.02564102564100658 0
1222 0.7435897435891525 0.05128205128201301 0
1223 0.7435897435891946 0.0769230769230192 0
1224 0.743589743589236 0.102564102564025 0
1225 0.7435897435892763 0.1282051282050305 0
1226 0.7435897435893155 0.1538461538460356 0
1227 0.7435897435893536 0.1794871794870402 0
1228 0.7435897435893908 0.2051282051280446 0
1229 0.7435897435894266 0.2307692307690487 0
1230 0.7435897435894614 0.2564102564100528 0
1231 0.7435897435894953 0.282051282051057 0
1232 0.7435897435895286 0.3076923076920617 0
1233 0.7435897435895611 0.333333333333067 0
1234 0.743589743589593 0.3589743589740734 0
1235 0.7435897435896244 0.384615384615081 0
1236 0.743589743589655 0.4102564102560904 0
1237 0.7435897435896857 0.4358974358971019 0
1238 0.7435897435897157 0.4615384615381157 0
1239 0.7435897435897453 0.4871794871791323 0
1240 0.7435897435897749 0.512820512820152 0
1241 0.7435897435898042 0.5384615384611746 0
1242 0.7435897435898333 0.5641025641022003 0
1243 0.7435897435898621 0.5897435897432289 0
1244 0.7435897435898907 0.6153846153842609 0
1245 0.7435897435899188 0.6410256410252959 0
1246 0.7435897435899467 0.6666666666663338 0
1247 0.7435897435899741 0.6923076923073743 0
1248 0.7435897435900009 0.7179487179484172 0
1249 0.7435897435900265 0.7435897435894625 0
1250 0.7435897435900507 0.7692307692305099 0
1251 0.7435897435900729 0.7948717948715591 0
1252 0.7435897435900931 0.8205128205126103 0
1253 0.7435897435901105 0.846153846153663 0
1254 0.7435897435901245 0.871794871794717 0
1255 0.7435897435901349 0.8974358974357725 0
1256 0.7435897435901407 0.9230769230768285 0
1257 0.7435897435901422 0.9487179487178855 0
1258 0.7435897435901397 0.9743589743589427 0
1259 0.7692307692301977 0.0256410256410028 0
1260 0.7692307692302349 0.05128205128200545 0
1261 0.7692307692302717 0.07692307692300783 0
1262 0.769230769230308 0.1025641025640099 0
1263 0.7692307692303435 0.1282051282050115 0
1264 0.7692307692303784 0.1538461538460126 0
1265 0.7692307692304122 0.1794871794870134 0
1266 0.7692307692304452 0.2051282051280139 0
1267 0.7692307692304773 0.2307692307690141 0
1268 0.7692307692305083 0.2564102564100144 0
1269 0.7692307692305387 0.282051282051015 0
1270 0.7692307692305687 0.3076923076920162 0
1271 0.769230769230598 0.3333333333330184 0
1272 0.7692307692306267 0.3589743589740219 0
1273 0.7692307692306549 0.384615384615027 0
1274 0.7692307692306828 0.4102564102560343 0
1275 0.7692307692307102 0.4358974358970442 0
1276 0.7692307692307372 0.461538461538057 0
1277 0.7692307692307642 0.4871794871790733 0
1278 0.7692307692307907 0.5128205128200933 0
1279 0.769230769230817 0.538461538461117 0
1280 0.7692307692308429 0.5641025641021444 0
1281 0.7692307692308685 0.5897435897431753 0
1282 0.7692307692308937 0.6153846153842097 0
1283 0.7692307692309185 0.6410256410252477 0
1284 0.7692307692309425 0.6666666666662887 0
1285 0.7692307692309656 0.6923076923073326 0
1286 0.7692307692309878 0.717948717948379 0
1287 0.7692307692310083 0.7435897435894278 0
1288 0.7692307692310267 0.769230769230479 0
1289 0.7692307692310425 0.7948717948715319 0
1290 0.7692307692310547 0.8205128205125864 0
1291 0.7692307692310629 0.8461538461536426 0
1292 0.7692307692310661 0.8717948717947002 0
1293 0.7692307692310631 0.8974358974357591 0
1294 0.7692307692310529 0.9230769230768188 0
1295 0.7692307692310354 0.9487179487178791 0
1296 0.7692307692310112 0.9743589743589395 0
1297 0.7948717948712859 0.0256410256409991 0
1298 0.7948717948713181 0.05128205128199802 0
1299 0.79487179487135 0.07692307692299664 0
1300 0.7948717948713815 0.1025641025639949 0
1301 0.7948717948714126 0.1282051282049926 0
1302 0.7948717948714431 0.1538461538459898 0
1303 0.7948717948714727 0.1794871794869865 0
1304 0.7948717948715016 0.205128205127983 0
1305 0.7948717948715298 0.2307692307689792 0
1306 0.7948717948715576 0.2564102564099756 0
1307 0.7948717948715845 0.2820512820509723 0
1308 0.7948717948716111 0.3076923076919698 0
1309 0.7948717948716369 0.3333333333329683 0
1310 0.7948717948716625 0.3589743589739685 0
1311 0.7948717948716877 0.3846153846149707 0
1312 0.7948717948717121 0.4102564102559755 0
1313 0.7948717948717366 0.4358974358969835 0
1314 0.7948717948717607 0.4615384615379952 0
1315 0.7948717948717844 0.487179487179011 0
1316 0.794871794871808 0.5128205128200313 0
1317 0.7948717948718313 0.5384615384610559 0
1318 0.7948717948718541 0.5641025641020853 0
1319 0.7948717948718765 0.5897435897431187 0
1320 0.7948717948718985 0.6153846153841561 0
1321 0.7948717948719197 0.6410256410251973 0
1322 0.7948717948719402 0.6666666666662419 0
1323 0.7948717948719592 0.6923076923072893 0
1324 0.7948717948719773 0.7179487179483395 0
1325 0.7948717948719931 0.7435897435893922 0
1326 0.7948717948720062 0.769230769230447 0
1327 0.7948717948720159 0.7948717948715036 0
1328 0.7948717948720212 0.820512820512562 0
1329 0.7948717948720211 0.8461538461536219 0
1330 0.794871794872014 0.8717948717946831 0
1331 0.7948717948719983 0.8974358974357455 0
1332 0.7948717948719725 0.9230769230768087 0
1333 0.7948717948719352 0.948717948717872 0
1334 0.7948717948718867 0.974358974358936 0
1335 0.8205128205123744 0.0256410256409955 0
1336 0.820512820512402 0.05128205128199082 0
1337 0.8205128205124294 0.07692307692298575 0
1338 0.8205128205124562 0.1025641025639802 0
1339 0.820512820512483 0.128205128204974 0
1340 0.8205128205125093 0.1538461538459673 0
1341 0.8205128205125349 0.1794871794869599 0
1342 0.8205128205125598 0.205128205127952 0
1343 0.8205128205125846 0.230769230768944 0
1344 0.8205128205126084 0.2564102564099361 0
1345 0.820512820512632 0.2820512820509286 0
1346 0.820512820512655 0.3076923076919219 0
1347 0.8205128205126779 0.3333333333329165 0
1348 0.8205128205127 0.3589743589739129 0
1349 0.820512820512722 0.3846153846149117 0
1350 0.8205128205127435 0.4102564102559135 0
1351 0.820512820512765 0.4358974358969193 0
1352 0.820512820512786 0.4615384615379295 0
1353 0.8205128205128066 0.4871794871789447 0
1354 0.8205128205128273 0.5128205128199652 0
1355 0.8205128205128475 0.5384615384609912 0
1356 0.8205128205128671 0.5641025641020226 0
1357 0.8205128205128865 0.5897435897430588 0
1358 0.8205128205129053 0.6153846153840996 0
1359 0.8205128205129231 0.6410256410251444 0
1360 0.8205128205129402 0.6666666666661929 0
1361 0.8205128205129557 0.6923076923072443 0
1362 0.8205128205129697 0.7179487179482987 0
1363 0.8205128205129814 0.7435897435893556 0
1364 0.8205128205129899 0.7692307692304141 0
1365 0.8205128205129945 0.7948717948714749 0
1366 0.820512820512994 0.820512820512537 0
1367 0.8205128205129868 0.8461538461536008 0
1368 0.820512820512971 0.8717948717946655 0
1369 0.8205128205129442 0.8974358974357314 0
1370 0.8205128205129036 0.9230769230767981 0
1371 0.8205128205128464 0.9487179487178653 0
1372 0.8205128205127702 0.9743589743589324 0
1373 0.8461538461534635 0.02564102564099205 0
1374 0.8461538461534865 0.05128205128198388 0
1375 0.8461538461535094 0.07692307692297527 0
1376 0.8461538461535323 0.102564102563966 0
1377 0.8461538461535549 0.128205128204956 0
1378 0.8461538461535768 0.1538461538459451 0
1379 0.8461538461535986 0.1794871794869335 0
1380 0.8461538461536197 0.2051282051279212 0
1381 0.8461538461536405 0.2307692307689086 0
1382 0.8461538461536612 0.256410256409896 0
1383 0.8461538461536812 0.2820512820508839 0
1384 0.8461538461537008 0.3076923076918726 0
1385 0.8461538461537202 0.3333333333328628 0
1386 0.8461538461537393 0.3589743589738549 0
1387 0.8461538461537582 0.3846153846148498 0
1388 0.8461538461537768 0.4102564102558482 0
1389 0.846153846153795 0.435897435896851 0
1390 0.8461538461538128 0.4615384615378591 0
1391 0.8461538461538306 0.4871794871788733 0
1392 0.8461538461538481 0.5128205128198942 0
1393 0.8461538461538654 0.5384615384609216 0
1394 0.846153846153882 0.5641025641019555 0
1395 0.8461538461538982 0.589743589742995 0
1396 0.8461538461539141 0.61538461538404 0
1397 0.8461538461539286 0.6410256410250889 0
1398 0.8461538461539425 0.6666666666661416 0
1399 0.8461538461539549 0.6923076923071976 0
1400 0.8461538461539656 0.7179487179482564 0
1401 0.8461538461539738 0.7435897435893176 0
1402 0.8461538461539785 0.7692307692303806 0
1403 0.846153846153979 0.7948717948714453 0
1404 0.8461538461539739 0.8205128205125114 0
1405 0.8461538461539614 0.846153846153579 0
1406 0.8461538461539393 0.8717948717946478 0
1407 0.8461538461539043 0.8974358974357173 0
1408 0.8461538461538523 0.9230769230767872 0
1409 0.8461538461537765 0.948717948717858 0
1410 0.8461538461536697 0.974358974358929 0
1411 0.8717948717945525 0.02564102564098878 0
1412 0.8717948717945714 0.05128205128197731 0
1413 0.8717948717945903 0.07692307692296534 0
1414 0.8717948717946091 0.1025641025639525 0
1415 0.8717948717946276 0.1282051282049387 0
1416 0.8717948717946458 0.1538461538459237 0
1417 0.8717948717946638 0.1794871794869075 0
1418 0.8717948717946812 0.2051282051278905 0
1419 0.8717948717946983 0.230769230768873 0
1420 0.8717948717947152 0.2564102564098555 0
1421 0.8717948717947319 0.2820512820508383 0
1422 0.8717948717947483 0.307692307691822 0
1423 0.8717948717947646 0.3333333333328071 0
1424 0.8717948717947804 0.3589743589737943 0
1425 0.871794871794796 0.3846153846147843 0
1426 0.8717948717948113 0.4102564102557784 0
1427 0.8717948717948266 0.4358974358967774 0
1428 0.8717948717948416 0.4615384615377829 0
1429 0.8717948717948563 0.4871794871787957 0
1430 0.8717948717948708 0.5128205128198169 0
1431 0.8717948717948849 0.5384615384608461 0
1432 0.8717948717948987 0.5641025641018833 0
1433 0.871794871794912 0.5897435897429271 0
1434 0.8717948717949248 0.6153846153839765 0
1435 0.8717948717949365 0.6410256410250303 0
1436 0.8717948717949475 0.6666666666660881 0
1437 0.871794871794957 0.6923076923071489 0
1438 0.8717948717949647 0.7179487179482126 0
1439 0.8717948717949702 0.7435897435892783 0
1440 0.8717948717949719 0.7692307692303457 0
1441 0.8717948717949698 0.794871794871415 0
1442 0.8717948717949618 0.8205128205124854 0
1443 0.8717948717949464 0.8461538461535569 0
1444 0.8717948717949212 0.8717948717946296 0
1445 0.8717948717948822 0.8974358974357028 0
1446 0.8717948717948242 0.9230769230767766 0
1447 0.8717948717947379 0.9487179487178509 0
1448 0.8717948717946064 0.9743589743589254 0
1449 0.8974358974356416 0.02564102564098573 0
1450 0.8974358974356567 0.0512820512819712 0
1451 0.8974358974356716 0.07692307692295611 0
1452 0.8974358974356865 0.1025641025639401 0
1453 0.8974358974357012 0.1282051282049226 0
1454 0.8974358974357157 0.1538461538459033 0
1455 0.8974358974357299 0.1794871794868823 0
1456 0.8974358974357437 0.2051282051278603 0
1457 0.8974358974357574 0.2307692307688375 0
1458 0.8974358974357708 0.2564102564098145 0
1459 0.8974358974357839 0.2820512820507918 0
1460 0.8974358974357972 0.3076923076917699 0
1461 0.8974358974358101 0.3333333333327493 0
1462 0.8974358974358229 0.3589743589737308 0
1463 0.8974358974358354 0.3846153846147152 0
1464 0.8974358974358477 0.4102564102557039 0
1465 0.8974358974358596 0.435897435896698 0
1466 0.8974358974358715 0.4615384615376995 0
1467 0.8974358974358834 0.4871794871787101 0
1468 0.897435897435895 0.5128205128197315 0
1469 0.8974358974359059 0.5384615384607633 0
1470 0.897435897435917 0.5641025641018048 0
1471 0.8974358974359274 0.5897435897428538 0
1472 0.8974358974359373 0.6153846153839089 0
1473 0.8974358974359467 0.6410256410249686 0
1474 0.897435897435955 0.6666666666660322 0
1475 0.897435897435962 0.6923076923070985 0
1476 0.8974358974359672 0.7179487179481673 0
1477 0.8974358974359704 0.7435897435892379 0
1478 0.8974358974359706 0.7692307692303102 0
1479 0.8974358974359667 0.7948717948713837 0
1480 0.8974358974359579 0.8205128205124584 0
1481 0.897435897435942 0.8461538461535342 0
1482 0.897435897435917 0.8717948717946108 0
1483 0.8974358974358794 0.897435897435688 0
1484 0.8974358974358242 0.9230769230767656 0
1485 0.8974358974357451 0.9487179487178435 0
1486 0.8974358974356315 0.9743589743589217 0
1487 0.9230769230767311 0.02564102564098293 0
1488 0.9230769230767422 0.0512820512819656 0
1489 0.9230769230767533 0.07692307692294781 0
1490 0.9230769230767643 0.102564102563929 0
1491 0.9230769230767754 0.1282051282049081 0
1492 0.9230769230767861 0.1538461538458843 0
1493 0.9230769230767969 0.1794871794868583 0
1494 0.9230769230768073 0.2051282051278306 0
1495 0.9230769230768174 0.2307692307688021 0
1496 0.9230769230768272 0.2564102564097732 0
1497 0.923076923076837 0.2820512820507445 0
1498 0.923076923076847 0.3076923076917164 0
1499 0.9230769230768566 0.3333333333326896 0
1500 0.9230769230768662 0.3589743589736644 0
1501 0.9230769230768755 0.3846153846146421 0
1502 0.9230769230768849 0.4102564102556239 0
1503 0.9230769230768937 0.4358974358966114 0
1504 0.9230769230769025 0.4615384615376071 0
1505 0.9230769230769114 0.4871794871786141 0
1506 0.9230769230769201 0.5128205128196356 0
1507 0.9230769230769282 0.5384615384606716 0
1508 0.9230769230769365 0.5641025641017191 0
1509 0.9230769230769443 0.5897435897427751 0
1510 0.9230769230769517 0.6153846153838373 0
1511 0.9230769230769584 0.6410256410249038 0
1512 0.9230769230769644 0.6666666666659737 0
1513 0.9230769230769693 0.6923076923070461 0
1514 0.9230769230769728 0.7179487179481205 0
1515 0.9230769230769744 0.7435897435891966 0
1516 0.9230769230769736 0.7692307692302738 0
1517 0.9230769230769695 0.794871794871352 0
1518 0.9230769230769612 0.8205128205124312 0
1519 0.9230769230769473 0.8461538461535113 0
1520 0.9230769230769257 0.8717948717945919 0
1521 0.9230769230768938 0.8974358974356729 0
1522 0.9230769230768487 0.9230769230767543 0
1523 0.9230769230767867 0.9487179487178361 0
1524 0.9230769230767043 0.9743589743589179 0
1525 0.9487179487178207 0.02564102564098038 0
1526 0.9487179487178281 0.05128205128196041 0
1527 0.9487179487178355 0.07692307692294056 0
1528 0.9487179487178428 0.10256410256392 0
1529 0.9487179487178501 0.1282051282048964 0
1530 0.9487179487178572 0.1538461538458678 0
1531 0.9487179487178642 0.1794871794868358 0
1532 0.9487179487178712 0.2051282051278019 0
1533 0.9487179487178778 0.230769230768767 0
1534 0.9487179487178846 0.2564102564097317 0
1535 0.9487179487178909 0.2820512820506965 0
1536 0.9487179487178976 0.3076923076916618 0
1537 0.9487179487179042 0.3333333333326279 0
1538 0.9487179487179105 0.3589743589735954 0
1539 0.9487179487179168 0.3846153846145652 0
1540 0.9487179487179227 0.4102564102555384 0
1541 0.9487179487179288 0.4358974358965167 0
1542 0.9487179487179348 0.4615384615375034 0
1543 0.9487179487179406 0.487179487178504 0
1544 0.9487179487179463 0.5128205128195256 0
1545 0.9487179487179518 0.5384615384605684 0
1546 0.9487179487179572 0.5641025641016253 0
1547 0.9487179487179623 0.5897435897426907 0
1548 0.9487179487179672 0.6153846153837615 0
1549 0.9487179487179717 0.6410256410248359 0
1550 0.9487179487179754 0.666666666665913 0
1551 0.9487179487179783 0.692307692306992 0
1552 0.9487179487179803 0.7179487179480725 0
1553 0.9487179487179811 0.743589743589154 0
1554 0.9487179487179803 0.7692307692302364 0
1555 0.9487179487179769 0.7948717948713196 0
1556 0.9487179487179705 0.8205128205124035 0
1557 0.9487179487179603 0.8461538461534879 0
1558 0.9487179487179447 0.8717948717945728 0
1559 0.9487179487179221 0.8974358974356579 0
1560 0.9487179487178905 0.923076923076743 0
1561 0.9487179487178488 0.9487179487178287 0
1562 0.9487179487177961 0.9743589743589143 0
1563 0.9743589743589102 0.02564102564097815 0
1564 0.9743589743589139 0.05128205128195511 0
1565 0.9743589743589175 0.07692307692293404 0
1566 0.9743589743589214 0.1025641025639141 0
1567 0.9743589743589248 0.1282051282048895 0
1568 0.9743589743589285 0.1538461538458545 0
1569 0.9743589743589318 0.1794871794868151 0
1570 0.9743589743589355 0.2051282051277741 0
1571 0.9743589743589389 0.2307692307687323 0
1572 0.9743589743589423 0.2564102564096902 0
1573 0.9743589743589455 0.2820512820506481 0
1574 0.9743589743589488 0.3076923076916063 0
1575 0.9743589743589521 0.3333333333325649 0
1576 0.9743589743589552 0.3589743589735243 0
1577 0.9743589743589584 0.3846153846144849 0
1578 0.9743589743589612 0.4102564102554476 0
1579 0.9743589743589642 0.4358974358964137 0
1580 0.9743589743589675 0.4615384615373862 0
1581 0.9743589743589702 0.4871794871783726 0
1582 0.974358974358973 0.5128205128193944 0
1583 0.9743589743589757 0.5384615384604517 0
1584 0.9743589743589784 0.564102564101523 0
1585 0.9743589743589809 0.5897435897426009 0
1586 0.9743589743589833 0.6153846153836823 0
1587 0.9743589743589856 0.6410256410247659 0
1588 0.9743589743589874 0.6666666666658507 0
1589 0.9743589743589889 0.6923076923069368 0
1590 0.9743589743589899 0.7179487179480234 0
1591 0.9743589743589901 0.7435897435891108 0
1592 0.9743589743589894 0.7692307692301985 0
1593 0.9743589743589874 0.7948717948712867 0
1594 0.9743589743589843 0.8205128205123754 0
1595 0.9743589743589788 0.8461538461534643 0
1596 0.9743589743589705 0.8717948717945531 0
1597 0.9743589743589588 0.8974358974356422 0
1598 0.9743589743589427 0.9230769230767315 0
1599 0.974358974358922 0.948717948717821 0
1600 0.9743589743588965 0.9743589743589105 0
