676
1 0 0 0
2 0 1 0
3 1 1 0
4 1 0 0
5 0.03999999999992165 0 0
6 0.07999999999984476 0 0
7 0.1199999999997825 0 0
8 0.1599999999996737 0 0
9 0.1999999999995569 0 0
10 0.2399999999994402 0 0
11 0.2799999999993234 0 0
12 0.3199999999992066 0 0
13 0.3599999999990898 0 0
14 0.3999999999989731 0 0
15 0.4399999999988564 0 0
16 0.4799999999987396 0 0
17 0.5199999999987339 0 0
18 0.5599999999988394 0 0
19 0.5999999999989449 0 0
20 0.6399999999990504 0 0
21 0.6799999999991559 0 0
22 0.7199999999992615 0 0
23 0.759999999999367 0 0
24 0.7999999999994724 0 0
25 0.839999999999578 0 0
26 0.8799999999996835 0 0
27 0.9199999999997889 0 0
28 0.9599999999998945 0 0
29 1 0.03999999999992165 0
30 1 0.07999999999984476 0
31 1 0.1199999999997825 0
32 1 0.1599999999996737 0
33 1 0.1999999999995569 0
34 1 0.2399999999994402 0
35 1 0.2799999999993234 0
36 1 0.3199999999992066 0
37 1 0.3599999999990898 0
38 1 0.3999999999989731 0
39 1 0.4399999999988564 0
40 1 0.4799999999987396 0
41 1 0.5199999999987339 0
42 1 0.5599999999988394 0
43 1 0.5999999999989449 0
44 1 0.6399999999990504 0
45 1 0.6799999999991559 0
46 1 0.7199999999992615 0
47 1 0.759999999999367 0
48 1 0.7999999999994724 0
49 1 0.839999999999578 0
50 1 0.8799999999996835 0
51 1 0.9199999999997889 0
52 1 0.9599999999998945 0
53 0.9599999999998334 1 0
54 0.9199999999996669 1 0
55 0.8799999999995082 1 0
56 0.8399999999997224 1 0
57 0.8 1 0
58 0.7600000000002776 1 0
59 0.7200000000005551 1 0
60 0.6800000000008326 1 0
61 0.64000000000111 1 0
62 0.6000000000013874 1 0
63 0.5600000000016649 1 0
64 0.5200000000019424 1 0
65 0.4800000000019978 1 0
66 0.4400000000018314 1 0
67 0.4000000000016649 1 0
68 0.3600000000014983 1 0
69 0.3200000000013319 1 0
70 0.2800000000011654 1 0
71 0.240000000000999 1 0
72 0.2000000000008325 1 0
73 0.1600000000006659 1 0
74 0.1200000000004994 1 0
75 0.08000000000033292 1 0
76 0.04000000000016646 1 0
77 0 0.9599999999998334 0
78 0 0.9199999999996669 0
79 0 0.8799999999995082 0
80 0 0.8399999999997224 0
81 0 0.8 0
82 0 0.7600000000002776 0
83 0 0.7200000000005551 0
84 0 0.6800000000008326 0
85 0 0.64000000000111 0
86 0 0.6000000000013874 0
87 0 0.5600000000016649 0
88 0 0.5200000000019424 0
89 0 0.4800000000019978 0
90 0 0.4400000000018314 0
91 0 0.4000000000016649 0
92 0 0.3600000000014983 0
93 0 0.3200000000013319 0
94 0 0.2800000000011654 0
95 0 0.240000000000999 0
96 0 0.2000000000008325 0
97 0 0.1600000000006659 0
98 0 0.1200000000004994 0
99 0 0.08000000000033292 0
100 0 0.04000000000016646 0
101 0.03999999999992735 0.04000000000015138 0
102 0.03999999999993306 0.08000000000030248 0
103 0.03999999999993959 0.1200000000004531 0
104 0.03999999999994688 0.1600000000006028 0
105 0.03999999999995472 0.2000000000007512 0
106 0.03999999999996283 0.2400000000008979 0
107 0.03999999999997107 0.2800000000010418 0
108 0.03999999999997934 0.3200000000011819 0
109 0.03999999999998761 0.3600000000013158 0
110 0.03999999999999589 0.4000000000014392 0
111 0.04000000000000421 0.4400000000015431 0
112 0.04000000000001264 0.4800000000016043 0
113 0.04000000000002127 0.5200000000015559 0
114 0.04000000000003018 0.5600000000013983 0
115 0.04000000000003946 0.6000000000011988 0
116 0.04000000000004922 0.6400000000009813 0
117 0.04000000000005956 0.6800000000007563 0
118 0.04000000000007057 0.7200000000005297 0
119 0.04000000000008229 0.7600000000003067 0
120 0.04000000000009476 0.8000000000000952 0
121 0.04000000000010798 0.8399999999999113 0
122 0.04000000000012189 0.8799999999997976 0
123 0.04000000000013639 0.9199999999998247 0
124 0.04000000000015131 0.9599999999999036 0
125 0.07999999999985462 0.04000000000013648 0
126 0.07999999999986526 0.08000000000027245 0
127 0.07999999999987831 0.1200000000004074 0
128 0.07999999999989314 0.1600000000005407 0
129 0.07999999999990899 0.2000000000006716 0
130 0.07999999999992537 0.2400000000007991 0
131 0.0799999999999419 0.2800000000009218 0
132 0.07999999999995845 0.3200000000010378 0
133 0.07999999999997495 0.3600000000011433 0
134 0.07999999999999147 0.400000000001233 0
135 0.08000000000000802 0.4400000000012974 0
136 0.0800000000000248 0.4800000000013203 0
137 0.08000000000004194 0.5200000000012788 0
138 0.08000000000005965 0.5600000000011732 0
139 0.08000000000007813 0.6000000000010279 0
140 0.08000000000009758 0.6400000000008602 0
141 0.08000000000011818 0.6800000000006818 0
142 0.08000000000014014 0.7200000000005006 0
143 0.08000000000016357 0.7600000000003245 0
144 0.08000000000018856 0.8000000000001629 0
145 0.08000000000021509 0.8400000000000297 0
146 0.08000000000024307 0.8799999999999467 0
147 0.08000000000027226 0.9199999999999309 0
148 0.08000000000030234 0.9599999999999564 0
149 0.1199999999997811 0.04000000000012199 0
150 0.119999999999795 0.08000000000024325 0
151 0.1199999999998151 0.1200000000003631 0
152 0.1199999999998382 0.1600000000004807 0
153 0.1199999999998625 0.200000000000595 0
154 0.1199999999998874 0.2400000000007048 0
155 0.1199999999999124 0.2800000000008084 0
156 0.1199999999999372 0.3200000000009034 0
157 0.1199999999999619 0.3600000000009862 0
158 0.1199999999999865 0.4000000000010517 0
159 0.1200000000000112 0.4400000000010929 0
160 0.1200000000000361 0.4800000000011002 0
161 0.1200000000000615 0.5200000000010649 0
162 0.1200000000000878 0.5600000000009879 0
163 0.1200000000001153 0.6000000000008793 0
164 0.1200000000001442 0.6400000000007501 0
165 0.120000000000175 0.6800000000006098 0
166 0.1200000000002078 0.7200000000004663 0
167 0.1200000000002429 0.7600000000003274 0
168 0.1200000000002805 0.8000000000002014 0
169 0.1200000000003205 0.8400000000000982 0
170 0.1200000000003628 0.8800000000000281 0
171 0.1200000000004071 0.9199999999999957 0
172 0.1200000000004529 0.959999999999991 0
173 0.1599999999996922 0.04000000000010804 0
174 0.1599999999997183 0.0800000000002152 0
175 0.1599999999997488 0.1200000000003206 0
176 0.1599999999997816 0.1600000000004234 0
177 0.1599999999998153 0.2000000000005224 0
178 0.1599999999998492 0.2400000000006162 0
179 0.1599999999998827 0.280000000000703 0
180 0.1599999999999157 0.3200000000007804 0
181 0.1599999999999484 0.3600000000008457 0
182 0.1599999999999809 0.4000000000008943 0
183 0.1600000000000133 0.4400000000009216 0
184 0.1600000000000461 0.4800000000009224 0
185 0.1600000000000795 0.5200000000008929 0
186 0.1600000000001141 0.5600000000008338 0
187 0.1600000000001503 0.6000000000007509 0
188 0.1600000000001885 0.6400000000006506 0
189 0.1600000000002291 0.6800000000005406 0
190 0.1600000000002726 0.7200000000004273 0
191 0.1600000000003194 0.7600000000003175 0
192 0.1600000000003696 0.8000000000002175 0
193 0.1600000000004233 0.8400000000001339 0
194 0.1600000000004804 0.8800000000000718 0
195 0.1600000000005404 0.9200000000000328 0
196 0.1600000000006026 0.9600000000000116 0
197 0.1999999999995957 0.04000000000009475 0
198 0.1999999999996369 0.08000000000018852 0
199 0.19999999999968 0.1200000000002804 0
200 0.1999999999997238 0.1600000000003694 0
201 0.1999999999997675 0.2000000000004544 0
202 0.1999999999998106 0.2400000000005338 0
203 0.1999999999998528 0.2800000000006062 0
204 0.199999999999894 0.3200000000006694 0
205 0.1999999999999346 0.3600000000007209 0
206 0.1999999999999746 0.4000000000007576 0
207 0.2000000000000144 0.4400000000007764 0
208 0.2000000000000546 0.4800000000007743 0
209 0.2000000000000956 0.5200000000007499 0
210 0.2000000000001381 0.5600000000007037 0
211 0.2000000000001825 0.6000000000006392 0
212 0.2000000000002294 0.6400000000005612 0
213 0.2000000000002795 0.6800000000004748 0
214 0.2000000000003335 0.7200000000003852 0
215 0.2000000000003917 0.7600000000002975 0
216 0.2000000000004546 0.8000000000002169 0
217 0.2000000000005223 0.8400000000001475 0
218 0.2000000000005947 0.8800000000000926 0
219 0.2000000000006713 0.9200000000000519 0
220 0.200000000000751 0.9600000000000227 0
221 0.2399999999994968 0.04000000000008218 0
222 0.2399999999995536 0.08000000000016336 0
223 0.2399999999996102 0.1200000000002426 0
224 0.2399999999996658 0.1600000000003189 0
225 0.23999999999972 0.2000000000003911 0
226 0.2399999999997726 0.2400000000004578 0
227 0.2399999999998234 0.2800000000005178 0
228 0.2399999999998725 0.3200000000005691 0
229 0.2399999999999204 0.3600000000006099 0
230 0.2399999999999676 0.400000000000638 0
231 0.2400000000000144 0.4400000000006514 0
232 0.2400000000000614 0.4800000000006482 0
233 0.2400000000001094 0.5200000000006281 0
234 0.2400000000001591 0.5600000000005915 0
235 0.2400000000002112 0.6000000000005409 0
236 0.2400000000002663 0.6400000000004796 0
237 0.2400000000003254 0.6800000000004116 0
238 0.2400000000003892 0.7200000000003404 0
239 0.2400000000004586 0.7600000000002705 0
240 0.2400000000005342 0.8000000000002051 0
241 0.2400000000006162 0.8400000000001474 0
242 0.2400000000007045 0.8800000000000988 0
243 0.2400000000007988 0.9200000000000595 0
244 0.2400000000008976 0.9600000000000277 0
245 0.2799999999993973 0.04000000000007035 0
246 0.2799999999994702 0.0800000000001397 0
247 0.2799999999995409 0.1200000000002071 0
248 0.279999999999609 0.1600000000002717 0
249 0.2799999999996739 0.2000000000003324 0
250 0.2799999999997357 0.2400000000003879 0
251 0.2799999999997949 0.2800000000004371 0
252 0.2799999999998515 0.3200000000004787 0
253 0.2799999999999064 0.3600000000005109 0
254 0.2799999999999601 0.4000000000005324 0
255 0.2800000000000131 0.4400000000005419 0
256 0.2800000000000663 0.4800000000005385 0
257 0.2800000000001207 0.5200000000005219 0
258 0.2800000000001768 0.5600000000004928 0
259 0.2800000000002356 0.6000000000004529 0
260 0.2800000000002982 0.6400000000004047 0
261 0.2800000000003655 0.6800000000003511 0
262 0.2800000000004387 0.7200000000002947 0
263 0.2800000000005187 0.7600000000002388 0
264 0.2800000000006067 0.8000000000001858 0
265 0.2800000000007031 0.8400000000001377 0
266 0.2800000000008082 0.8800000000000958 0
267 0.2800000000009216 0.9200000000000598 0
268 0.2800000000010416 0.9600000000000286 0
269 0.319999999999299 0.04000000000005922 0
270 0.3199999999993888 0.08000000000011749 0
271 0.3199999999994743 0.1200000000001739 0
272 0.3199999999995549 0.1600000000002277 0
273 0.3199999999996305 0.2000000000002779 0
274 0.3199999999997013 0.2400000000003234 0
275 0.3199999999997681 0.2800000000003633 0
276 0.3199999999998317 0.3200000000003964 0
277 0.3199999999998927 0.3600000000004216 0
278 0.3199999999999522 0.4000000000004381 0
279 0.3200000000000107 0.4400000000004448 0
280 0.3200000000000692 0.4800000000004414 0
281 0.3200000000001289 0.5200000000004276 0
282 0.3200000000001906 0.5600000000004044 0
283 0.3200000000002553 0.600000000000373 0
284 0.3200000000003244 0.6400000000003351 0
285 0.320000000000399 0.6800000000002928 0
286 0.3200000000004805 0.7200000000002484 0
287 0.3200000000005703 0.7600000000002041 0
288 0.32000000000067 0.8000000000001615 0
289 0.3200000000007807 0.8400000000001221 0
290 0.3200000000009032 0.8800000000000866 0
291 0.3200000000010375 0.920000000000055 0
292 0.3200000000011816 0.9600000000000267 0
293 0.3599999999992032 0.04000000000004873 0
294 0.3599999999993114 0.08000000000009659 0
295 0.3599999999994123 0.1200000000001428 0
296 0.3599999999995054 0.1600000000001865 0
297 0.3599999999995911 0.2000000000002272 0
298 0.3599999999996703 0.2400000000002636 0
299 0.3599999999997442 0.2800000000002952 0
300 0.3599999999998137 0.3200000000003211 0
301 0.35999999999988 0.3600000000003404 0
302 0.3599999999999443 0.4000000000003527 0
303 0.3600000000000073 0.440000000000357 0
304 0.3600000000000702 0.4800000000003536 0
305 0.3600000000001342 0.5200000000003423 0
306 0.3600000000002004 0.5600000000003239 0
307 0.3600000000002698 0.6000000000002993 0
308 0.360000000000344 0.6400000000002698 0
309 0.3600000000004245 0.6800000000002369 0
310 0.360000000000513 0.7200000000002023 0
311 0.3600000000006114 0.7600000000001675 0
312 0.3600000000007216 0.8000000000001338 0
313 0.3600000000008459 0.8400000000001023 0
314 0.3600000000009861 0.8800000000000735 0
315 0.360000000001143 0.9200000000000472 0
316 0.3600000000013155 0.9600000000000231 0
317 0.3999999999991121 0.04000000000003883 0
318 0.3999999999992413 0.08000000000007688 0
319 0.399999999999358 0.1200000000001135 0
320 0.3999999999994631 0.1600000000001479 0
321 0.3999999999995579 0.2000000000001796 0
322 0.3999999999996443 0.2400000000002079 0
323 0.3999999999997239 0.280000000000232 0
324 0.3999999999997982 0.3200000000002514 0
325 0.3999999999998688 0.3600000000002656 0
326 0.3999999999999367 0.400000000000274 0
327 0.4000000000000031 0.4400000000002766 0
328 0.4000000000000692 0.4800000000002731 0
329 0.4000000000001364 0.5200000000002638 0
330 0.4000000000002056 0.5600000000002491 0
331 0.4000000000002785 0.60000000000023 0
332 0.4000000000003564 0.6400000000002075 0
333 0.4000000000004411 0.6800000000001822 0
334 0.4000000000005348 0.7200000000001562 0
335 0.4000000000006396 0.7600000000001297 0
336 0.4000000000007586 0.8000000000001042 0
337 0.4000000000008948 0.84000000000008 0
338 0.4000000000010518 0.8800000000000578 0
339 0.4000000000012329 0.9200000000000373 0
340 0.4000000000014391 0.9600000000000183 0
341 0.4399999999990306 0.04000000000002941 0
342 0.4399999999991834 0.08000000000005815 0
343 0.4399999999993154 0.1200000000000856 0
344 0.4399999999994306 0.1600000000001113 0
345 0.4399999999995327 0.2000000000001347 0
346 0.4399999999996245 0.2400000000001553 0
347 0.4399999999997082 0.2800000000001725 0
348 0.4399999999997862 0.320000000000186 0
349 0.4399999999998594 0.3600000000001954 0
350 0.4399999999999298 0.4000000000002006 0
351 0.4399999999999984 0.4400000000002013 0
352 0.4400000000000666 0.4800000000001977 0
353 0.4400000000001354 0.5200000000001899 0
354 0.4400000000002065 0.5600000000001785 0
355 0.4400000000002811 0.6000000000001641 0
356 0.440000000000361 0.6400000000001472 0
357 0.440000000000448 0.6800000000001291 0
358 0.4400000000005444 0.7200000000001101 0
359 0.440000000000653 0.7600000000000912 0
360 0.4400000000007775 0.800000000000073 0
361 0.4400000000009223 0.8400000000000559 0
362 0.4400000000010932 0.8800000000000404 0
363 0.4400000000012975 0.920000000000026 0
364 0.4400000000015432 0.9600000000000128 0
365 0.4799999999989704 0.04000000000002041 0
366 0.4799999999991463 0.08000000000004025 0
367 0.4799999999992897 0.1200000000000591 0
368 0.4799999999994113 0.1600000000000764 0
369 0.4799999999995176 0.2000000000000919 0
370 0.4799999999996123 0.2400000000001052 0
371 0.4799999999996983 0.2800000000001159 0
372 0.4799999999997779 0.3200000000001238 0
373 0.4799999999998526 0.3600000000001288 0
374 0.479999999999924 0.4000000000001309 0
375 0.4799999999999935 0.4400000000001298 0
376 0.4800000000000622 0.4800000000001259 0
377 0.4800000000001316 0.5200000000001194 0
378 0.4800000000002029 0.5600000000001105 0
379 0.4800000000002778 0.6000000000001002 0
380 0.4800000000003576 0.6400000000000885 0
381 0.4800000000004446 0.6800000000000762 0
382 0.480000000000541 0.7200000000000637 0
383 0.4800000000006501 0.7600000000000517 0
384 0.4800000000007756 0.8000000000000406 0
385 0.4800000000009232 0.8400000000000305 0
386 0.4800000000011007 0.8800000000000217 0
387 0.4800000000013204 0.9200000000000138 0
388 0.4800000000016043 0.9600000000000065 0
389 0.5199999999989652 0.04000000000001169 0
390 0.5199999999991415 0.08000000000002293 0
391 0.5199999999992853 0.1200000000000333 0
392 0.5199999999994073 0.1600000000000426 0
393 0.5199999999995137 0.2000000000000505 0
394 0.5199999999996086 0.2400000000000567 0
395 0.5199999999996946 0.2800000000000612 0
396 0.5199999999997741 0.3200000000000637 0
397 0.5199999999998485 0.3600000000000644 0
398 0.5199999999999194 0.4000000000000634 0
399 0.5199999999999885 0.4400000000000605 0
400 0.5200000000000566 0.4800000000000563 0
401 0.520000000000125 0.5200000000000508 0
402 0.5200000000001952 0.5600000000000442 0
403 0.5200000000002685 0.6000000000000373 0
404 0.5200000000003465 0.6400000000000302 0
405 0.520000000000431 0.6800000000000235 0
406 0.5200000000005245 0.7200000000000172 0
407 0.52000000000063 0.7600000000000117 0
408 0.5200000000007512 0.8000000000000074 0
409 0.5200000000008939 0.8400000000000041 0
410 0.5200000000010656 0.8800000000000019 0
411 0.5200000000012789 0.9200000000000006 0
412 0.520000000001556 0.9600000000000002 0
413 0.5599999999990152 0.04000000000000321 0
414 0.5599999999991693 0.08000000000000605 0
415 0.5599999999993025 0.1200000000000083 0
416 0.5599999999994186 0.1600000000000096 0
417 0.5599999999995214 0.2000000000000101 0
418 0.5599999999996135 0.2400000000000094 0
419 0.5599999999996974 0.2800000000000076 0
420 0.5599999999997748 0.3200000000000049 0
421 0.5599999999998475 0.3600000000000013 0
422 0.5599999999999168 0.399999999999997 0
423 0.5599999999999838 0.4399999999999922 0
424 0.56000000000005 0.4799999999999873 0
425 0.5600000000001161 0.5199999999999825 0
426 0.5600000000001836 0.5599999999999781 0
427 0.5600000000002537 0.5999999999999744 0
428 0.5600000000003279 0.6399999999999718 0
429 0.5600000000004078 0.6799999999999702 0
430 0.5600000000004955 0.7199999999999697 0
431 0.5600000000005937 0.7599999999999706 0
432 0.5600000000007053 0.7999999999999728 0
433 0.5600000000008351 0.8399999999999765 0
434 0.5600000000009886 0.8799999999999814 0
435 0.5600000000011736 0.9199999999999869 0
436 0.5600000000013984 0.9599999999999932 0
437 0.5999999999990865 0.03999999999999486 0
438 0.5999999999992179 0.07999999999998944 0
439 0.5999999999993368 0.1199999999999836 0
440 0.5999999999994435 0.1599999999999771 0
441 0.5999999999995395 0.1999999999999701 0
442 0.5999999999996265 0.2399999999999625 0
443 0.5999999999997062 0.2799999999999545 0
444 0.5999999999997802 0.3199999999999463 0
445 0.5999999999998497 0.3599999999999381 0
446 0.5999999999999159 0.3999999999999304 0
447 0.5999999999999799 0.4399999999999235 0
448 0.6000000000000427 0.4799999999999179 0
449 0.6000000000001052 0.5199999999999136 0
450 0.6000000000001688 0.5599999999999111 0
451 0.6000000000002345 0.5999999999999106 0
452 0.6000000000003032 0.639999999999912 0
453 0.6000000000003763 0.6799999999999156 0
454 0.6000000000004557 0.7199999999999209 0
455 0.6000000000005431 0.7599999999999281 0
456 0.6000000000006408 0.7999999999999371 0
457 0.600000000000752 0.8399999999999478 0
458 0.6000000000008799 0.8799999999999597 0
459 0.6000000000010283 0.9199999999999725 0
460 0.6000000000011988 0.9599999999999859 0
461 0.6399999999991676 0.03999999999998658 0
462 0.6399999999992796 0.07999999999997294 0
463 0.6399999999993836 0.119999999999959 0
464 0.6399999999994793 0.1599999999999447 0
465 0.6399999999995666 0.1999999999999301 0
466 0.6399999999996466 0.2399999999999154 0
467 0.6399999999997207 0.2799999999999009 0
468 0.6399999999997897 0.319999999999887 0
469 0.6399999999998548 0.3599999999998741 0
470 0.6399999999999167 0.3999999999998627 0
471 0.6399999999999766 0.4399999999998534 0
472 0.6400000000000353 0.4799999999998467 0
473 0.6400000000000934 0.5199999999998428 0
474 0.6400000000001519 0.5599999999998422 0
475 0.6400000000002116 0.5999999999998447 0
476 0.6400000000002734 0.6399999999998502 0
477 0.6400000000003382 0.6799999999998589 0
478 0.6400000000004074 0.7199999999998703 0
479 0.6400000000004817 0.7599999999998841 0
480 0.6400000000005627 0.7999999999999001 0
481 0.6400000000006518 0.8399999999999178 0
482 0.6400000000007507 0.8799999999999373 0
483 0.6400000000008605 0.9199999999999574 0
484 0.6400000000009815 0.9599999999999783 0
485 0.679999999999254 0.03999999999997836 0
486 0.6799999999993489 0.07999999999995649 0
487 0.6799999999994389 0.1199999999999344 0
488 0.679999999999523 0.1599999999999121 0
489 0.6799999999996008 0.1999999999998898 0
490 0.6799999999996731 0.2399999999998677 0
491 0.6799999999997401 0.2799999999998463 0
492 0.6799999999998032 0.3199999999998261 0
493 0.6799999999998629 0.3599999999998079 0
494 0.6799999999999197 0.3999999999997924 0
495 0.6799999999999745 0.4399999999997803 0
496 0.6800000000000278 0.4799999999997722 0
497 0.6800000000000805 0.5199999999997688 0
498 0.6800000000001329 0.5599999999997699 0
499 0.6800000000001861 0.5999999999997756 0
500 0.6800000000002403 0.6399999999997857 0
501 0.6800000000002958 0.6799999999997998 0
502 0.6800000000003537 0.7199999999998175 0
503 0.6800000000004136 0.7599999999998381 0
504 0.6800000000004761 0.7999999999998612 0
505 0.6800000000005417 0.8399999999998865 0
506 0.6800000000006104 0.8799999999999136 0
507 0.6800000000006819 0.9199999999999416 0
508 0.6800000000007563 0.9599999999999705 0
509 0.7199999999993434 0.03999999999997014 0
510 0.7199999999994237 0.07999999999994008 0
511 0.7199999999995003 0.1199999999999098 0
512 0.7199999999995728 0.1599999999998792 0
513 0.7199999999996407 0.1999999999998488 0
514 0.7199999999997044 0.2399999999998188 0
515 0.7199999999997642 0.2799999999997899 0
516 0.7199999999998205 0.3199999999997629 0
517 0.7199999999998737 0.3599999999997387 0
518 0.7199999999999245 0.3999999999997184 0
519 0.7199999999999734 0.439999999999703 0
520 0.7200000000000208 0.4799999999996932 0
521 0.7200000000000676 0.5199999999996898 0
522 0.7200000000001135 0.5599999999996929 0
523 0.7200000000001595 0.5999999999997021 0
524 0.7200000000002055 0.6399999999997174 0
525 0.7200000000002514 0.6799999999997373 0
526 0.7200000000002972 0.7199999999997616 0
527 0.7200000000003425 0.7599999999997896 0
528 0.7200000000003866 0.7999999999998204 0
529 0.7200000000004284 0.8399999999998538 0
530 0.7200000000004669 0.8799999999998889 0
531 0.7200000000005009 0.9199999999999252 0
532 0.7200000000005298 0.9599999999999623 0
533 0.7599999999994349 0.03999999999996197 0
534 0.7599999999995016 0.07999999999992369 0
535 0.7599999999995659 0.119999999999885 0
536 0.7599999999996271 0.159999999999846 0
537 0.7599999999996853 0.199999999999807 0
538 0.75999999999974 0.2399999999997685 0
539 0.7599999999997916 0.2799999999997313 0
540 0.7599999999998405 0.3199999999996965 0
541 0.759999999999887 0.3599999999996654 0
542 0.7599999999999312 0.3999999999996394 0
543 0.7599999999999737 0.4399999999996197 0
544 0.760000000000015 0.4799999999996078 0
545 0.760000000000055 0.5199999999996043 0
546 0.7600000000000942 0.5599999999996096 0
547 0.7600000000001327 0.5999999999996229 0
548 0.7600000000001704 0.6399999999996437 0
549 0.7600000000002066 0.6799999999996704 0
550 0.7600000000002408 0.7199999999997023 0
551 0.760000000000272 0.7599999999997382 0
552 0.7600000000002988 0.7999999999997776 0
553 0.7600000000003183 0.8399999999998193 0
554 0.760000000000328 0.879999999999863 0
555 0.7600000000003247 0.9199999999999079 0
556 0.7600000000003068 0.9599999999999537 0
557 0.7999999999995275 0.03999999999995395 0
558 0.7999999999995818 0.07999999999990753 0
559 0.7999999999996344 0.1199999999998604 0
560 0.7999999999996851 0.1599999999998126 0
561 0.7999999999997331 0.1999999999997643 0
562 0.7999999999997788 0.2399999999997164 0
563 0.7999999999998221 0.27999999999967 0
564 0.7999999999998632 0.3199999999996263 0
565 0.7999999999999025 0.359999999999587 0
566 0.7999999999999398 0.3999999999995538 0
567 0.7999999999999754 0.4399999999995287 0
568 0.80000000000001 0.4799999999995138 0
569 0.8000000000000433 0.5199999999995102 0
570 0.8000000000000755 0.5599999999995181 0
571 0.8000000000001066 0.5999999999995366 0
572 0.8000000000001362 0.639999999999564 0
573 0.8000000000001636 0.6799999999995987 0
574 0.8000000000001876 0.7199999999996389 0
575 0.8000000000002064 0.7599999999996838 0
576 0.800000000000218 0.7999999999997321 0
577 0.8000000000002182 0.839999999999783 0
578 0.800000000000202 0.8799999999998359 0
579 0.8000000000001629 0.9199999999998898 0
580 0.8000000000000953 0.9599999999999446 0
581 0.8399999999996212 0.03999999999994625 0
582 0.8399999999996638 0.07999999999989188 0
583 0.8399999999997053 0.1199999999998363 0
584 0.8399999999997454 0.1599999999997793 0
585 0.8399999999997838 0.1999999999997211 0
586 0.8399999999998203 0.2399999999996628 0
587 0.839999999999855 0.2799999999996057 0
588 0.8399999999998881 0.3199999999995514 0
589 0.8399999999999197 0.359999999999502 0
590 0.8399999999999498 0.3999999999994596 0
591 0.8399999999999785 0.4399999999994274 0
592 0.8400000000000062 0.4799999999994081 0
593 0.8400000000000326 0.5199999999994045 0
594 0.8400000000000579 0.5599999999994162 0
595 0.8400000000000819 0.5999999999994412 0
596 0.8400000000001042 0.6399999999994771 0
597 0.8400000000001238 0.6799999999995213 0
598 0.8400000000001391 0.7199999999995712 0
599 0.8400000000001485 0.7599999999996261 0
600 0.8400000000001486 0.7999999999996841 0
601 0.8400000000001345 0.8399999999997447 0
602 0.8400000000000987 0.8799999999998072 0
603 0.8400000000000298 0.9199999999998708 0
604 0.8399999999999113 0.9599999999999351 0
605 0.8799999999997153 0.03999999999993908 0
606 0.879999999999747 0.07999999999987732 0
607 0.8799999999997778 0.1199999999998137 0
608 0.8799999999998077 0.159999999999747 0
609 0.8799999999998362 0.1999999999996779 0
610 0.8799999999998636 0.2399999999996078 0
611 0.8799999999998896 0.2799999999995384 0
612 0.8799999999999149 0.3199999999994716 0
613 0.8799999999999384 0.3599999999994097 0
614 0.8799999999999611 0.3999999999993554 0
615 0.8799999999999828 0.439999999999313 0
616 0.8800000000000034 0.4799999999992873 0
617 0.8800000000000233 0.5199999999992833 0
618 0.8800000000000419 0.5599999999993007 0
619 0.8800000000000592 0.5999999999993353 0
620 0.8800000000000747 0.6399999999993822 0
621 0.8800000000000877 0.6799999999994377 0
622 0.8800000000000969 0.7199999999994992 0
623 0.8800000000000997 0.759999999999565 0
624 0.8800000000000934 0.7999999999996338 0
625 0.8800000000000724 0.8399999999997049 0
626 0.8800000000000285 0.8799999999997773 0
627 0.8799999999999466 0.9199999999998512 0
628 0.8799999999997978 0.9599999999999256 0
629 0.9199999999998102 0.0399999999999327 0
630 0.9199999999998311 0.07999999999986457 0
631 0.9199999999998514 0.119999999999794 0
632 0.9199999999998713 0.159999999999717 0
633 0.9199999999998901 0.1999999999996355 0
634 0.9199999999999082 0.2399999999995519 0
635 0.9199999999999257 0.2799999999994684 0
636 0.9199999999999424 0.3199999999993869 0
637 0.9199999999999582 0.3599999999993096 0
638 0.9199999999999734 0.3999999999992395 0
639 0.9199999999999878 0.4399999999991818 0
640 0.9200000000000017 0.4799999999991447 0
641 0.9200000000000148 0.51999999999914 0
642 0.9200000000000269 0.5599999999991681 0
643 0.9200000000000382 0.599999999999217 0
644 0.9200000000000479 0.6399999999992786 0
645 0.9200000000000558 0.6799999999993481 0
646 0.9200000000000603 0.7199999999994228 0
647 0.9200000000000601 0.7599999999995009 0
648 0.9200000000000524 0.7999999999995813 0
649 0.9200000000000332 0.8399999999996635 0
650 0.919999999999996 0.8799999999997468 0
651 0.9199999999999309 0.9199999999998307 0
652 0.9199999999998248 0.9599999999999155 0
653 0.959999999999905 0.03999999999992715 0
654 0.9599999999999154 0.07999999999985426 0
655 0.9599999999999256 0.1199999999997806 0
656 0.9599999999999353 0.1599999999996915 0
657 0.9599999999999449 0.1999999999995949 0
658 0.959999999999954 0.2399999999994958 0
659 0.9599999999999627 0.2799999999993964 0
660 0.959999999999971 0.319999999999298 0
661 0.9599999999999789 0.3599999999992021 0
662 0.9599999999999864 0.3999999999991111 0
663 0.9599999999999937 0.4399999999990297 0
664 0.9600000000000006 0.4799999999989696 0
665 0.9600000000000071 0.5199999999989645 0
666 0.9600000000000132 0.5599999999990144 0
667 0.9600000000000186 0.5999999999990859 0
668 0.9600000000000233 0.6399999999991671 0
669 0.9600000000000269 0.6799999999992535 0
670 0.9600000000000289 0.7199999999993431 0
671 0.9600000000000281 0.7599999999994345 0
672 0.9600000000000231 0.7999999999995273 0
673 0.960000000000012 0.839999999999621 0
674 0.9599999999999911 0.8799999999997153 0
675 0.9599999999999564 0.9199999999998101 0
676 0.9599999999999037 0.9599999999999049 0
