320
1 1 2 10 1 1 5
2 1 2 10 1 5 6
3 1 2 10 1 6 7
4 1 2 10 1 7 8
5 1 2 10 1 8 9
6 1 2 10 1 9 10
7 1 2 10 1 10 11
8 1 2 10 1 11 12
9 1 2 10 1 12 13
10 1 2 10 1 13 14
11 1 2 10 1 14 15
12 1 2 10 1 15 16
13 1 2 10 1 16 17
14 1 2 10 1 17 18
15 1 2 10 1 18 19
16 1 2 10 1 19 4
17 1 2 11 2 4 20
18 1 2 11 2 20 21
19 1 2 11 2 21 22
20 1 2 11 2 22 23
21 1 2 11 2 23 24
22 1 2 11 2 24 25
23 1 2 11 2 25 26
24 1 2 11 2 26 27
25 1 2 11 2 27 28
26 1 2 11 2 28 29
27 1 2 11 2 29 30
28 1 2 11 2 30 31
29 1 2 11 2 31 32
30 1 2 11 2 32 33
31 1 2 11 2 33 34
32 1 2 11 2 34 3
33 1 2 12 3 3 35
34 1 2 12 3 35 36
35 1 2 12 3 36 37
36 1 2 12 3 37 38
37 1 2 12 3 38 39
38 1 2 12 3 39 40
39 1 2 12 3 40 41
40 1 2 12 3 41 42
41 1 2 12 3 42 43
42 1 2 12 3 43 44
43 1 2 12 3 44 45
44 1 2 12 3 45 46
45 1 2 12 3 46 47
46 1 2 12 3 47 48
47 1 2 12 3 48 49
48 1 2 12 3 49 2
49 1 2 13 4 2 50
50 1 2 13 4 50 51
51 1 2 13 4 51 52
52 1 2 13 4 52 53
53 1 2 13 4 53 54
54 1 2 13 4 54 55
55 1 2 13 4 55 56
56 1 2 13 4 56 57
57 1 2 13 4 57 58
58 1 2 13 4 58 59
59 1 2 13 4 59 60
60 1 2 13 4 60 61
61 1 2 13 4 61 62
62 1 2 13 4 62 63
63 1 2 13 4 63 64
64 1 2 13 4 64 1
65 3 2 100 1 1 5 65 64
66 3 2 100 1 64 65 66 63
67 3 2 100 1 63 66 67 62
68 3 2 100 1 62 67 68 61
69 3 2 100 1 61 68 69 60
70 3 2 100 1 60 69 70 59
71 3 2 100 1 59 70 71 58
72 3 2 100 1 58 71 72 57
73 3 2 100 1 57 72 73 56
74 3 2 100 1 56 73 74 55
75 3 2 100 1 55 74 75 54
76 3 2 100 1 54 75 76 53
77 3 2 100 1 53 76 77 52
78 3 2 100 1 52 77 78 51
79 3 2 100 1 51 78 79 50
80 3 2 100 1 50 79 49 2
81 3 2 100 1 5 6 80 65
82 3 2 100 1 65 80 81 66
83 3 2 100 1 66 81 82 67
84 3 2 100 1 67 82 83 68
85 3 2 100 1 68 83 84 69
86 3 2 100 1 69 84 85 70
87 3 2 100 1 70 85 86 71
88 3 2 100 1 71 86 87 72
89 3 2 100 1 72 87 88 73
90 3 2 100 1 73 88 89 74
91 3 2 100 1 74 89 90 75
92 3 2 100 1 75 90 91 76
93 3 2 100 1 76 91 92 77
94 3 2 100 1 77 92 93 78
95 3 2 100 1 78 93 94 79
96 3 2 100 1 79 94 48 49
97 3 2 100 1 6 7 95 80
98 3 2 100 1 80 95 96 81
99 3 2 100 1 81 96 97 82
100 3 2 100 1 82 97 98 83
101 3 2 100 1 83 98 99 84
102 3 2 100 1 84 99 100 85
103 3 2 100 1 85 100 101 86
104 3 2 100 1 86 101 102 87
105 3 2 100 1 87 102 103 88
106 3 2 100 1 88 103 104 89
107 3 2 100 1 89 104 105 90
108 3 2 100 1 90 105 106 91
109 3 2 100 1 91 106 107 92
110 3 2 100 1 92 107 108 93
111 3 2 100 1 93 108 109 94
112 3 2 100 1 94 109 47 48
113 3 2 100 1 7 8 110 95
114 3 2 100 1 95 110 111 96
115 3 2 100 1 96 111 112 97
116 3 2 100 1 97 112 113 98
117 3 2 100 1 98 113 114 99
118 3 2 100 1 99 114 115 100
119 3 2 100 1 100 115 116 101
120 3 2 100 1 101 116 117 102
121 3 2 100 1 102 117 118 103
122 3 2 100 1 103 118 119 104
123 3 2 100 1 104 119 120 105
124 3 2 100 1 105 120 121 106
125 3 2 100 1 106 121 122 107
126 3 2 100 1 107 122 123 108
127 3 2 100 1 108 123 124 109
128 3 2 100 1 109 124 46 47
129 3 2 100 1 8 9 125 110
130 3 2 100 1 110 125 126 111
131 3 2 100 1 111 126 127 112
132 3 2 100 1 112 127 128 113
133 3 2 100 1 113 128 129 114
134 3 2 100 1 114 129 130 115
135 3 2 100 1 115 130 131 116
136 3 2 100 1 116 131 132 117
137 3 2 100 1 117 132 133 118
138 3 2 100 1 118 133 134 119
139 3 2 100 1 119 134 135 120
140 3 2 100 1 120 135 136 121
141 3 2 100 1 121 136 137 122
142 3 2 100 1 122 137 138 123
143 3 2 100 1 123 138 139 124
144 3 2 100 1 124 139 45 46
145 3 2 100 1 9 10 140 125
146 3 2 100 1 125 140 141 126
147 3 2 100 1 126 141 142 127
148 3 2 100 1 127 142 143 128
149 3 2 100 1 128 143 144 129
150 3 2 100 1 129 144 145 130
151 3 2 100 1 130 145 146 131
152 3 2 100 1 131 146 147 132
153 3 2 100 1 132 147 148 133
154 3 2 100 1 133 148 149 134
155 3 2 100 1 134 149 150 135
156 3 2 100 1 135 150 151 136
157 3 2 100 1 136 151 152 137
158 3 2 100 1 137 152 153 138
159 3 2 100 1 138 153 154 139
160 3 2 100 1 139 154 44 45
161 3 2 100 1 10 11 155 140
162 3 2 100 1 140 155 156 141
163 3 2 100 1 141 156 157 142
164 3 2 100 1 142 157 158 143
165 3 2 100 1 143 158 159 144
166 3 2 100 1 144 159 160 145
167 3 2 100 1 145 160 161 146
168 3 2 100 1 146 161 162 147
169 3 2 100 1 147 162 163 148
170 3 2 100 1 148 163 164 149
171 3 2 100 1 149 164 165 150
172 3 2 100 1 150 165 166 151
173 3 2 100 1 151 166 167 152
174 3 2 100 1 152 167 168 153
175 3 2 100 1 153 168 169 154
176 3 2 100 1 154 169 43 44
177 3 2 100 1 11 12 170 155
178 3 2 100 1 155 170 171 156
179 3 2 100 1 156 171 172 157
180 3 2 100 1 157 172 173 158
181 3 2 100 1 158 173 174 159
182 3 2 100 1 159 174 175 160
183 3 2 100 1 160 175 176 161
184 3 2 100 1 161 176 177 162
185 3 2 100 1 162 177 178 163
186 3 2 100 1 163 178 179 164
187 3 2 100 1 164 179 180 165
188 3 2 100 1 165 180 181 166
189 3 2 100 1 166 181 182 167
190 3 2 100 1 167 182 183 168
191 3 2 100 1 168 183 184 169
192 3 2 100 1 169 184 42 43
193 3 2 100 1 12 13 185 170
194 3 2 100 1 170 185 186 171
195 3 2 100 1 171 186 187 172
196 3 2 100 1 172 187 188 173
197 3 2 100 1 173 188 189 174
198 3 2 100 1 174 189 190 175
199 3 2 100 1 175 190 191 176
200 3 2 100 1 176 191 192 177
201 3 2 100 1 177 192 193 178
202 3 2 100 1 178 193 194 179
203 3 2 100 1 179 194 195 180
204 3 2 100 1 180 195 196 181
205 3 2 100 1 181 196 197 182
206 3 2 100 1 182 197 198 183
207 3 2 100 1 183 198 199 184
208 3 2 100 1 184 199 41 42
209 3 2 100 1 13 14 200 185
210 3 2 100 1 185 200 201 186
211 3 2 100 1 186 201 202 187
212 3 2 100 1 187 202 203 188
213 3 2 100 1 188 203 204 189
214 3 2 100 1 189 204 205 190
215 3 2 100 1 190 205 206 191
216 3 2 100 1 191 206 207 192
217 3 2 100 1 192 207 208 193
218 3 2 100 1 193 208 209 194
219 3 2 100 1 194 209 210 195
220 3 2 100 1 195 210 211 196
221 3 2 100 1 196 211 212 197
222 3 2 100 1 197 212 213 198
223 3 2 100 1 198 213 214 199
224 3 2 100 1 199 214 40 41
225 3 2 100 1 14 15 215 200
226 3 2 100 1 200 215 216 201
227 3 2 100 1 201 216 217 202
228 3 2 100 1 202 217 218 203
229 3 2 100 1 203 218 219 204
230 3 2 100 1 204 219 220 205
231 3 2 100 1 205 220 221 206
232 3 2 100 1 206 221 222 207
233 3 2 100 1 207 222 223 208
234 3 2 100 1 208 223 224 209
235 3 2 100 1 209 224 225 210
236 3 2 100 1 210 225 226 211
237 3 2 100 1 211 226 227 212
238 3 2 100 1 212 227 228 213
239 3 2 100 1 213 228 229 214
240 3 2 100 1 214 229 39 40
241 3 2 100 1 15 16 230 215
242 3 2 100 1 215 230 231 216
243 3 2 100 1 216 231 232 217
244 3 2 100 1 217 232 233 218
245 3 2 100 1 218 233 234 219
246 3 2 100 1 219 234 235 220
247 3 2 100 1 220 235 236 221
248 3 2 100 1 221 236 237 222
249 3 2 100 1 222 237 238 223
250 3 2 100 1 223 238 239 224
251 3 2 100 1 224 239 240 225
252 3 2 100 1 225 240 241 226
253 3 2 100 1 226 241 242 227
254 3 2 100 1 227 242 243 228
255 3 2 100 1 228 243 244 229
256 3 2 100 1 229 244 38 39
257 3 2 100 1 16 17 245 230
258 3 2 100 1 230 245 246 231
259 3 2 100 1 231 246 247 232
260 3 2 100 1 232 247 248 233
261 3 2 100 1 233 248 249 234
262 3 2 100 1 234 249 250 235
263 3 2 100 1 235 250 251 236
264 3 2 100 1 236 251 252 237
265 3 2 100 1 237 252 253 238
266 3 2 100 1 238 253 254 239
267 3 2 100 1 239 254 255 240
268 3 2 100 1 240 255 256 241
269 3 2 100 1 241 256 257 242
270 3 2 100 1 242 257 258 243
271 3 2 100 1 243 258 259 244
272 3 2 100 1 244 259 37 38
273 3 2 100 1 17 18 260 245
274 3 2 100 1 245 260 261 246
275 3 2 100 1 246 261 262 247
276 3 2 100 1 247 262 263 248
277 3 2 100 1 248 263 264 249
278 3 2 100 1 249 264 265 250
279 3 2 100 1 250 265 266 251
280 3 2 100 1 251 266 267 252
281 3 2 100 1 252 267 268 253
282 3 2 100 1 253 268 269 254
283 3 2 100 1 254 269 270 255
284 3 2 100 1 255 270 271 256
285 3 2 100 1 256 271 272 257
286 3 2 100 1 257 272 273 258
287 3 2 100 1 258 273 274 259
288 3 2 100 1 259 274 36 37
289 3 2 100 1 18 19 275 260
290 3 2 100 1 260 275 276 261
291 3 2 100 1 261 276 277 262
292 3 2 100 1 262 277 278 263
293 3 2 100 1 263 278 279 264
294 3 2 100 1 264 279 280 265
295 3 2 100 1 265 280 281 266
296 3 2 100 1 266 281 282 267
297 3 2 100 1 267 282 283 268
298 3 2 100 1 268 283 284 269
299 3 2 100 1 269 284 285 270
300 3 2 100 1 270 285 286 271
301 3 2 100 1 271 286 287 272
302 3 2 100 1 272 287 288 273
303 3 2 100 1 273 288 289 274
304 3 2 100 1 274 289 35 36
305 3 2 100 1 19 4 20 275
306 3 2 100 1 275 20 21 276
307 3 2 100 1 276 21 22 277
308 3 2 100 1 277 22 23 278
309 3 2 100 1 278 23 24 279
310 3 2 100 1 279 24 25 280
311 3 2 100 1 280 25 26 281
312 3 2 100 1 281 26 27 282
313 3 2 100 1 282 27 28 283
314 3 2 100 1 283 28 29 284
315 3 2 100 1 284 29 30 285
316 3 2 100 1 285 30 31 286
317 3 2 100 1 286 31 32 287
318 3 2 100 1 287 32 33 288
319 3 2 100 1 288 33 34 289
320 3 2 100 1 289 34 3 35
