2205
1 1 2 10 1 1 5
2 1 2 10 1 5 6
3 1 2 10 1 6 7
4 1 2 10 1 7 8
5 1 2 10 1 8 9
6 1 2 10 1 9 10
7 1 2 10 1 10 11
8 1 2 10 1 11 12
9 1 2 10 1 12 13
10 1 2 10 1 13 14
11 1 2 10 1 14 15
12 1 2 10 1 15 16
13 1 2 10 1 16 17
14 1 2 10 1 17 18
15 1 2 10 1 18 19
16 1 2 10 1 19 20
17 1 2 10 1 20 21
18 1 2 10 1 21 22
19 1 2 10 1 22 23
20 1 2 10 1 23 24
21 1 2 10 1 24 25
22 1 2 10 1 25 26
23 1 2 10 1 26 27
24 1 2 10 1 27 28
25 1 2 10 1 28 29
26 1 2 10 1 29 30
27 1 2 10 1 30 31
28 1 2 10 1 31 32
29 1 2 10 1 32 33
30 1 2 10 1 33 34
31 1 2 10 1 34 35
32 1 2 10 1 35 36
33 1 2 10 1 36 37
34 1 2 10 1 37 38
35 1 2 10 1 38 39
36 1 2 10 1 39 40
37 1 2 10 1 40 41
38 1 2 10 1 41 42
39 1 2 10 1 42 43
40 1 2 10 1 43 44
41 1 2 10 1 44 45
42 1 2 10 1 45 46
43 1 2 10 1 46 47
44 1 2 10 1 47 48
45 1 2 10 1 48 4
46 1 2 11 2 4 49
47 1 2 11 2 49 50
48 1 2 11 2 50 51
49 1 2 11 2 51 52
50 1 2 11 2 52 53
51 1 2 11 2 53 54
52 1 2 11 2 54 55
53 1 2 11 2 55 56
54 1 2 11 2 56 57
55 1 2 11 2 57 58
56 1 2 11 2 58 59
57 1 2 11 2 59 60
58 1 2 11 2 60 61
59 1 2 11 2 61 62
60 1 2 11 2 62 63
61 1 2 11 2 63 64
62 1 2 11 2 64 65
63 1 2 11 2 65 66
64 1 2 11 2 66 67
65 1 2 11 2 67 68
66 1 2 11 2 68 69
67 1 2 11 2 69 70
68 1 2 11 2 70 71
69 1 2 11 2 71 72
70 1 2 11 2 72 73
71 1 2 11 2 73 74
72 1 2 11 2 74 75
73 1 2 11 2 75 76
74 1 2 11 2 76 77
75 1 2 11 2 77 78
76 1 2 11 2 78 79
77 1 2 11 2 79 80
78 1 2 11 2 80 81
79 1 2 11 2 81 82
80 1 2 11 2 82 83
81 1 2 11 2 83 84
82 1 2 11 2 84 85
83 1 2 11 2 85 86
84 1 2 11 2 86 87
85 1 2 11 2 87 88
86 1 2 11 2 88 89
87 1 2 11 2 89 90
88 1 2 11 2 90 91
89 1 2 11 2 91 92
90 1 2 11 2 92 3
91 1 2 12 3 3 93
92 1 2 12 3 93 94
93 1 2 12 3 94 95
94 1 2 12 3 95 96
95 1 2 12 3 96 97
96 1 2 12 3 97 98
97 1 2 12 3 98 99
98 1 2 12 3 99 100
99 1 2 12 3 100 101
100 1 2 12 3 101 102
101 1 2 12 3 102 103
102 1 2 12 3 103 104
103 1 2 12 3 104 105
104 1 2 12 3 105 106
105 1 2 12 3 106 107
106 1 2 12 3 107 108
107 1 2 12 3 108 109
108 1 2 12 3 109 110
109 1 2 12 3 110 111
110 1 2 12 3 111 112
111 1 2 12 3 112 113
112 1 2 12 3 113 114
113 1 2 12 3 114 115
114 1 2 12 3 115 116
115 1 2 12 3 116 117
116 1 2 12 3 117 118
117 1 2 12 3 118 119
118 1 2 12 3 119 120
119 1 2 12 3 120 121
120 1 2 12 3 121 122
121 1 2 12 3 122 123
122 1 2 12 3 123 124
123 1 2 12 3 124 125
124 1 2 12 3 125 126
125 1 2 12 3 126 127
126 1 2 12 3 127 128
127 1 2 12 3 128 129
128 1 2 12 3 129 130
129 1 2 12 3 130 131
130 1 2 12 3 131 132
131 1 2 12 3 132 133
132 1 2 12 3 133 134
133 1 2 12 3 134 135
134 1 2 12 3 135 136
135 1 2 12 3 136 2
136 1 2 13 4 2 137
137 1 2 13 4 137 138
138 1 2 13 4 138 139
139 1 2 13 4 139 140
140 1 2 13 4 140 141
141 1 2 13 4 141 142
142 1 2 13 4 142 143
143 1 2 13 4 143 144
144 1 2 13 4 144 145
145 1 2 13 4 145 146
146 1 2 13 4 146 147
147 1 2 13 4 147 148
148 1 2 13 4 148 149
149 1 2 13 4 149 150
150 1 2 13 4 150 151
151 1 2 13 4 151 152
152 1 2 13 4 152 153
153 1 2 13 4 153 154
154 1 2 13 4 154 155
155 1 2 13 4 155 156
156 1 2 13 4 156 157
157 1 2 13 4 157 158
158 1 2 13 4 158 159
159 1 2 13 4 159 160
160 1 2 13 4 160 161
161 1 2 13 4 161 162
162 1 2 13 4 162 163
163 1 2 13 4 163 164
164 1 2 13 4 164 165
165 1 2 13 4 165 166
166 1 2 13 4 166 167
167 1 2 13 4 167 168
168 1 2 13 4 168 169
169 1 2 13 4 169 170
170 1 2 13 4 170 171
171 1 2 13 4 171 172
172 1 2 13 4 172 173
173 1 2 13 4 173 174
174 1 2 13 4 174 175
175 1 2 13 4 175 176
176 1 2 13 4 176 177
177 1 2 13 4 177 178
178 1 2 13 4 178 179
179 1 2 13 4 179 180
180 1 2 13 4 180 1
181 3 2 100 1 1 5 181 180
182 3 2 100 1 180 181 182 179
183 3 2 100 1 179 182 183 178
184 3 2 100 1 178 183 184 177
185 3 2 100 1 177 184 185 176
186 3 2 100 1 176 185 186 175
187 3 2 100 1 175 186 187 174
188 3 2 100 1 174 187 188 173
189 3 2 100 1 173 188 189 172
190 3 2 100 1 172 189 190 171
191 3 2 100 1 171 190 191 170
192 3 2 100 1 170 191 192 169
193 3 2 100 1 169 192 193 168
194 3 2 100 1 168 193 194 167
195 3 2 100 1 167 194 195 166
196 3 2 100 1 166 195 196 165
197 3 2 100 1 165 196 197 164
198 3 2 100 1 164 197 198 163
199 3 2 100 1 163 198 199 162
200 3 2 100 1 162 199 200 161
201 3 2 100 1 161 200 201 160
202 3 2 100 1 160 201 202 159
203 3 2 100 1 159 202 203 158
204 3 2 100 1 158 203 204 157
205 3 2 100 1 157 204 205 156
206 3 2 100 1 156 205 206 155
207 3 2 100 1 155 206 207 154
208 3 2 100 1 154 207 208 153
209 3 2 100 1 153 208 209 152
210 3 2 100 1 152 209 210 151
211 3 2 100 1 151 210 211 150
212 3 2 100 1 150 211 212 149
213 3 2 100 1 149 212 213 148
214 3 2 100 1 148 213 214 147
215 3 2 100 1 147 214 215 146
216 3 2 100 1 146 215 216 145
217 3 2 100 1 145 216 217 144
218 3 2 100 1 144 217 218 143
219 3 2 100 1 143 218 219 142
220 3 2 100 1 142 219 220 141
221 3 2 100 1 141 220 221 140
222 3 2 100 1 140 221 222 139
223 3 2 100 1 139 222 223 138
224 3 2 100 1 138 223 224 137
225 3 2 100 1 137 224 136 2
226 3 2 100 1 5 6 225 181
227 3 2 100 1 181 225 226 182
228 3 2 100 1 182 226 227 183
229 3 2 100 1 183 227 228 184
230 3 2 100 1 184 228 229 185
231 3 2 100 1 185 229 230 186
232 3 2 100 1 186 230 231 187
233 3 2 100 1 187 231 232 188
234 3 2 100 1 188 232 233 189
235 3 2 100 1 189 233 234 190
236 3 2 100 1 190 234 235 191
237 3 2 100 1 191 235 236 192
238 3 2 100 1 192 236 237 193
239 3 2 100 1 193 237 238 194
240 3 2 100 1 194 238 239 195
241 3 2 100 1 195 239 240 196
242 3 2 100 1 196 240 241 197
243 3 2 100 1 197 241 242 198
244 3 2 100 1 198 242 243 199
245 3 2 100 1 199 243 244 200
246 3 2 100 1 200 244 245 201
247 3 2 100 1 201 245 246 202
248 3 2 100 1 202 246 247 203
249 3 2 100 1 203 247 248 204
250 3 2 100 1 204 248 249 205
251 3 2 100 1 205 249 250 206
252 3 2 100 1 206 250 251 207
253 3 2 100 1 207 251 252 208
254 3 2 100 1 208 252 253 209
255 3 2 100 1 209 253 254 210
256 3 2 100 1 210 254 255 211
257 3 2 100 1 211 255 256 212
258 3 2 100 1 212 256 257 213
259 3 2 100 1 213 257 258 214
260 3 2 100 1 214 258 259 215
261 3 2 100 1 215 259 260 216
262 3 2 100 1 216 260 261 217
263 3 2 100 1 217 261 262 218
264 3 2 100 1 218 262 263 219
265 3 2 100 1 219 263 264 220
266 3 2 100 1 220 264 265 221
267 3 2 100 1 221 265 266 222
268 3 2 100 1 222 266 267 223
269 3 2 100 1 223 267 268 224
270 3 2 100 1 224 268 135 136
271 3 2 100 1 6 7 269 225
272 3 2 100 1 225 269 270 226
273 3 2 100 1 226 270 271 227
274 3 2 100 1 227 271 272 228
275 3 2 100 1 228 272 273 229
276 3 2 100 1 229 273 274 230
277 3 2 100 1 230 274 275 231
278 3 2 100 1 231 275 276 232
279 3 2 100 1 232 276 277 233
280 3 2 100 1 233 277 278 234
281 3 2 100 1 234 278 279 235
282 3 2 100 1 235 279 280 236
283 3 2 100 1 236 280 281 237
284 3 2 100 1 237 281 282 238
285 3 2 100 1 238 282 283 239
286 3 2 100 1 239 283 284 240
287 3 2 100 1 240 284 285 241
288 3 2 100 1 241 285 286 242
289 3 2 100 1 242 286 287 243
290 3 2 100 1 243 287 288 244
291 3 2 100 1 244 288 289 245
292 3 2 100 1 245 289 290 246
293 3 2 100 1 246 290 291 247
294 3 2 100 1 247 291 292 248
295 3 2 100 1 248 292 293 249
296 3 2 100 1 249 293 294 250
297 3 2 100 1 250 294 295 251
298 3 2 100 1 251 295 296 252
299 3 2 100 1 252 296 297 253
300 3 2 100 1 253 297 298 254
301 3 2 100 1 254 298 299 255
302 3 2 100 1 255 299 300 256
303 3 2 100 1 256 300 301 257
304 3 2 100 1 257 301 302 258
305 3 2 100 1 258 302 303 259
306 3 2 100 1 259 303 304 260
307 3 2 100 1 260 304 305 261
308 3 2 100 1 261 305 306 262
309 3 2 100 1 262 306 307 263
310 3 2 100 1 263 307 308 264
311 3 2 100 1 264 308 309 265
312 3 2 100 1 265 309 310 266
313 3 2 100 1 266 310 311 267
314 3 2 100 1 267 311 312 268
315 3 2 100 1 268 312 134 135
316 3 2 100 1 7 8 313 269
317 3 2 100 1 269 313 314 270
318 3 2 100 1 270 314 315 271
319 3 2 100 1 271 315 316 272
320 3 2 100 1 272 316 317 273
321 3 2 100 1 273 317 318 274
322 3 2 100 1 274 318 319 275
323 3 2 100 1 275 319 320 276
324 3 2 100 1 276 320 321 277
325 3 2 100 1 277 321 322 278
326 3 2 100 1 278 322 323 279
327 3 2 100 1 279 323 324 280
328 3 2 100 1 280 324 325 281
329 3 2 100 1 281 325 326 282
330 3 2 100 1 282 326 327 283
331 3 2 100 1 283 327 328 284
332 3 2 100 1 284 328 329 285
333 3 2 100 1 285 329 330 286
334 3 2 100 1 286 330 331 287
335 3 2 100 1 287 331 332 288
336 3 2 100 1 288 332 333 289
337 3 2 100 1 289 333 334 290
338 3 2 100 1 290 334 335 291
339 3 2 100 1 291 335 336 292
340 3 2 100 1 292 336 337 293
341 3 2 100 1 293 337 338 294
342 3 2 100 1 294 338 339 295
343 3 2 100 1 295 339 340 296
344 3 2 100 1 296 340 341 297
345 3 2 100 1 297 341 342 298
346 3 2 100 1 298 342 343 299
347 3 2 100 1 299 343 344 300
348 3 2 100 1 300 344 345 301
349 3 2 100 1 301 345 346 302
350 3 2 100 1 302 346 347 303
351 3 2 100 1 303 347 348 304
352 3 2 100 1 304 348 349 305
353 3 2 100 1 305 349 350 306
354 3 2 100 1 306 350 351 307
355 3 2 100 1 307 351 352 308
356 3 2 100 1 308 352 353 309
357 3 2 100 1 309 353 354 310
358 3 2 100 1 310 354 355 311
359 3 2 100 1 311 355 356 312
360 3 2 100 1 312 356 133 134
361 3 2 100 1 8 9 357 313
362 3 2 100 1 313 357 358 314
363 3 2 100 1 314 358 359 315
364 3 2 100 1 315 359 360 316
365 3 2 100 1 316 360 361 317
366 3 2 100 1 317 361 362 318
367 3 2 100 1 318 362 363 319
368 3 2 100 1 319 363 364 320
369 3 2 100 1 320 364 365 321
370 3 2 100 1 321 365 366 322
371 3 2 100 1 322 366 367 323
372 3 2 100 1 323 367 368 324
373 3 2 100 1 324 368 369 325
374 3 2 100 1 325 369 370 326
375 3 2 100 1 326 370 371 327
376 3 2 100 1 327 371 372 328
377 3 2 100 1 328 372 373 329
378 3 2 100 1 329 373 374 330
379 3 2 100 1 330 374 375 331
380 3 2 100 1 331 375 376 332
381 3 2 100 1 332 376 377 333
382 3 2 100 1 333 377 378 334
383 3 2 100 1 334 378 379 335
384 3 2 100 1 335 379 380 336
385 3 2 100 1 336 380 381 337
386 3 2 100 1 337 381 382 338
387 3 2 100 1 338 382 383 339
388 3 2 100 1 339 383 384 340
389 3 2 100 1 340 384 385 341
390 3 2 100 1 341 385 386 342
391 3 2 100 1 342 386 387 343
392 3 2 100 1 343 387 388 344
393 3 2 100 1 344 388 389 345
394 3 2 100 1 345 389 390 346
395 3 2 100 1 346 390 391 347
396 3 2 100 1 347 391 392 348
397 3 2 100 1 348 392 393 349
398 3 2 100 1 349 393 394 350
399 3 2 100 1 350 394 395 351
400 3 2 100 1 351 395 396 352
401 3 2 100 1 352 396 397 353
402 3 2 100 1 353 397 398 354
403 3 2 100 1 354 398 399 355
404 3 2 100 1 355 399 400 356
405 3 2 100 1 356 400 132 133
406 3 2 100 1 9 10 401 357
407 3 2 100 1 357 401 402 358
408 3 2 100 1 358 402 403 359
409 3 2 100 1 359 403 404 360
410 3 2 100 1 360 404 405 361
411 3 2 100 1 361 405 406 362
412 3 2 100 1 362 406 407 363
413 3 2 100 1 363 407 408 364
414 3 2 100 1 364 408 409 365
415 3 2 100 1 365 409 410 366
416 3 2 100 1 366 410 411 367
417 3 2 100 1 367 411 412 368
418 3 2 100 1 368 412 413 369
419 3 2 100 1 369 413 414 370
420 3 2 100 1 370 414 415 371
421 3 2 100 1 371 415 416 372
422 3 2 100 1 372 416 417 373
423 3 2 100 1 373 417 418 374
424 3 2 100 1 374 418 419 375
425 3 2 100 1 375 419 420 376
426 3 2 100 1 376 420 421 377
427 3 2 100 1 377 421 422 378
428 3 2 100 1 378 422 423 379
429 3 2 100 1 379 423 424 380
430 3 2 100 1 380 424 425 381
431 3 2 100 1 381 425 426 382
432 3 2 100 1 382 426 427 383
433 3 2 100 1 383 427 428 384
434 3 2 100 1 384 428 429 385
435 3 2 100 1 385 429 430 386
436 3 2 100 1 386 430 431 387
437 3 2 100 1 387 431 432 388
438 3 2 100 1 388 432 433 389
439 3 2 100 1 389 433 434 390
440 3 2 100 1 390 434 435 391
441 3 2 100 1 391 435 436 392
442 3 2 100 1 392 436 437 393
443 3 2 100 1 393 437 438 394
444 3 2 100 1 394 438 439 395
445 3 2 100 1 395 439 440 396
446 3 2 100 1 396 440 441 397
447 3 2 100 1 397 441 442 398
448 3 2 100 1 398 442 443 399
449 3 2 100 1 399 443 444 400
450 3 2 100 1 400 444 131 132
451 3 2 100 1 10 11 445 401
452 3 2 100 1 401 445 446 402
453 3 2 100 1 402 446 447 403
454 3 2 100 1 403 447 448 404
455 3 2 100 1 404 448 449 405
456 3 2 100 1 405 449 450 406
457 3 2 100 1 406 450 451 407
458 3 2 100 1 407 451 452 408
459 3 2 100 1 408 452 453 409
460 3 2 100 1 409 453 454 410
461 3 2 100 1 410 454 455 411
462 3 2 100 1 411 455 456 412
463 3 2 100 1 412 456 457 413
464 3 2 100 1 413 457 458 414
465 3 2 100 1 414 458 459 415
466 3 2 100 1 415 459 460 416
467 3 2 100 1 416 460 461 417
468 3 2 100 1 417 461 462 418
469 3 2 100 1 418 462 463 419
470 3 2 100 1 419 463 464 420
471 3 2 100 1 420 464 465 421
472 3 2 100 1 421 465 466 422
473 3 2 100 1 422 466 467 423
474 3 2 100 1 423 467 468 424
475 3 2 100 1 424 468 469 425
476 3 2 100 1 425 469 470 426
477 3 2 100 1 426 470 471 427
478 3 2 100 1 427 471 472 428
479 3 2 100 1 428 472 473 429
480 3 2 100 1 429 473 474 430
481 3 2 100 1 430 474 475 431
482 3 2 100 1 431 475 476 432
483 3 2 100 1 432 476 477 433
484 3 2 100 1 433 477 478 434
485 3 2 100 1 434 478 479 435
486 3 2 100 1 435 479 480 436
487 3 2 100 1 436 480 481 437
488 3 2 100 1 437 481 482 438
489 3 2 100 1 438 482 483 439
490 3 2 100 1 439 483 484 440
491 3 2 100 1 440 484 485 441
492 3 2 100 1 441 485 486 442
493 3 2 100 1 442 486 487 443
494 3 2 100 1 443 487 488 444
495 3 2 100 1 444 488 130 131
496 3 2 100 1 11 12 489 445
497 3 2 100 1 445 489 490 446
498 3 2 100 1 446 490 491 447
499 3 2 100 1 447 491 492 448
500 3 2 100 1 448 492 493 449
501 3 2 100 1 449 493 494 450
502 3 2 100 1 450 494 495 451
503 3 2 100 1 451 495 496 452
504 3 2 100 1 452 496 497 453
505 3 2 100 1 453 497 498 454
506 3 2 100 1 454 498 499 455
507 3 2 100 1 455 499 500 456
508 3 2 100 1 456 500 501 457
509 3 2 100 1 457 501 502 458
510 3 2 100 1 458 502 503 459
511 3 2 100 1 459 503 504 460
512 3 2 100 1 460 504 505 461
513 3 2 100 1 461 505 506 462
514 3 2 100 1 462 506 507 463
515 3 2 100 1 463 507 508 464
516 3 2 100 1 464 508 509 465
517 3 2 100 1 465 509 510 466
518 3 2 100 1 466 510 511 467
519 3 2 100 1 467 511 512 468
520 3 2 100 1 468 512 513 469
521 3 2 100 1 469 513 514 470
522 3 2 100 1 470 514 515 471
523 3 2 100 1 471 515 516 472
524 3 2 100 1 472 516 517 473
525 3 2 100 1 473 517 518 474
526 3 2 100 1 474 518 519 475
527 3 2 100 1 475 519 520 476
528 3 2 100 1 476 520 521 477
529 3 2 100 1 477 521 522 478
530 3 2 100 1 478 522 523 479
531 3 2 100 1 479 523 524 480
532 3 2 100 1 480 524 525 481
533 3 2 100 1 481 525 526 482
534 3 2 100 1 482 526 527 483
535 3 2 100 1 483 527 528 484
536 3 2 100 1 484 528 529 485
537 3 2 100 1 485 529 530 486
538 3 2 100 1 486 530 531 487
539 3 2 100 1 487 531 532 488
540 3 2 100 1 488 532 129 130
541 3 2 100 1 12 13 533 489
542 3 2 100 1 489 533 534 490
543 3 2 100 1 490 534 535 491
544 3 2 100 1 491 535 536 492
545 3 2 100 1 492 536 537 493
546 3 2 100 1 493 537 538 494
547 3 2 100 1 494 538 539 495
548 3 2 100 1 495 539 540 496
549 3 2 100 1 496 540 541 497
550 3 2 100 1 497 541 542 498
551 3 2 100 1 498 542 543 499
552 3 2 100 1 499 543 544 500
553 3 2 100 1 500 544 545 501
554 3 2 100 1 501 545 546 502
555 3 2 100 1 502 546 547 503
556 3 2 100 1 503 547 548 504
557 3 2 100 1 504 548 549 505
558 3 2 100 1 505 549 550 506
559 3 2 100 1 506 550 551 507
560 3 2 100 1 507 551 552 508
561 3 2 100 1 508 552 553 509
562 3 2 100 1 509 553 554 510
563 3 2 100 1 510 554 555 511
564 3 2 100 1 511 555 556 512
565 3 2 100 1 512 556 557 513
566 3 2 100 1 513 557 558 514
567 3 2 100 1 514 558 559 515
568 3 2 100 1 515 559 560 516
569 3 2 100 1 516 560 561 517
570 3 2 100 1 517 561 562 518
571 3 2 100 1 518 562 563 519
572 3 2 100 1 519 563 564 520
573 3 2 100 1 520 564 565 521
574 3 2 100 1 521 565 566 522
575 3 2 100 1 522 566 567 523
576 3 2 100 1 523 567 568 524
577 3 2 100 1 524 568 569 525
578 3 2 100 1 525 569 570 526
579 3 2 100 1 526 570 571 527
580 3 2 100 1 527 571 572 528
581 3 2 100 1 528 572 573 529
582 3 2 100 1 529 573 574 530
583 3 2 100 1 530 574 575 531
584 3 2 100 1 531 575 576 532
585 3 2 100 1 532 576 128 129
586 3 2 100 1 13 14 577 533
587 3 2 100 1 533 577 578 534
588 3 2 100 1 534 578 579 535
589 3 2 100 1 535 579 580 536
590 3 2 100 1 536 580 581 537
591 3 2 100 1 537 581 582 538
592 3 2 100 1 538 582 583 539
593 3 2 100 1 539 583 584 540
594 3 2 100 1 540 584 585 541
595 3 2 100 1 541 585 586 542
596 3 2 100 1 542 586 587 543
597 3 2 100 1 543 587 588 544
598 3 2 100 1 544 588 589 545
599 3 2 100 1 545 589 590 546
600 3 2 100 1 546 590 591 547
601 3 2 100 1 547 591 592 548
602 3 2 100 1 548 592 593 549
603 3 2 100 1 549 593 594 550
604 3 2 100 1 550 594 595 551
605 3 2 100 1 551 595 596 552
606 3 2 100 1 552 596 597 553
607 3 2 100 1 553 597 598 554
608 3 2 100 1 554 598 599 555
609 3 2 100 1 555 599 600 556
610 3 2 100 1 556 600 601 557
611 3 2 100 1 557 601 602 558
612 3 2 100 1 558 602 603 559
613 3 2 100 1 559 603 604 560
614 3 2 100 1 560 604 605 561
615 3 2 100 1 561 605 606 562
616 3 2 100 1 562 606 607 563
617 3 2 100 1 563 607 608 564
618 3 2 100 1 564 608 609 565
619 3 2 100 1 565 609 610 566
620 3 2 100 1 566 610 611 567
621 3 2 100 1 567 611 612 568
622 3 2 100 1 568 612 613 569
623 3 2 100 1 569 613 614 570
624 3 2 100 1 570 614 615 571
625 3 2 100 1 571 615 616 572
626 3 2 100 1 572 616 617 573
627 3 2 100 1 573 617 618 574
628 3 2 100 1 574 618 619 575
629 3 2 100 1 575 619 620 576
630 3 2 100 1 576 620 127 128
631 3 2 100 1 14 15 621 577
632 3 2 100 1 577 621 622 578
633 3 2 100 1 578 622 623 579
634 3 2 100 1 579 623 624 580
635 3 2 100 1 580 624 625 581
636 3 2 100 1 581 625 626 582
637 3 2 100 1 582 626 627 583
638 3 2 100 1 583 627 628 584
639 3 2 100 1 584 628 629 585
640 3 2 100 1 585 629 630 586
641 3 2 100 1 586 630 631 587
642 3 2 100 1 587 631 632 588
643 3 2 100 1 588 632 633 589
644 3 2 100 1 589 633 634 590
645 3 2 100 1 590 634 635 591
646 3 2 100 1 591 635 636 592
647 3 2 100 1 592 636 637 593
648 3 2 100 1 593 637 638 594
649 3 2 100 1 594 638 639 595
650 3 2 100 1 595 639 640 596
651 3 2 100 1 596 640 641 597
652 3 2 100 1 597 641 642 598
653 3 2 100 1 598 642 643 599
654 3 2 100 1 599 643 644 600
655 3 2 100 1 600 644 645 601
656 3 2 100 1 601 645 646 602
657 3 2 100 1 602 646 647 603
658 3 2 100 1 603 647 648 604
659 3 2 100 1 604 648 649 605
660 3 2 100 1 605 649 650 606
661 3 2 100 1 606 650 651 607
662 3 2 100 1 607 651 652 608
663 3 2 100 1 608 652 653 609
664 3 2 100 1 609 653 654 610
665 3 2 100 1 610 654 655 611
666 3 2 100 1 611 655 656 612
667 3 2 100 1 612 656 657 613
668 3 2 100 1 613 657 658 614
669 3 2 100 1 614 658 659 615
670 3 2 100 1 615 659 660 616
671 3 2 100 1 616 660 661 617
672 3 2 100 1 617 661 662 618
673 3 2 100 1 618 662 663 619
674 3 2 100 1 619 663 664 620
675 3 2 100 1 620 664 126 127
676 3 2 100 1 15 16 665 621
677 3 2 100 1 621 665 666 622
678 3 2 100 1 622 666 667 623
679 3 2 100 1 623 667 668 624
680 3 2 100 1 624 668 669 625
681 3 2 100 1 625 669 670 626
682 3 2 100 1 626 670 671 627
683 3 2 100 1 627 671 672 628
684 3 2 100 1 628 672 673 629
685 3 2 100 1 629 673 674 630
686 3 2 100 1 630 674 675 631
687 3 2 100 1 631 675 676 632
688 3 2 100 1 632 676 677 633
689 3 2 100 1 633 677 678 634
690 3 2 100 1 634 678 679 635
691 3 2 100 1 635 679 680 636
692 3 2 100 1 636 680 681 637
693 3 2 100 1 637 681 682 638
694 3 2 100 1 638 682 683 639
695 3 2 100 1 639 683 684 640
696 3 2 100 1 640 684 685 641
697 3 2 100 1 641 685 686 642
698 3 2 100 1 642 686 687 643
699 3 2 100 1 643 687 688 644
700 3 2 100 1 644 688 689 645
701 3 2 100 1 645 689 690 646
702 3 2 100 1 646 690 691 647
703 3 2 100 1 647 691 692 648
704 3 2 100 1 648 692 693 649
705 3 2 100 1 649 693 694 650
706 3 2 100 1 650 694 695 651
707 3 2 100 1 651 695 696 652
708 3 2 100 1 652 696 697 653
709 3 2 100 1 653 697 698 654
710 3 2 100 1 654 698 699 655
711 3 2 100 1 655 699 700 656
712 3 2 100 1 656 700 701 657
713 3 2 100 1 657 701 702 658
714 3 2 100 1 658 702 703 659
715 3 2 100 1 659 703 704 660
716 3 2 100 1 660 704 705 661
717 3 2 100 1 661 705 706 662
718 3 2 100 1 662 706 707 663
719 3 2 100 1 663 707 708 664
720 3 2 100 1 664 708 125 126
721 3 2 100 1 16 17 709 665
722 3 2 100 1 665 709 710 666
723 3 2 100 1 666 710 711 667
724 3 2 100 1 667 711 712 668
725 3 2 100 1 668 712 713 669
726 3 2 100 1 669 713 714 670
727 3 2 100 1 670 714 715 671
728 3 2 100 1 671 715 716 672
729 3 2 100 1 672 716 717 673
730 3 2 100 1 673 717 718 674
731 3 2 100 1 674 718 719 675
732 3 2 100 1 675 719 720 676
733 3 2 100 1 676 720 721 677
734 3 2 100 1 677 721 722 678
735 3 2 100 1 678 722 723 679
736 3 2 100 1 679 723 724 680
737 3 2 100 1 680 724 725 681
738 3 2 100 1 681 725 726 682
739 3 2 100 1 682 726 727 683
740 3 2 100 1 683 727 728 684
741 3 2 100 1 684 728 729 685
742 3 2 100 1 685 729 730 686
743 3 2 100 1 686 730 731 687
744 3 2 100 1 687 731 732 688
745 3 2 100 1 688 732 733 689
746 3 2 100 1 689 733 734 690
747 3 2 100 1 690 734 735 691
748 3 2 100 1 691 735 736 692
749 3 2 100 1 692 736 737 693
750 3 2 100 1 693 737 738 694
751 3 2 100 1 694 738 739 695
752 3 2 100 1 695 739 740 696
753 3 2 100 1 696 740 741 697
754 3 2 100 1 697 741 742 698
755 3 2 100 1 698 742 743 699
756 3 2 100 1 699 743 744 700
757 3 2 100 1 700 744 745 701
758 3 2 100 1 701 745 746 702
759 3 2 100 1 702 746 747 703
760 3 2 100 1 703 747 748 704
761 3 2 100 1 704 748 749 705
762 3 2 100 1 705 749 750 706
763 3 2 100 1 706 750 751 707
764 3 2 100 1 707 751 752 708
765 3 2 100 1 708 752 124 125
766 3 2 100 1 17 18 753 709
767 3 2 100 1 709 753 754 710
768 3 2 100 1 710 754 755 711
769 3 2 100 1 711 755 756 712
770 3 2 100 1 712 756 757 713
771 3 2 100 1 713 757 758 714
772 3 2 100 1 714 758 759 715
773 3 2 100 1 715 759 760 716
774 3 2 100 1 716 760 761 717
775 3 2 100 1 717 761 762 718
776 3 2 100 1 718 762 763 719
777 3 2 100 1 719 763 764 720
778 3 2 100 1 720 764 765 721
779 3 2 100 1 721 765 766 722
780 3 2 100 1 722 766 767 723
781 3 2 100 1 723 767 768 724
782 3 2 100 1 724 768 769 725
783 3 2 100 1 725 769 770 726
784 3 2 100 1 726 770 771 727
785 3 2 100 1 727 771 772 728
786 3 2 100 1 728 772 773 729
787 3 2 100 1 729 773 774 730
788 3 2 100 1 730 774 775 731
789 3 2 100 1 731 775 776 732
790 3 2 100 1 732 776 777 733
791 3 2 100 1 733 777 778 734
792 3 2 100 1 734 778 779 735
793 3 2 100 1 735 779 780 736
794 3 2 100 1 736 780 781 737
795 3 2 100 1 737 781 782 738
796 3 2 100 1 738 782 783 739
797 3 2 100 1 739 783 784 740
798 3 2 100 1 740 784 785 741
799 3 2 100 1 741 785 786 742
800 3 2 100 1 742 786 787 743
801 3 2 100 1 743 787 788 744
802 3 2 100 1 744 788 789 745
803 3 2 100 1 745 789 790 746
804 3 2 100 1 746 790 791 747
805 3 2 100 1 747 791 792 748
806 3 2 100 1 748 792 793 749
807 3 2 100 1 749 793 794 750
808 3 2 100 1 750 794 795 751
809 3 2 100 1 751 795 796 752
810 3 2 100 1 752 796 123 124
811 3 2 100 1 18 19 797 753
812 3 2 100 1 753 797 798 754
813 3 2 100 1 754 798 799 755
814 3 2 100 1 755 799 800 756
815 3 2 100 1 756 800 801 757
816 3 2 100 1 757 801 802 758
817 3 2 100 1 758 802 803 759
818 3 2 100 1 759 803 804 760
819 3 2 100 1 760 804 805 761
820 3 2 100 1 761 805 806 762
821 3 2 100 1 762 806 807 763
822 3 2 100 1 763 807 808 764
823 3 2 100 1 764 808 809 765
824 3 2 100 1 765 809 810 766
825 3 2 100 1 766 810 811 767
826 3 2 100 1 767 811 812 768
827 3 2 100 1 768 812 813 769
828 3 2 100 1 769 813 814 770
829 3 2 100 1 770 814 815 771
830 3 2 100 1 771 815 816 772
831 3 2 100 1 772 816 817 773
832 3 2 100 1 773 817 818 774
833 3 2 100 1 774 818 819 775
834 3 2 100 1 775 819 820 776
835 3 2 100 1 776 820 821 777
836 3 2 100 1 777 821 822 778
837 3 2 100 1 778 822 823 779
838 3 2 100 1 779 823 824 780
839 3 2 100 1 780 824 825 781
840 3 2 100 1 781 825 826 782
841 3 2 100 1 782 826 827 783
842 3 2 100 1 783 827 828 784
843 3 2 100 1 784 828 829 785
844 3 2 100 1 785 829 830 786
845 3 2 100 1 786 830 831 787
846 3 2 100 1 787 831 832 788
847 3 2 100 1 788 832 833 789
848 3 2 100 1 789 833 834 790
849 3 2 100 1 790 834 835 791
850 3 2 100 1 791 835 836 792
851 3 2 100 1 792 836 837 793
852 3 2 100 1 793 837 838 794
853 3 2 100 1 794 838 839 795
854 3 2 100 1 795 839 840 796
855 3 2 100 1 796 840 122 123
856 3 2 100 1 19 20 841 797
857 3 2 100 1 797 841 842 798
858 3 2 100 1 798 842 843 799
859 3 2 100 1 799 843 844 800
860 3 2 100 1 800 844 845 801
861 3 2 100 1 801 845 846 802
862 3 2 100 1 802 846 847 803
863 3 2 100 1 803 847 848 804
864 3 2 100 1 804 848 849 805
865 3 2 100 1 805 849 850 806
866 3 2 100 1 806 850 851 807
867 3 2 100 1 807 851 852 808
868 3 2 100 1 808 852 853 809
869 3 2 100 1 809 853 854 810
870 3 2 100 1 810 854 855 811
871 3 2 100 1 811 855 856 812
872 3 2 100 1 812 856 857 813
873 3 2 100 1 813 857 858 814
874 3 2 100 1 814 858 859 815
875 3 2 100 1 815 859 860 816
876 3 2 100 1 816 860 861 817
877 3 2 100 1 817 861 862 818
878 3 2 100 1 818 862 863 819
879 3 2 100 1 819 863 864 820
880 3 2 100 1 820 864 865 821
881 3 2 100 1 821 865 866 822
882 3 2 100 1 822 866 867 823
883 3 2 100 1 823 867 868 824
884 3 2 100 1 824 868 869 825
885 3 2 100 1 825 869 870 826
886 3 2 100 1 826 870 871 827
887 3 2 100 1 827 871 872 828
888 3 2 100 1 828 872 873 829
889 3 2 100 1 829 873 874 830
890 3 2 100 1 830 874 875 831
891 3 2 100 1 831 875 876 832
892 3 2 100 1 832 876 877 833
893 3 2 100 1 833 877 878 834
894 3 2 100 1 834 878 879 835
895 3 2 100 1 835 879 880 836
896 3 2 100 1 836 880 881 837
897 3 2 100 1 837 881 882 838
898 3 2 100 1 838 882 883 839
899 3 2 100 1 839 883 884 840
900 3 2 100 1 840 884 121 122
901 3 2 100 1 20 21 885 841
902 3 2 100 1 841 885 886 842
903 3 2 100 1 842 886 887 843
904 3 2 100 1 843 887 888 844
905 3 2 100 1 844 888 889 845
906 3 2 100 1 845 889 890 846
907 3 2 100 1 846 890 891 847
908 3 2 100 1 847 891 892 848
909 3 2 100 1 848 892 893 849
910 3 2 100 1 849 893 894 850
911 3 2 100 1 850 894 895 851
912 3 2 100 1 851 895 896 852
913 3 2 100 1 852 896 897 853
914 3 2 100 1 853 897 898 854
915 3 2 100 1 854 898 899 855
916 3 2 100 1 855 899 900 856
917 3 2 100 1 856 900 901 857
918 3 2 100 1 857 901 902 858
919 3 2 100 1 858 902 903 859
920 3 2 100 1 859 903 904 860
921 3 2 100 1 860 904 905 861
922 3 2 100 1 861 905 906 862
923 3 2 100 1 862 906 907 863
924 3 2 100 1 863 907 908 864
925 3 2 100 1 864 908 909 865
926 3 2 100 1 865 909 910 866
927 3 2 100 1 866 910 911 867
928 3 2 100 1 867 911 912 868
929 3 2 100 1 868 912 913 869
930 3 2 100 1 869 913 914 870
931 3 2 100 1 870 914 915 871
932 3 2 100 1 871 915 916 872
933 3 2 100 1 872 916 917 873
934 3 2 100 1 873 917 918 874
935 3 2 100 1 874 918 919 875
936 3 2 100 1 875 919 920 876
937 3 2 100 1 876 920 921 877
938 3 2 100 1 877 921 922 878
939 3 2 100 1 878 922 923 879
940 3 2 100 1 879 923 924 880
941 3 2 100 1 880 924 925 881
942 3 2 100 1 881 925 926 882
943 3 2 100 1 882 926 927 883
944 3 2 100 1 883 927 928 884
945 3 2 100 1 884 928 120 121
946 3 2 100 1 21 22 929 885
947 3 2 100 1 885 929 930 886
948 3 2 100 1 886 930 931 887
949 3 2 100 1 887 931 932 888
950 3 2 100 1 888 932 933 889
951 3 2 100 1 889 933 934 890
952 3 2 100 1 890 934 935 891
953 3 2 100 1 891 935 936 892
954 3 2 100 1 892 936 937 893
955 3 2 100 1 893 937 938 894
956 3 2 100 1 894 938 939 895
957 3 2 100 1 895 939 940 896
958 3 2 100 1 896 940 941 897
959 3 2 100 1 897 941 942 898
960 3 2 100 1 898 942 943 899
961 3 2 100 1 899 943 944 900
962 3 2 100 1 900 944 945 901
963 3 2 100 1 901 945 946 902
964 3 2 100 1 902 946 947 903
965 3 2 100 1 903 947 948 904
966 3 2 100 1 904 948 949 905
967 3 2 100 1 905 949 950 906
968 3 2 100 1 906 950 951 907
969 3 2 100 1 907 951 952 908
970 3 2 100 1 908 952 953 909
971 3 2 100 1 909 953 954 910
972 3 2 100 1 910 954 955 911
973 3 2 100 1 911 955 956 912
974 3 2 100 1 912 956 957 913
975 3 2 100 1 913 957 958 914
976 3 2 100 1 914 958 959 915
977 3 2 100 1 915 959 960 916
978 3 2 100 1 916 960 961 917
979 3 2 100 1 917 961 962 918
980 3 2 100 1 918 962 963 919
981 3 2 100 1 919 963 964 920
982 3 2 100 1 920 964 965 921
983 3 2 100 1 921 965 966 922
984 3 2 100 1 922 966 967 923
985 3 2 100 1 923 967 968 924
986 3 2 100 1 924 968 969 925
987 3 2 100 1 925 969 970 926
988 3 2 100 1 926 970 971 927
989 3 2 100 1 927 971 972 928
990 3 2 100 1 928 972 119 120
991 3 2 100 1 22 23 973 929
992 3 2 100 1 929 973 974 930
993 3 2 100 1 930 974 975 931
994 3 2 100 1 931 975 976 932
995 3 2 100 1 932 976 977 933
996 3 2 100 1 933 977 978 934
997 3 2 100 1 934 978 979 935
998 3 2 100 1 935 979 980 936
999 3 2 100 1 936 980 981 937
1000 3 2 100 1 937 981 982 938
1001 3 2 100 1 938 982 983 939
1002 3 2 100 1 939 983 984 940
1003 3 2 100 1 940 984 985 941
1004 3 2 100 1 941 985 986 942
1005 3 2 100 1 942 986 987 943
1006 3 2 100 1 943 987 988 944
1007 3 2 100 1 944 988 989 945
1008 3 2 100 1 945 989 990 946
1009 3 2 100 1 946 990 991 947
1010 3 2 100 1 947 991 992 948
1011 3 2 100 1 948 992 993 949
1012 3 2 100 1 949 993 994 950
1013 3 2 100 1 950 994 995 951
1014 3 2 100 1 951 995 996 952
1015 3 2 100 1 952 996 997 953
1016 3 2 100 1 953 997 998 954
1017 3 2 100 1 954 998 999 955
1018 3 2 100 1 955 999 1000 956
1019 3 2 100 1 956 1000 1001 957
1020 3 2 100 1 957 1001 1002 958
1021 3 2 100 1 958 1002 1003 959
1022 3 2 100 1 959 1003 1004 960
1023 3 2 100 1 960 1004 1005 961
1024 3 2 100 1 961 1005 1006 962
1025 3 2 100 1 962 1006 1007 963
1026 3 2 100 1 963 1007 1008 964
1027 3 2 100 1 964 1008 1009 965
1028 3 2 100 1 965 1009 1010 966
1029 3 2 100 1 966 1010 1011 967
1030 3 2 100 1 967 1011 1012 968
1031 3 2 100 1 968 1012 1013 969
1032 3 2 100 1 969 1013 1014 970
1033 3 2 100 1 970 1014 1015 971
1034 3 2 100 1 971 1015 1016 972
1035 3 2 100 1 972 1016 118 119
1036 3 2 100 1 23 24 1017 973
1037 3 2 100 1 973 1017 1018 974
1038 3 2 100 1 974 1018 1019 975
1039 3 2 100 1 975 1019 1020 976
1040 3 2 100 1 976 1020 1021 977
1041 3 2 100 1 977 1021 1022 978
1042 3 2 100 1 978 1022 1023 979
1043 3 2 100 1 979 1023 1024 980
1044 3 2 100 1 980 1024 1025 981
1045 3 2 100 1 981 1025 1026 982
1046 3 2 100 1 982 1026 1027 983
1047 3 2 100 1 983 1027 1028 984
1048 3 2 100 1 984 1028 1029 985
1049 3 2 100 1 985 1029 1030 986
1050 3 2 100 1 986 1030 1031 987
1051 3 2 100 1 987 1031 1032 988
1052 3 2 100 1 988 1032 1033 989
1053 3 2 100 1 989 1033 1034 990
1054 3 2 100 1 990 1034 1035 991
1055 3 2 100 1 991 1035 1036 992
1056 3 2 100 1 992 1036 1037 993
1057 3 2 100 1 993 1037 1038 994
1058 3 2 100 1 994 1038 1039 995
1059 3 2 100 1 995 1039 1040 996
1060 3 2 100 1 996 1040 1041 997
1061 3 2 100 1 997 1041 1042 998
1062 3 2 100 1 998 1042 1043 999
1063 3 2 100 1 999 1043 1044 1000
1064 3 2 100 1 1000 1044 1045 1001
1065 3 2 100 1 1001 1045 1046 1002
1066 3 2 100 1 1002 1046 1047 1003
1067 3 2 100 1 1003 1047 1048 1004
1068 3 2 100 1 1004 1048 1049 1005
1069 3 2 100 1 1005 1049 1050 1006
1070 3 2 100 1 1006 1050 1051 1007
1071 3 2 100 1 1007 1051 1052 1008
1072 3 2 100 1 1008 1052 1053 1009
1073 3 2 100 1 1009 1053 1054 1010
1074 3 2 100 1 1010 1054 1055 1011
1075 3 2 100 1 1011 1055 1056 1012
1076 3 2 100 1 1012 1056 1057 1013
1077 3 2 100 1 1013 1057 1058 1014
1078 3 2 100 1 1014 1058 1059 1015
1079 3 2 100 1 1015 1059 1060 1016
1080 3 2 100 1 1016 1060 117 118
1081 3 2 100 1 24 25 1061 1017
1082 3 2 100 1 1017 1061 1062 1018
1083 3 2 100 1 1018 1062 1063 1019
1084 3 2 100 1 1019 1063 1064 1020
1085 3 2 100 1 1020 1064 1065 1021
1086 3 2 100 1 1021 1065 1066 1022
1087 3 2 100 1 1022 1066 1067 1023
1088 3 2 100 1 1023 1067 1068 1024
1089 3 2 100 1 1024 1068 1069 1025
1090 3 2 100 1 1025 1069 1070 1026
1091 3 2 100 1 1026 1070 1071 1027
1092 3 2 100 1 1027 1071 1072 1028
1093 3 2 100 1 1028 1072 1073 1029
1094 3 2 100 1 1029 1073 1074 1030
1095 3 2 100 1 1030 1074 1075 1031
1096 3 2 100 1 1031 1075 1076 1032
1097 3 2 100 1 1032 1076 1077 1033
1098 3 2 100 1 1033 1077 1078 1034
1099 3 2 100 1 1034 1078 1079 1035
1100 3 2 100 1 1035 1079 1080 1036
1101 3 2 100 1 1036 1080 1081 1037
1102 3 2 100 1 1037 1081 1082 1038
1103 3 2 100 1 1038 1082 1083 1039
1104 3 2 100 1 1039 1083 1084 1040
1105 3 2 100 1 1040 1084 1085 1041
1106 3 2 100 1 1041 1085 1086 1042
1107 3 2 100 1 1042 1086 1087 1043
1108 3 2 100 1 1043 1087 1088 1044
1109 3 2 100 1 1044 1088 1089 1045
1110 3 2 100 1 1045 1089 1090 1046
1111 3 2 100 1 1046 1090 1091 1047
1112 3 2 100 1 1047 1091 1092 1048
1113 3 2 100 1 1048 1092 1093 1049
1114 3 2 100 1 1049 1093 1094 1050
1115 3 2 100 1 1050 1094 1095 1051
1116 3 2 100 1 1051 1095 1096 1052
1117 3 2 100 1 1052 1096 1097 1053
1118 3 2 100 1 1053 1097 1098 1054
1119 3 2 100 1 1054 1098 1099 1055
1120 3 2 100 1 1055 1099 1100 1056
1121 3 2 100 1 1056 1100 1101 1057
1122 3 2 100 1 1057 1101 1102 1058
1123 3 2 100 1 1058 1102 1103 1059
1124 3 2 100 1 1059 1103 1104 1060
1125 3 2 100 1 1060 1104 116 117
1126 3 2 100 1 25 26 1105 1061
1127 3 2 100 1 1061 1105 1106 1062
1128 3 2 100 1 1062 1106 1107 1063
1129 3 2 100 1 1063 1107 1108 1064
1130 3 2 100 1 1064 1108 1109 1065
1131 3 2 100 1 1065 1109 1110 1066
1132 3 2 100 1 1066 1110 1111 1067
1133 3 2 100 1 1067 1111 1112 1068
1134 3 2 100 1 1068 1112 1113 1069
1135 3 2 100 1 1069 1113 1114 1070
1136 3 2 100 1 1070 1114 1115 1071
1137 3 2 100 1 1071 1115 1116 1072
1138 3 2 100 1 1072 1116 1117 1073
1139 3 2 100 1 1073 1117 1118 1074
1140 3 2 100 1 1074 1118 1119 1075
1141 3 2 100 1 1075 1119 1120 1076
1142 3 2 100 1 1076 1120 1121 1077
1143 3 2 100 1 1077 1121 1122 1078
1144 3 2 100 1 1078 1122 1123 1079
1145 3 2 100 1 1079 1123 1124 1080
1146 3 2 100 1 1080 1124 1125 1081
1147 3 2 100 1 1081 1125 1126 1082
1148 3 2 100 1 1082 1126 1127 1083
1149 3 2 100 1 1083 1127 1128 1084
1150 3 2 100 1 1084 1128 1129 1085
1151 3 2 100 1 1085 1129 1130 1086
1152 3 2 100 1 1086 1130 1131 1087
1153 3 2 100 1 1087 1131 1132 1088
1154 3 2 100 1 1088 1132 1133 1089
1155 3 2 100 1 1089 1133 1134 1090
1156 3 2 100 1 1090 1134 1135 1091
1157 3 2 100 1 1091 1135 1136 1092
1158 3 2 100 1 1092 1136 1137 1093
1159 3 2 100 1 1093 1137 1138 1094
1160 3 2 100 1 1094 1138 1139 1095
1161 3 2 100 1 1095 1139 1140 1096
1162 3 2 100 1 1096 1140 1141 1097
1163 3 2 100 1 1097 1141 1142 1098
1164 3 2 100 1 1098 1142 1143 1099
1165 3 2 100 1 1099 1143 1144 1100
1166 3 2 100 1 1100 1144 1145 1101
1167 3 2 100 1 1101 1145 1146 1102
1168 3 2 100 1 1102 1146 1147 1103
1169 3 2 100 1 1103 1147 1148 1104
1170 3 2 100 1 1104 1148 115 116
1171 3 2 100 1 26 27 1149 1105
1172 3 2 100 1 1105 1149 1150 1106
1173 3 2 100 1 1106 1150 1151 1107
1174 3 2 100 1 1107 1151 1152 1108
1175 3 2 100 1 1108 1152 1153 1109
1176 3 2 100 1 1109 1153 1154 1110
1177 3 2 100 1 1110 1154 1155 1111
1178 3 2 100 1 1111 1155 1156 1112
1179 3 2 100 1 1112 1156 1157 1113
1180 3 2 100 1 1113 1157 1158 1114
1181 3 2 100 1 1114 1158 1159 1115
1182 3 2 100 1 1115 1159 1160 1116
1183 3 2 100 1 1116 1160 1161 1117
1184 3 2 100 1 1117 1161 1162 1118
1185 3 2 100 1 1118 1162 1163 1119
1186 3 2 100 1 1119 1163 1164 1120
1187 3 2 100 1 1120 1164 1165 1121
1188 3 2 100 1 1121 1165 1166 1122
1189 3 2 100 1 1122 1166 1167 1123
1190 3 2 100 1 1123 1167 1168 1124
1191 3 2 100 1 1124 1168 1169 1125
1192 3 2 100 1 1125 1169 1170 1126
1193 3 2 100 1 1126 1170 1171 1127
1194 3 2 100 1 1127 1171 1172 1128
1195 3 2 100 1 1128 1172 1173 1129
1196 3 2 100 1 1129 1173 1174 1130
1197 3 2 100 1 1130 1174 1175 1131
1198 3 2 100 1 1131 1175 1176 1132
1199 3 2 100 1 1132 1176 1177 1133
1200 3 2 100 1 1133 1177 1178 1134
1201 3 2 100 1 1134 1178 1179 1135
1202 3 2 100 1 1135 1179 1180 1136
1203 3 2 100 1 1136 1180 1181 1137
1204 3 2 100 1 1137 1181 1182 1138
1205 3 2 100 1 1138 1182 1183 1139
1206 3 2 100 1 1139 1183 1184 1140
1207 3 2 100 1 1140 1184 1185 1141
1208 3 2 100 1 1141 1185 1186 1142
1209 3 2 100 1 1142 1186 1187 1143
1210 3 2 100 1 1143 1187 1188 1144
1211 3 2 100 1 1144 1188 1189 1145
1212 3 2 100 1 1145 1189 1190 1146
1213 3 2 100 1 1146 1190 1191 1147
1214 3 2 100 1 1147 1191 1192 1148
1215 3 2 100 1 1148 1192 114 115
1216 3 2 100 1 27 28 1193 1149
1217 3 2 100 1 1149 1193 1194 1150
1218 3 2 100 1 1150 1194 1195 1151
1219 3 2 100 1 1151 1195 1196 1152
1220 3 2 100 1 1152 1196 1197 1153
1221 3 2 100 1 1153 1197 1198 1154
1222 3 2 100 1 1154 1198 1199 1155
1223 3 2 100 1 1155 1199 1200 1156
1224 3 2 100 1 1156 1200 1201 1157
1225 3 2 100 1 1157 1201 1202 1158
1226 3 2 100 1 1158 1202 1203 1159
1227 3 2 100 1 1159 1203 1204 1160
1228 3 2 100 1 1160 1204 1205 1161
1229 3 2 100 1 1161 1205 1206 1162
1230 3 2 100 1 1162 1206 1207 1163
1231 3 2 100 1 1163 1207 1208 1164
1232 3 2 100 1 1164 1208 1209 1165
1233 3 2 100 1 1165 1209 1210 1166
1234 3 2 100 1 1166 1210 1211 1167
1235 3 2 100 1 1167 1211 1212 1168
1236 3 2 100 1 1168 1212 1213 1169
1237 3 2 100 1 1169 1213 1214 1170
1238 3 2 100 1 1170 1214 1215 1171
1239 3 2 100 1 1171 1215 1216 1172
1240 3 2 100 1 1172 1216 1217 1173
1241 3 2 100 1 1173 1217 1218 1174
1242 3 2 100 1 1174 1218 1219 1175
1243 3 2 100 1 1175 1219 1220 1176
1244 3 2 100 1 1176 1220 1221 1177
1245 3 2 100 1 1177 1221 1222 1178
1246 3 2 100 1 1178 1222 1223 1179
1247 3 2 100 1 1179 1223 1224 1180
1248 3 2 100 1 1180 1224 1225 1181
1249 3 2 100 1 1181 1225 1226 1182
1250 3 2 100 1 1182 1226 1227 1183
1251 3 2 100 1 1183 1227 1228 1184
1252 3 2 100 1 1184 1228 1229 1185
1253 3 2 100 1 1185 1229 1230 1186
1254 3 2 100 1 1186 1230 1231 1187
1255 3 2 100 1 1187 1231 1232 1188
1256 3 2 100 1 1188 1232 1233 1189
1257 3 2 100 1 1189 1233 1234 1190
1258 3 2 100 1 1190 1234 1235 1191
1259 3 2 100 1 1191 1235 1236 1192
1260 3 2 100 1 1192 1236 113 114
1261 3 2 100 1 28 29 1237 1193
1262 3 2 100 1 1193 1237 1238 1194
1263 3 2 100 1 1194 1238 1239 1195
1264 3 2 100 1 1195 1239 1240 1196
1265 3 2 100 1 1196 1240 1241 1197
1266 3 2 100 1 1197 1241 1242 1198
1267 3 2 100 1 1198 1242 1243 1199
1268 3 2 100 1 1199 1243 1244 1200
1269 3 2 100 1 1200 1244 1245 1201
1270 3 2 100 1 1201 1245 1246 1202
1271 3 2 100 1 1202 1246 1247 1203
1272 3 2 100 1 1203 1247 1248 1204
1273 3 2 100 1 1204 1248 1249 1205
1274 3 2 100 1 1205 1249 1250 1206
1275 3 2 100 1 1206 1250 1251 1207
1276 3 2 100 1 1207 1251 1252 1208
1277 3 2 100 1 1208 1252 1253 1209
1278 3 2 100 1 1209 1253 1254 1210
1279 3 2 100 1 1210 1254 1255 1211
1280 3 2 100 1 1211 1255 1256 1212
1281 3 2 100 1 1212 1256 1257 1213
1282 3 2 100 1 1213 1257 1258 1214
1283 3 2 100 1 1214 1258 1259 1215
1284 3 2 100 1 1215 1259 1260 1216
1285 3 2 100 1 1216 1260 1261 1217
1286 3 2 100 1 1217 1261 1262 1218
1287 3 2 100 1 1218 1262 1263 1219
1288 3 2 100 1 1219 1263 1264 1220
1289 3 2 100 1 1220 1264 1265 1221
1290 3 2 100 1 1221 1265 1266 1222
1291 3 2 100 1 1222 1266 1267 1223
1292 3 2 100 1 1223 1267 1268 1224
1293 3 2 100 1 1224 1268 1269 1225
1294 3 2 100 1 1225 1269 1270 1226
1295 3 2 100 1 1226 1270 1271 1227
1296 3 2 100 1 1227 1271 1272 1228
1297 3 2 100 1 1228 1272 1273 1229
1298 3 2 100 1 1229 1273 1274 1230
1299 3 2 100 1 1230 1274 1275 1231
1300 3 2 100 1 1231 1275 1276 1232
1301 3 2 100 1 1232 1276 1277 1233
1302 3 2 100 1 1233 1277 1278 1234
1303 3 2 100 1 1234 1278 1279 1235
1304 3 2 100 1 1235 1279 1280 1236
1305 3 2 100 1 1236 1280 112 113
1306 3 2 100 1 29 30 1281 1237
1307 3 2 100 1 1237 1281 1282 1238
1308 3 2 100 1 1238 1282 1283 1239
1309 3 2 100 1 1239 1283 1284 1240
1310 3 2 100 1 1240 1284 1285 1241
1311 3 2 100 1 1241 1285 1286 1242
1312 3 2 100 1 1242 1286 1287 1243
1313 3 2 100 1 1243 1287 1288 1244
1314 3 2 100 1 1244 1288 1289 1245
1315 3 2 100 1 1245 1289 1290 1246
1316 3 2 100 1 1246 1290 1291 1247
1317 3 2 100 1 1247 1291 1292 1248
1318 3 2 100 1 1248 1292 1293 1249
1319 3 2 100 1 1249 1293 1294 1250
1320 3 2 100 1 1250 1294 1295 1251
1321 3 2 100 1 1251 1295 1296 1252
1322 3 2 100 1 1252 1296 1297 1253
1323 3 2 100 1 1253 1297 1298 1254
1324 3 2 100 1 1254 1298 1299 1255
1325 3 2 100 1 1255 1299 1300 1256
1326 3 2 100 1 1256 1300 1301 1257
1327 3 2 100 1 1257 1301 1302 1258
1328 3 2 100 1 1258 1302 1303 1259
1329 3 2 100 1 1259 1303 1304 1260
1330 3 2 100 1 1260 1304 1305 1261
1331 3 2 100 1 1261 1305 1306 1262
1332 3 2 100 1 1262 1306 1307 1263
1333 3 2 100 1 1263 1307 1308 1264
1334 3 2 100 1 1264 1308 1309 1265
1335 3 2 100 1 1265 1309 1310 1266
1336 3 2 100 1 1266 1310 1311 1267
1337 3 2 100 1 1267 1311 1312 1268
1338 3 2 100 1 1268 1312 1313 1269
1339 3 2 100 1 1269 1313 1314 1270
1340 3 2 100 1 1270 1314 1315 1271
1341 3 2 100 1 1271 1315 1316 1272
1342 3 2 100 1 1272 1316 1317 1273
1343 3 2 100 1 1273 1317 1318 1274
1344 3 2 100 1 1274 1318 1319 1275
1345 3 2 100 1 1275 1319 1320 1276
1346 3 2 100 1 1276 1320 1321 1277
1347 3 2 100 1 1277 1321 1322 1278
1348 3 2 100 1 1278 1322 1323 1279
1349 3 2 100 1 1279 1323 1324 1280
1350 3 2 100 1 1280 1324 111 112
1351 3 2 100 1 30 31 1325 1281
1352 3 2 100 1 1281 1325 1326 1282
1353 3 2 100 1 1282 1326 1327 1283
1354 3 2 100 1 1283 1327 1328 1284
1355 3 2 100 1 1284 1328 1329 1285
1356 3 2 100 1 1285 1329 1330 1286
1357 3 2 100 1 1286 1330 1331 1287
1358 3 2 100 1 1287 1331 1332 1288
1359 3 2 100 1 1288 1332 1333 1289
1360 3 2 100 1 1289 1333 1334 1290
1361 3 2 100 1 1290 1334 1335 1291
1362 3 2 100 1 1291 1335 1336 1292
1363 3 2 100 1 1292 1336 1337 1293
1364 3 2 100 1 1293 1337 1338 1294
1365 3 2 100 1 1294 1338 1339 1295
1366 3 2 100 1 1295 1339 1340 1296
1367 3 2 100 1 1296 1340 1341 1297
1368 3 2 100 1 1297 1341 1342 1298
1369 3 2 100 1 1298 1342 1343 1299
1370 3 2 100 1 1299 1343 1344 1300
1371 3 2 100 1 1300 1344 1345 1301
1372 3 2 100 1 1301 1345 1346 1302
1373 3 2 100 1 1302 1346 1347 1303
1374 3 2 100 1 1303 1347 1348 1304
1375 3 2 100 1 1304 1348 1349 1305
1376 3 2 100 1 1305 1349 1350 1306
1377 3 2 100 1 1306 1350 1351 1307
1378 3 2 100 1 1307 1351 1352 1308
1379 3 2 100 1 1308 1352 1353 1309
1380 3 2 100 1 1309 1353 1354 1310
1381 3 2 100 1 1310 1354 1355 1311
1382 3 2 100 1 1311 1355 1356 1312
1383 3 2 100 1 1312 1356 1357 1313
1384 3 2 100 1 1313 1357 1358 1314
1385 3 2 100 1 1314 1358 1359 1315
1386 3 2 100 1 1315 1359 1360 1316
1387 3 2 100 1 1316 1360 1361 1317
1388 3 2 100 1 1317 1361 1362 1318
1389 3 2 100 1 1318 1362 1363 1319
1390 3 2 100 1 1319 1363 1364 1320
1391 3 2 100 1 1320 1364 1365 1321
1392 3 2 100 1 1321 1365 1366 1322
1393 3 2 100 1 1322 1366 1367 1323
1394 3 2 100 1 1323 1367 1368 1324
1395 3 2 100 1 1324 1368 110 111
1396 3 2 100 1 31 32 1369 1325
1397 3 2 100 1 1325 1369 1370 1326
1398 3 2 100 1 1326 1370 1371 1327
1399 3 2 100 1 1327 1371 1372 1328
1400 3 2 100 1 1328 1372 1373 1329
1401 3 2 100 1 1329 1373 1374 1330
1402 3 2 100 1 1330 1374 1375 1331
1403 3 2 100 1 1331 1375 1376 1332
1404 3 2 100 1 1332 1376 1377 1333
1405 3 2 100 1 1333 1377 1378 1334
1406 3 2 100 1 1334 1378 1379 1335
1407 3 2 100 1 1335 1379 1380 1336
1408 3 2 100 1 1336 1380 1381 1337
1409 3 2 100 1 1337 1381 1382 1338
1410 3 2 100 1 1338 1382 1383 1339
1411 3 2 100 1 1339 1383 1384 1340
1412 3 2 100 1 1340 1384 1385 1341
1413 3 2 100 1 1341 1385 1386 1342
1414 3 2 100 1 1342 1386 1387 1343
1415 3 2 100 1 1343 1387 1388 1344
1416 3 2 100 1 1344 1388 1389 1345
1417 3 2 100 1 1345 1389 1390 1346
1418 3 2 100 1 1346 1390 1391 1347
1419 3 2 100 1 1347 1391 1392 1348
1420 3 2 100 1 1348 1392 1393 1349
1421 3 2 100 1 1349 1393 1394 1350
1422 3 2 100 1 1350 1394 1395 1351
1423 3 2 100 1 1351 1395 1396 1352
1424 3 2 100 1 1352 1396 1397 1353
1425 3 2 100 1 1353 1397 1398 1354
1426 3 2 100 1 1354 1398 1399 1355
1427 3 2 100 1 1355 1399 1400 1356
1428 3 2 100 1 1356 1400 1401 1357
1429 3 2 100 1 1357 1401 1402 1358
1430 3 2 100 1 1358 1402 1403 1359
1431 3 2 100 1 1359 1403 1404 1360
1432 3 2 100 1 1360 1404 1405 1361
1433 3 2 100 1 1361 1405 1406 1362
1434 3 2 100 1 1362 1406 1407 1363
1435 3 2 100 1 1363 1407 1408 1364
1436 3 2 100 1 1364 1408 1409 1365
1437 3 2 100 1 1365 1409 1410 1366
1438 3 2 100 1 1366 1410 1411 1367
1439 3 2 100 1 1367 1411 1412 1368
1440 3 2 100 1 1368 1412 109 110
1441 3 2 100 1 32 33 1413 1369
1442 3 2 100 1 1369 1413 1414 1370
1443 3 2 100 1 1370 1414 1415 1371
1444 3 2 100 1 1371 1415 1416 1372
1445 3 2 100 1 1372 1416 1417 1373
1446 3 2 100 1 1373 1417 1418 1374
1447 3 2 100 1 1374 1418 1419 1375
1448 3 2 100 1 1375 1419 1420 1376
1449 3 2 100 1 1376 1420 1421 1377
1450 3 2 100 1 1377 1421 1422 1378
1451 3 2 100 1 1378 1422 1423 1379
1452 3 2 100 1 1379 1423 1424 1380
1453 3 2 100 1 1380 1424 1425 1381
1454 3 2 100 1 1381 1425 1426 1382
1455 3 2 100 1 1382 1426 1427 1383
1456 3 2 100 1 1383 1427 1428 1384
1457 3 2 100 1 1384 1428 1429 1385
1458 3 2 100 1 1385 1429 1430 1386
1459 3 2 100 1 1386 1430 1431 1387
1460 3 2 100 1 1387 1431 1432 1388
1461 3 2 100 1 1388 1432 1433 1389
1462 3 2 100 1 1389 1433 1434 1390
1463 3 2 100 1 1390 1434 1435 1391
1464 3 2 100 1 1391 1435 1436 1392
1465 3 2 100 1 1392 1436 1437 1393
1466 3 2 100 1 1393 1437 1438 1394
1467 3 2 100 1 1394 1438 1439 1395
1468 3 2 100 1 1395 1439 1440 1396
1469 3 2 100 1 1396 1440 1441 1397
1470 3 2 100 1 1397 1441 1442 1398
1471 3 2 100 1 1398 1442 1443 1399
1472 3 2 100 1 1399 1443 1444 1400
1473 3 2 100 1 1400 1444 1445 1401
1474 3 2 100 1 1401 1445 1446 1402
1475 3 2 100 1 1402 1446 1447 1403
1476 3 2 100 1 1403 1447 1448 1404
1477 3 2 100 1 1404 1448 1449 1405
1478 3 2 100 1 1405 1449 1450 1406
1479 3 2 100 1 1406 1450 1451 1407
1480 3 2 100 1 1407 1451 1452 1408
1481 3 2 100 1 1408 1452 1453 1409
1482 3 2 100 1 1409 1453 1454 1410
1483 3 2 100 1 1410 1454 1455 1411
1484 3 2 100 1 1411 1455 1456 1412
1485 3 2 100 1 1412 1456 108 109
1486 3 2 100 1 33 34 1457 1413
1487 3 2 100 1 1413 1457 1458 1414
1488 3 2 100 1 1414 1458 1459 1415
1489 3 2 100 1 1415 1459 1460 1416
1490 3 2 100 1 1416 1460 1461 1417
1491 3 2 100 1 1417 1461 1462 1418
1492 3 2 100 1 1418 1462 1463 1419
1493 3 2 100 1 1419 1463 1464 1420
1494 3 2 100 1 1420 1464 1465 1421
1495 3 2 100 1 1421 1465 1466 1422
1496 3 2 100 1 1422 1466 1467 1423
1497 3 2 100 1 1423 1467 1468 1424
1498 3 2 100 1 1424 1468 1469 1425
1499 3 2 100 1 1425 1469 1470 1426
1500 3 2 100 1 1426 1470 1471 1427
1501 3 2 100 1 1427 1471 1472 1428
1502 3 2 100 1 1428 1472 1473 1429
1503 3 2 100 1 1429 1473 1474 1430
1504 3 2 100 1 1430 1474 1475 1431
1505 3 2 100 1 1431 1475 1476 1432
1506 3 2 100 1 1432 1476 1477 1433
1507 3 2 100 1 1433 1477 1478 1434
1508 3 2 100 1 1434 1478 1479 1435
1509 3 2 100 1 1435 1479 1480 1436
1510 3 2 100 1 1436 1480 1481 1437
1511 3 2 100 1 1437 1481 1482 1438
1512 3 2 100 1 1438 1482 1483 1439
1513 3 2 100 1 1439 1483 1484 1440
1514 3 2 100 1 1440 1484 1485 1441
1515 3 2 100 1 1441 1485 1486 1442
1516 3 2 100 1 1442 1486 1487 1443
1517 3 2 100 1 1443 1487 1488 1444
1518 3 2 100 1 1444 1488 1489 1445
1519 3 2 100 1 1445 1489 1490 1446
1520 3 2 100 1 1446 1490 1491 1447
1521 3 2 100 1 1447 1491 1492 1448
1522 3 2 100 1 1448 1492 1493 1449
1523 3 2 100 1 1449 1493 1494 1450
1524 3 2 100 1 1450 1494 1495 1451
1525 3 2 100 1 1451 1495 1496 1452
1526 3 2 100 1 1452 1496 1497 1453
1527 3 2 100 1 1453 1497 1498 1454
1528 3 2 100 1 1454 1498 1499 1455
1529 3 2 100 1 1455 1499 1500 1456
1530 3 2 100 1 1456 1500 107 108
1531 3 2 100 1 34 35 1501 1457
1532 3 2 100 1 1457 1501 1502 1458
1533 3 2 100 1 1458 1502 1503 1459
1534 3 2 100 1 1459 1503 1504 1460
1535 3 2 100 1 1460 1504 1505 1461
1536 3 2 100 1 1461 1505 1506 1462
1537 3 2 100 1 1462 1506 1507 1463
1538 3 2 100 1 1463 1507 1508 1464
1539 3 2 100 1 1464 1508 1509 1465
1540 3 2 100 1 1465 1509 1510 1466
1541 3 2 100 1 1466 1510 1511 1467
1542 3 2 100 1 1467 1511 1512 1468
1543 3 2 100 1 1468 1512 1513 1469
1544 3 2 100 1 1469 1513 1514 1470
1545 3 2 100 1 1470 1514 1515 1471
1546 3 2 100 1 1471 1515 1516 1472
1547 3 2 100 1 1472 1516 1517 1473
1548 3 2 100 1 1473 1517 1518 1474
1549 3 2 100 1 1474 1518 1519 1475
1550 3 2 100 1 1475 1519 1520 1476
1551 3 2 100 1 1476 1520 1521 1477
1552 3 2 100 1 1477 1521 1522 1478
1553 3 2 100 1 1478 1522 1523 1479
1554 3 2 100 1 1479 1523 1524 1480
1555 3 2 100 1 1480 1524 1525 1481
1556 3 2 100 1 1481 1525 1526 1482
1557 3 2 100 1 1482 1526 1527 1483
1558 3 2 100 1 1483 1527 1528 1484
1559 3 2 100 1 1484 1528 1529 1485
1560 3 2 100 1 1485 1529 1530 1486
1561 3 2 100 1 1486 1530 1531 1487
1562 3 2 100 1 1487 1531 1532 1488
1563 3 2 100 1 1488 1532 1533 1489
1564 3 2 100 1 1489 1533 1534 1490
1565 3 2 100 1 1490 1534 1535 1491
1566 3 2 100 1 1491 1535 1536 1492
1567 3 2 100 1 1492 1536 1537 1493
1568 3 2 100 1 1493 1537 1538 1494
1569 3 2 100 1 1494 1538 1539 1495
1570 3 2 100 1 1495 1539 1540 1496
1571 3 2 100 1 1496 1540 1541 1497
1572 3 2 100 1 1497 1541 1542 1498
1573 3 2 100 1 1498 1542 1543 1499
1574 3 2 100 1 1499 1543 1544 1500
1575 3 2 100 1 1500 1544 106 107
1576 3 2 100 1 35 36 1545 1501
1577 3 2 100 1 1501 1545 1546 1502
1578 3 2 100 1 1502 1546 1547 1503
1579 3 2 100 1 1503 1547 1548 1504
1580 3 2 100 1 1504 1548 1549 1505
1581 3 2 100 1 1505 1549 1550 1506
1582 3 2 100 1 1506 1550 1551 1507
1583 3 2 100 1 1507 1551 1552 1508
1584 3 2 100 1 1508 1552 1553 1509
1585 3 2 100 1 1509 1553 1554 1510
1586 3 2 100 1 1510 1554 1555 1511
1587 3 2 100 1 1511 1555 1556 1512
1588 3 2 100 1 1512 1556 1557 1513
1589 3 2 100 1 1513 1557 1558 1514
1590 3 2 100 1 1514 1558 1559 1515
1591 3 2 100 1 1515 1559 1560 1516
1592 3 2 100 1 1516 1560 1561 1517
1593 3 2 100 1 1517 1561 1562 1518
1594 3 2 100 1 1518 1562 1563 1519
1595 3 2 100 1 1519 1563 1564 1520
1596 3 2 100 1 1520 1564 1565 1521
1597 3 2 100 1 1521 1565 1566 1522
1598 3 2 100 1 1522 1566 1567 1523
1599 3 2 100 1 1523 1567 1568 1524
1600 3 2 100 1 1524 1568 1569 1525
1601 3 2 100 1 1525 1569 1570 1526
1602 3 2 100 1 1526 1570 1571 1527
1603 3 2 100 1 1527 1571 1572 1528
1604 3 2 100 1 1528 1572 1573 1529
1605 3 2 100 1 1529 1573 1574 1530
1606 3 2 100 1 1530 1574 1575 1531
1607 3 2 100 1 1531 1575 1576 1532
1608 3 2 100 1 1532 1576 1577 1533
1609 3 2 100 1 1533 1577 1578 1534
1610 3 2 100 1 1534 1578 1579 1535
1611 3 2 100 1 1535 1579 1580 1536
1612 3 2 100 1 1536 1580 1581 1537
1613 3 2 100 1 1537 1581 1582 1538
1614 3 2 100 1 1538 1582 1583 1539
1615 3 2 100 1 1539 1583 1584 1540
1616 3 2 100 1 1540 1584 1585 1541
1617 3 2 100 1 1541 1585 1586 1542
1618 3 2 100 1 1542 1586 1587 1543
1619 3 2 100 1 1543 1587 1588 1544
1620 3 2 100 1 1544 1588 105 106
1621 3 2 100 1 36 37 1589 1545
1622 3 2 100 1 1545 1589 1590 1546
1623 3 2 100 1 1546 1590 1591 1547
1624 3 2 100 1 1547 1591 1592 1548
1625 3 2 100 1 1548 1592 1593 1549
1626 3 2 100 1 1549 1593 1594 1550
1627 3 2 100 1 1550 1594 1595 1551
1628 3 2 100 1 1551 1595 1596 1552
1629 3 2 100 1 1552 1596 1597 1553
1630 3 2 100 1 1553 1597 1598 1554
1631 3 2 100 1 1554 1598 1599 1555
1632 3 2 100 1 1555 1599 1600 1556
1633 3 2 100 1 1556 1600 1601 1557
1634 3 2 100 1 1557 1601 1602 1558
1635 3 2 100 1 1558 1602 1603 1559
1636 3 2 100 1 1559 1603 1604 1560
1637 3 2 100 1 1560 1604 1605 1561
1638 3 2 100 1 1561 1605 1606 1562
1639 3 2 100 1 1562 1606 1607 1563
1640 3 2 100 1 1563 1607 1608 1564
1641 3 2 100 1 1564 1608 1609 1565
1642 3 2 100 1 1565 1609 1610 1566
1643 3 2 100 1 1566 1610 1611 1567
1644 3 2 100 1 1567 1611 1612 1568
1645 3 2 100 1 1568 1612 1613 1569
1646 3 2 100 1 1569 1613 1614 1570
1647 3 2 100 1 1570 1614 1615 1571
1648 3 2 100 1 1571 1615 1616 1572
1649 3 2 100 1 1572 1616 1617 1573
1650 3 2 100 1 1573 1617 1618 1574
1651 3 2 100 1 1574 1618 1619 1575
1652 3 2 100 1 1575 1619 1620 1576
1653 3 2 100 1 1576 1620 1621 1577
1654 3 2 100 1 1577 1621 1622 1578
1655 3 2 100 1 1578 1622 1623 1579
1656 3 2 100 1 1579 1623 1624 1580
1657 3 2 100 1 1580 1624 1625 1581
1658 3 2 100 1 1581 1625 1626 1582
1659 3 2 100 1 1582 1626 1627 1583
1660 3 2 100 1 1583 1627 1628 1584
1661 3 2 100 1 1584 1628 1629 1585
1662 3 2 100 1 1585 1629 1630 1586
1663 3 2 100 1 1586 1630 1631 1587
1664 3 2 100 1 1587 1631 1632 1588
1665 3 2 100 1 1588 1632 104 105
1666 3 2 100 1 37 38 1633 1589
1667 3 2 100 1 1589 1633 1634 1590
1668 3 2 100 1 1590 1634 1635 1591
1669 3 2 100 1 1591 1635 1636 1592
1670 3 2 100 1 1592 1636 1637 1593
1671 3 2 100 1 1593 1637 1638 1594
1672 3 2 100 1 1594 1638 1639 1595
1673 3 2 100 1 1595 1639 1640 1596
1674 3 2 100 1 1596 1640 1641 1597
1675 3 2 100 1 1597 1641 1642 1598
1676 3 2 100 1 1598 1642 1643 1599
1677 3 2 100 1 1599 1643 1644 1600
1678 3 2 100 1 1600 1644 1645 1601
1679 3 2 100 1 1601 1645 1646 1602
1680 3 2 100 1 1602 1646 1647 1603
1681 3 2 100 1 1603 1647 1648 1604
1682 3 2 100 1 1604 1648 1649 1605
1683 3 2 100 1 1605 1649 1650 1606
1684 3 2 100 1 1606 1650 1651 1607
1685 3 2 100 1 1607 1651 1652 1608
1686 3 2 100 1 1608 1652 1653 1609
1687 3 2 100 1 1609 1653 1654 1610
1688 3 2 100 1 1610 1654 1655 1611
1689 3 2 100 1 1611 1655 1656 1612
1690 3 2 100 1 1612 1656 1657 1613
1691 3 2 100 1 1613 1657 1658 1614
1692 3 2 100 1 1614 1658 1659 1615
1693 3 2 100 1 1615 1659 1660 1616
1694 3 2 100 1 1616 1660 1661 1617
1695 3 2 100 1 1617 1661 1662 1618
1696 3 2 100 1 1618 1662 1663 1619
1697 3 2 100 1 1619 1663 1664 1620
1698 3 2 100 1 1620 1664 1665 1621
1699 3 2 100 1 1621 1665 1666 1622
1700 3 2 100 1 1622 1666 1667 1623
1701 3 2 100 1 1623 1667 1668 1624
1702 3 2 100 1 1624 1668 1669 1625
1703 3 2 100 1 1625 1669 1670 1626
1704 3 2 100 1 1626 1670 1671 1627
1705 3 2 100 1 1627 1671 1672 1628
1706 3 2 100 1 1628 1672 1673 1629
1707 3 2 100 1 1629 1673 1674 1630
1708 3 2 100 1 1630 1674 1675 1631
1709 3 2 100 1 1631 1675 1676 1632
1710 3 2 100 1 1632 1676 103 104
1711 3 2 100 1 38 39 1677 1633
1712 3 2 100 1 1633 1677 1678 1634
1713 3 2 100 1 1634 1678 1679 1635
1714 3 2 100 1 1635 1679 1680 1636
1715 3 2 100 1 1636 1680 1681 1637
1716 3 2 100 1 1637 1681 1682 1638
1717 3 2 100 1 1638 1682 1683 1639
1718 3 2 100 1 1639 1683 1684 1640
1719 3 2 100 1 1640 1684 1685 1641
1720 3 2 100 1 1641 1685 1686 1642
1721 3 2 100 1 1642 1686 1687 1643
1722 3 2 100 1 1643 1687 1688 1644
1723 3 2 100 1 1644 1688 1689 1645
1724 3 2 100 1 1645 1689 1690 1646
1725 3 2 100 1 1646 1690 1691 1647
1726 3 2 100 1 1647 1691 1692 1648
1727 3 2 100 1 1648 1692 1693 1649
1728 3 2 100 1 1649 1693 1694 1650
1729 3 2 100 1 1650 1694 1695 1651
1730 3 2 100 1 1651 1695 1696 1652
1731 3 2 100 1 1652 1696 1697 1653
1732 3 2 100 1 1653 1697 1698 1654
1733 3 2 100 1 1654 1698 1699 1655
1734 3 2 100 1 1655 1699 1700 1656
1735 3 2 100 1 1656 1700 1701 1657
1736 3 2 100 1 1657 1701 1702 1658
1737 3 2 100 1 1658 1702 1703 1659
1738 3 2 100 1 1659 1703 1704 1660
1739 3 2 100 1 1660 1704 1705 1661
1740 3 2 100 1 1661 1705 1706 1662
1741 3 2 100 1 1662 1706 1707 1663
1742 3 2 100 1 1663 1707 1708 1664
1743 3 2 100 1 1664 1708 1709 1665
1744 3 2 100 1 1665 1709 1710 1666
1745 3 2 100 1 1666 1710 1711 1667
1746 3 2 100 1 1667 1711 1712 1668
1747 3 2 100 1 1668 1712 1713 1669
1748 3 2 100 1 1669 1713 1714 1670
1749 3 2 100 1 1670 1714 1715 1671
1750 3 2 100 1 1671 1715 1716 1672
1751 3 2 100 1 1672 1716 1717 1673
1752 3 2 100 1 1673 1717 1718 1674
1753 3 2 100 1 1674 1718 1719 1675
1754 3 2 100 1 1675 1719 1720 1676
1755 3 2 100 1 1676 1720 102 103
1756 3 2 100 1 39 40 1721 1677
1757 3 2 100 1 1677 1721 1722 1678
1758 3 2 100 1 1678 1722 1723 1679
1759 3 2 100 1 1679 1723 1724 1680
1760 3 2 100 1 1680 1724 1725 1681
1761 3 2 100 1 1681 1725 1726 1682
1762 3 2 100 1 1682 1726 1727 1683
1763 3 2 100 1 1683 1727 1728 1684
1764 3 2 100 1 1684 1728 1729 1685
1765 3 2 100 1 1685 1729 1730 1686
1766 3 2 100 1 1686 1730 1731 1687
1767 3 2 100 1 1687 1731 1732 1688
1768 3 2 100 1 1688 1732 1733 1689
1769 3 2 100 1 1689 1733 1734 1690
1770 3 2 100 1 1690 1734 1735 1691
1771 3 2 100 1 1691 1735 1736 1692
1772 3 2 100 1 1692 1736 1737 1693
1773 3 2 100 1 1693 1737 1738 1694
1774 3 2 100 1 1694 1738 1739 1695
1775 3 2 100 1 1695 1739 1740 1696
1776 3 2 100 1 1696 1740 1741 1697
1777 3 2 100 1 1697 1741 1742 1698
1778 3 2 100 1 1698 1742 1743 1699
1779 3 2 100 1 1699 1743 1744 1700
1780 3 2 100 1 1700 1744 1745 1701
1781 3 2 100 1 1701 1745 1746 1702
1782 3 2 100 1 1702 1746 1747 1703
1783 3 2 100 1 1703 1747 1748 1704
1784 3 2 100 1 1704 1748 1749 1705
1785 3 2 100 1 1705 1749 1750 1706
1786 3 2 100 1 1706 1750 1751 1707
1787 3 2 100 1 1707 1751 1752 1708
1788 3 2 100 1 1708 1752 1753 1709
1789 3 2 100 1 1709 1753 1754 1710
1790 3 2 100 1 1710 1754 1755 1711
1791 3 2 100 1 1711 1755 1756 1712
1792 3 2 100 1 1712 1756 1757 1713
1793 3 2 100 1 1713 1757 1758 1714
1794 3 2 100 1 1714 1758 1759 1715
1795 3 2 100 1 1715 1759 1760 1716
1796 3 2 100 1 1716 1760 1761 1717
1797 3 2 100 1 1717 1761 1762 1718
1798 3 2 100 1 1718 1762 1763 1719
1799 3 2 100 1 1719 1763 1764 1720
1800 3 2 100 1 1720 1764 101 102
1801 3 2 100 1 40 41 1765 1721
1802 3 2 100 1 1721 1765 1766 1722
1803 3 2 100 1 1722 1766 1767 1723
1804 3 2 100 1 1723 1767 1768 1724
1805 3 2 100 1 1724 1768 1769 1725
1806 3 2 100 1 1725 1769 1770 1726
1807 3 2 100 1 1726 1770 1771 1727
1808 3 2 100 1 1727 1771 1772 1728
1809 3 2 100 1 1728 1772 1773 1729
1810 3 2 100 1 1729 1773 1774 1730
1811 3 2 100 1 1730 1774 1775 1731
1812 3 2 100 1 1731 1775 1776 1732
1813 3 2 100 1 1732 1776 1777 1733
1814 3 2 100 1 1733 1777 1778 1734
1815 3 2 100 1 1734 1778 1779 1735
1816 3 2 100 1 1735 1779 1780 1736
1817 3 2 100 1 1736 1780 1781 1737
1818 3 2 100 1 1737 1781 1782 1738
1819 3 2 100 1 1738 1782 1783 1739
1820 3 2 100 1 1739 1783 1784 1740
1821 3 2 100 1 1740 1784 1785 1741
1822 3 2 100 1 1741 1785 1786 1742
1823 3 2 100 1 1742 1786 1787 1743
1824 3 2 100 1 1743 1787 1788 1744
1825 3 2 100 1 1744 1788 1789 1745
1826 3 2 100 1 1745 1789 1790 1746
1827 3 2 100 1 1746 1790 1791 1747
1828 3 2 100 1 1747 1791 1792 1748
1829 3 2 100 1 1748 1792 1793 1749
1830 3 2 100 1 1749 1793 1794 1750
1831 3 2 100 1 1750 1794 1795 1751
1832 3 2 100 1 1751 1795 1796 1752
1833 3 2 100 1 1752 1796 1797 1753
1834 3 2 100 1 1753 1797 1798 1754
1835 3 2 100 1 1754 1798 1799 1755
1836 3 2 100 1 1755 1799 1800 1756
1837 3 2 100 1 1756 1800 1801 1757
1838 3 2 100 1 1757 1801 1802 1758
1839 3 2 100 1 1758 1802 1803 1759
1840 3 2 100 1 1759 1803 1804 1760
1841 3 2 100 1 1760 1804 1805 1761
1842 3 2 100 1 1761 1805 1806 1762
1843 3 2 100 1 1762 1806 1807 1763
1844 3 2 100 1 1763 1807 1808 1764
1845 3 2 100 1 1764 1808 100 101
1846 3 2 100 1 41 42 1809 1765
1847 3 2 100 1 1765 1809 1810 1766
1848 3 2 100 1 1766 1810 1811 1767
1849 3 2 100 1 1767 1811 1812 1768
1850 3 2 100 1 1768 1812 1813 1769
1851 3 2 100 1 1769 1813 1814 1770
1852 3 2 100 1 1770 1814 1815 1771
1853 3 2 100 1 1771 1815 1816 1772
1854 3 2 100 1 1772 1816 1817 1773
1855 3 2 100 1 1773 1817 1818 1774
1856 3 2 100 1 1774 1818 1819 1775
1857 3 2 100 1 1775 1819 1820 1776
1858 3 2 100 1 1776 1820 1821 1777
1859 3 2 100 1 1777 1821 1822 1778
1860 3 2 100 1 1778 1822 1823 1779
1861 3 2 100 1 1779 1823 1824 1780
1862 3 2 100 1 1780 1824 1825 1781
1863 3 2 100 1 1781 1825 1826 1782
1864 3 2 100 1 1782 1826 1827 1783
1865 3 2 100 1 1783 1827 1828 1784
1866 3 2 100 1 1784 1828 1829 1785
1867 3 2 100 1 1785 1829 1830 1786
1868 3 2 100 1 1786 1830 1831 1787
1869 3 2 100 1 1787 1831 1832 1788
1870 3 2 100 1 1788 1832 1833 1789
1871 3 2 100 1 1789 1833 1834 1790
1872 3 2 100 1 1790 1834 1835 1791
1873 3 2 100 1 1791 1835 1836 1792
1874 3 2 100 1 1792 1836 1837 1793
1875 3 2 100 1 1793 1837 1838 1794
1876 3 2 100 1 1794 1838 1839 1795
1877 3 2 100 1 1795 1839 1840 1796
1878 3 2 100 1 1796 1840 1841 1797
1879 3 2 100 1 1797 1841 1842 1798
1880 3 2 100 1 1798 1842 1843 1799
1881 3 2 100 1 1799 1843 1844 1800
1882 3 2 100 1 1800 1844 1845 1801
1883 3 2 100 1 1801 1845 1846 1802
1884 3 2 100 1 1802 1846 1847 1803
1885 3 2 100 1 1803 1847 1848 1804
1886 3 2 100 1 1804 1848 1849 1805
1887 3 2 100 1 1805 1849 1850 1806
1888 3 2 100 1 1806 1850 1851 1807
1889 3 2 100 1 1807 1851 1852 1808
1890 3 2 100 1 1808 1852 99 100
1891 3 2 100 1 42 43 1853 1809
1892 3 2 100 1 1809 1853 1854 1810
1893 3 2 100 1 1810 1854 1855 1811
1894 3 2 100 1 1811 1855 1856 1812
1895 3 2 100 1 1812 1856 1857 1813
1896 3 2 100 1 1813 1857 1858 1814
1897 3 2 100 1 1814 1858 1859 1815
1898 3 2 100 1 1815 1859 1860 1816
1899 3 2 100 1 1816 1860 1861 1817
1900 3 2 100 1 1817 1861 1862 1818
1901 3 2 100 1 1818 1862 1863 1819
1902 3 2 100 1 1819 1863 1864 1820
1903 3 2 100 1 1820 1864 1865 1821
1904 3 2 100 1 1821 1865 1866 1822
1905 3 2 100 1 1822 1866 1867 1823
1906 3 2 100 1 1823 1867 1868 1824
1907 3 2 100 1 1824 1868 1869 1825
1908 3 2 100 1 1825 1869 1870 1826
1909 3 2 100 1 1826 1870 1871 1827
1910 3 2 100 1 1827 1871 1872 1828
1911 3 2 100 1 1828 1872 1873 1829
1912 3 2 100 1 1829 1873 1874 1830
1913 3 2 100 1 1830 1874 1875 1831
1914 3 2 100 1 1831 1875 1876 1832
1915 3 2 100 1 1832 1876 1877 1833
1916 3 2 100 1 1833 1877 1878 1834
1917 3 2 100 1 1834 1878 1879 1835
1918 3 2 100 1 1835 1879 1880 1836
1919 3 2 100 1 1836 1880 1881 1837
1920 3 2 100 1 1837 1881 1882 1838
1921 3 2 100 1 1838 1882 1883 1839
1922 3 2 100 1 1839 1883 1884 1840
1923 3 2 100 1 1840 1884 1885 1841
1924 3 2 100 1 1841 1885 1886 1842
1925 3 2 100 1 1842 1886 1887 1843
1926 3 2 100 1 1843 1887 1888 1844
1927 3 2 100 1 1844 1888 1889 1845
1928 3 2 100 1 1845 1889 1890 1846
1929 3 2 100 1 1846 1890 1891 1847
1930 3 2 100 1 1847 1891 1892 1848
1931 3 2 100 1 1848 1892 1893 1849
1932 3 2 100 1 1849 1893 1894 1850
1933 3 2 100 1 1850 1894 1895 1851
1934 3 2 100 1 1851 1895 1896 1852
1935 3 2 100 1 1852 1896 98 99
1936 3 2 100 1 43 44 1897 1853
1937 3 2 100 1 1853 1897 1898 1854
1938 3 2 100 1 1854 1898 1899 1855
1939 3 2 100 1 1855 1899 1900 1856
1940 3 2 100 1 1856 1900 1901 1857
1941 3 2 100 1 1857 1901 1902 1858
1942 3 2 100 1 1858 1902 1903 1859
1943 3 2 100 1 1859 1903 1904 1860
1944 3 2 100 1 1860 1904 1905 1861
1945 3 2 100 1 1861 1905 1906 1862
1946 3 2 100 1 1862 1906 1907 1863
1947 3 2 100 1 1863 1907 1908 1864
1948 3 2 100 1 1864 1908 1909 1865
1949 3 2 100 1 1865 1909 1910 1866
1950 3 2 100 1 1866 1910 1911 1867
1951 3 2 100 1 1867 1911 1912 1868
1952 3 2 100 1 1868 1912 1913 1869
1953 3 2 100 1 1869 1913 1914 1870
1954 3 2 100 1 1870 1914 1915 1871
1955 3 2 100 1 1871 1915 1916 1872
1956 3 2 100 1 1872 1916 1917 1873
1957 3 2 100 1 1873 1917 1918 1874
1958 3 2 100 1 1874 1918 1919 1875
1959 3 2 100 1 1875 1919 1920 1876
1960 3 2 100 1 1876 1920 1921 1877
1961 3 2 100 1 1877 1921 1922 1878
1962 3 2 100 1 1878 1922 1923 1879
1963 3 2 100 1 1879 1923 1924 1880
1964 3 2 100 1 1880 1924 1925 1881
1965 3 2 100 1 1881 1925 1926 1882
1966 3 2 100 1 1882 1926 1927 1883
1967 3 2 100 1 1883 1927 1928 1884
1968 3 2 100 1 1884 1928 1929 1885
1969 3 2 100 1 1885 1929 1930 1886
1970 3 2 100 1 1886 1930 1931 1887
1971 3 2 100 1 1887 1931 1932 1888
1972 3 2 100 1 1888 1932 1933 1889
1973 3 2 100 1 1889 1933 1934 1890
1974 3 2 100 1 1890 1934 1935 1891
1975 3 2 100 1 1891 1935 1936 1892
1976 3 2 100 1 1892 1936 1937 1893
1977 3 2 100 1 1893 1937 1938 1894
1978 3 2 100 1 1894 1938 1939 1895
1979 3 2 100 1 1895 1939 1940 1896
1980 3 2 100 1 1896 1940 97 98
1981 3 2 100 1 44 45 1941 1897
1982 3 2 100 1 1897 1941 1942 1898
1983 3 2 100 1 1898 1942 1943 1899
1984 3 2 100 1 1899 1943 1944 1900
1985 3 2 100 1 1900 1944 1945 1901
1986 3 2 100 1 1901 1945 1946 1902
1987 3 2 100 1 1902 1946 1947 1903
1988 3 2 100 1 1903 1947 1948 1904
1989 3 2 100 1 1904 1948 1949 1905
1990 3 2 100 1 1905 1949 1950 1906
1991 3 2 100 1 1906 1950 1951 1907
1992 3 2 100 1 1907 1951 1952 1908
1993 3 2 100 1 1908 1952 1953 1909
1994 3 2 100 1 1909 1953 1954 1910
1995 3 2 100 1 1910 1954 1955 1911
1996 3 2 100 1 1911 1955 1956 1912
1997 3 2 100 1 1912 1956 1957 1913
1998 3 2 100 1 1913 1957 1958 1914
1999 3 2 100 1 1914 1958 1959 1915
2000 3 2 100 1 1915 1959 1960 1916
2001 3 2 100 1 1916 1960 1961 1917
2002 3 2 100 1 1917 1961 1962 1918
2003 3 2 100 1 1918 1962 1963 1919
2004 3 2 100 1 1919 1963 1964 1920
2005 3 2 100 1 1920 1964 1965 1921
2006 3 2 100 1 1921 1965 1966 1922
2007 3 2 100 1 1922 1966 1967 1923
2008 3 2 100 1 1923 1967 1968 1924
2009 3 2 100 1 1924 1968 1969 1925
2010 3 2 100 1 1925 1969 1970 1926
2011 3 2 100 1 1926 1970 1971 1927
2012 3 2 100 1 1927 1971 1972 1928
2013 3 2 100 1 1928 1972 1973 1929
2014 3 2 100 1 1929 1973 1974 1930
2015 3 2 100 1 1930 1974 1975 1931
2016 3 2 100 1 1931 1975 1976 1932
2017 3 2 100 1 1932 1976 1977 1933
2018 3 2 100 1 1933 1977 1978 1934
2019 3 2 100 1 1934 1978 1979 1935
2020 3 2 100 1 1935 1979 1980 1936
2021 3 2 100 1 1936 1980 1981 1937
2022 3 2 100 1 1937 1981 1982 1938
2023 3 2 100 1 1938 1982 1983 1939
2024 3 2 100 1 1939 1983 1984 1940
2025 3 2 100 1 1940 1984 96 97
2026 3 2 100 1 45 46 1985 1941
2027 3 2 100 1 1941 1985 1986 1942
2028 3 2 100 1 1942 1986 1987 1943
2029 3 2 100 1 1943 1987 1988 1944
2030 3 2 100 1 1944 1988 1989 1945
2031 3 2 100 1 1945 1989 1990 1946
2032 3 2 100 1 1946 1990 1991 1947
2033 3 2 100 1 1947 1991 1992 1948
2034 3 2 100 1 1948 1992 1993 1949
2035 3 2 100 1 1949 1993 1994 1950
2036 3 2 100 1 1950 1994 1995 1951
2037 3 2 100 1 1951 1995 1996 1952
2038 3 2 100 1 1952 1996 1997 1953
2039 3 2 100 1 1953 1997 1998 1954
2040 3 2 100 1 1954 1998 1999 1955
2041 3 2 100 1 1955 1999 2000 1956
2042 3 2 100 1 1956 2000 2001 1957
2043 3 2 100 1 1957 2001 2002 1958
2044 3 2 100 1 1958 2002 2003 1959
2045 3 2 100 1 1959 2003 2004 1960
2046 3 2 100 1 1960 2004 2005 1961
2047 3 2 100 1 1961 2005 2006 1962
2048 3 2 100 1 1962 2006 2007 1963
2049 3 2 100 1 1963 2007 2008 1964
2050 3 2 100 1 1964 2008 2009 1965
2051 3 2 100 1 1965 2009 2010 1966
2052 3 2 100 1 1966 2010 2011 1967
2053 3 2 100 1 1967 2011 2012 1968
2054 3 2 100 1 1968 2012 2013 1969
2055 3 2 100 1 1969 2013 2014 1970
2056 3 2 100 1 1970 2014 2015 1971
2057 3 2 100 1 1971 2015 2016 1972
2058 3 2 100 1 1972 2016 2017 1973
2059 3 2 100 1 1973 2017 2018 1974
2060 3 2 100 1 1974 2018 2019 1975
2061 3 2 100 1 1975 2019 2020 1976
2062 3 2 100 1 1976 2020 2021 1977
2063 3 2 100 1 1977 2021 2022 1978
2064 3 2 100 1 1978 2022 2023 1979
2065 3 2 100 1 1979 2023 2024 1980
2066 3 2 100 1 1980 2024 2025 1981
2067 3 2 100 1 1981 2025 2026 1982
2068 3 2 100 1 1982 2026 2027 1983
2069 3 2 100 1 1983 2027 2028 1984
2070 3 2 100 1 1984 2028 95 96
2071 3 2 100 1 46 47 2029 1985
2072 3 2 100 1 1985 2029 2030 1986
2073 3 2 100 1 1986 2030 2031 1987
2074 3 2 100 1 1987 2031 2032 1988
2075 3 2 100 1 1988 2032 2033 1989
2076 3 2 100 1 1989 2033 2034 1990
2077 3 2 100 1 1990 2034 2035 1991
2078 3 2 100 1 1991 2035 2036 1992
2079 3 2 100 1 1992 2036 2037 1993
2080 3 2 100 1 1993 2037 2038 1994
2081 3 2 100 1 1994 2038 2039 1995
2082 3 2 100 1 1995 2039 2040 1996
2083 3 2 100 1 1996 2040 2041 1997
2084 3 2 100 1 1997 2041 2042 1998
2085 3 2 100 1 1998 2042 2043 1999
2086 3 2 100 1 1999 2043 2044 2000
2087 3 2 100 1 2000 2044 2045 2001
2088 3 2 100 1 2001 2045 2046 2002
2089 3 2 100 1 2002 2046 2047 2003
2090 3 2 100 1 2003 2047 2048 2004
2091 3 2 100 1 2004 2048 2049 2005
2092 3 2 100 1 2005 2049 2050 2006
2093 3 2 100 1 2006 2050 2051 2007
2094 3 2 100 1 2007 2051 2052 2008
2095 3 2 100 1 2008 2052 2053 2009
2096 3 2 100 1 2009 2053 2054 2010
2097 3 2 100 1 2010 2054 2055 2011
2098 3 2 100 1 2011 2055 2056 2012
2099 3 2 100 1 2012 2056 2057 2013
2100 3 2 100 1 2013 2057 2058 2014
2101 3 2 100 1 2014 2058 2059 2015
2102 3 2 100 1 2015 2059 2060 2016
2103 3 2 100 1 2016 2060 2061 2017
2104 3 2 100 1 2017 2061 2062 2018
2105 3 2 100 1 2018 2062 2063 2019
2106 3 2 100 1 2019 2063 2064 2020
2107 3 2 100 1 2020 2064 2065 2021
2108 3 2 100 1 2021 2065 2066 2022
2109 3 2 100 1 2022 2066 2067 2023
2110 3 2 100 1 2023 2067 2068 2024
2111 3 2 100 1 2024 2068 2069 2025
2112 3 2 100 1 2025 2069 2070 2026
2113 3 2 100 1 2026 2070 2071 2027
2114 3 2 100 1 2027 2071 2072 2028
2115 3 2 100 1 2028 2072 94 95
2116 3 2 100 1 47 48 2073 2029
2117 3 2 100 1 2029 2073 2074 2030
2118 3 2 100 1 2030 2074 2075 2031
2119 3 2 100 1 2031 2075 2076 2032
2120 3 2 100 1 2032 2076 2077 2033
2121 3 2 100 1 2033 2077 2078 2034
2122 3 2 100 1 2034 2078 2079 2035
2123 3 2 100 1 2035 2079 2080 2036
2124 3 2 100 1 2036 2080 2081 2037
2125 3 2 100 1 2037 2081 2082 2038
2126 3 2 100 1 2038 2082 2083 2039
2127 3 2 100 1 2039 2083 2084 2040
2128 3 2 100 1 2040 2084 2085 2041
2129 3 2 100 1 2041 2085 2086 2042
2130 3 2 100 1 2042 2086 2087 2043
2131 3 2 100 1 2043 2087 2088 2044
2132 3 2 100 1 2044 2088 2089 2045
2133 3 2 100 1 2045 2089 2090 2046
2134 3 2 100 1 2046 2090 2091 2047
2135 3 2 100 1 2047 2091 2092 2048
2136 3 2 100 1 2048 2092 2093 2049
2137 3 2 100 1 2049 2093 2094 2050
2138 3 2 100 1 2050 2094 2095 2051
2139 3 2 100 1 2051 2095 2096 2052
2140 3 2 100 1 2052 2096 2097 2053
2141 3 2 100 1 2053 2097 2098 2054
2142 3 2 100 1 2054 2098 2099 2055
2143 3 2 100 1 2055 2099 2100 2056
2144 3 2 100 1 2056 2100 2101 2057
2145 3 2 100 1 2057 2101 2102 2058
2146 3 2 100 1 2058 2102 2103 2059
2147 3 2 100 1 2059 2103 2104 2060
2148 3 2 100 1 2060 2104 2105 2061
2149 3 2 100 1 2061 2105 2106 2062
2150 3 2 100 1 2062 2106 2107 2063
2151 3 2 100 1 2063 2107 2108 2064
2152 3 2 100 1 2064 2108 2109 2065
2153 3 2 100 1 2065 2109 2110 2066
2154 3 2 100 1 2066 2110 2111 2067
2155 3 2 100 1 2067 2111 2112 2068
2156 3 2 100 1 2068 2112 2113 2069
2157 3 2 100 1 2069 2113 2114 2070
2158 3 2 100 1 2070 2114 2115 2071
2159 3 2 100 1 2071 2115 2116 2072
2160 3 2 100 1 2072 2116 93 94
2161 3 2 100 1 48 4 49 2073
2162 3 2 100 1 2073 49 50 2074
2163 3 2 100 1 2074 50 51 2075
2164 3 2 100 1 2075 51 52 2076
2165 3 2 100 1 2076 52 53 2077
2166 3 2 100 1 2077 53 54 2078
2167 3 2 100 1 2078 54 55 2079
2168 3 2 100 1 2079 55 56 2080
2169 3 2 100 1 2080 56 57 2081
2170 3 2 100 1 2081 57 58 2082
2171 3 2 100 1 2082 58 59 2083
2172 3 2 100 1 2083 59 60 2084
2173 3 2 100 1 2084 60 61 2085
2174 3 2 100 1 2085 61 62 2086
2175 3 2 100 1 2086 62 63 2087
2176 3 2 100 1 2087 63 64 2088
2177 3 2 100 1 2088 64 65 2089
2178 3 2 100 1 2089 65 66 2090
2179 3 2 100 1 2090 66 67 2091
2180 3 2 100 1 2091 67 68 2092
2181 3 2 100 1 2092 68 69 2093
2182 3 2 100 1 2093 69 70 2094
2183 3 2 100 1 2094 70 71 2095
2184 3 2 100 1 2095 71 72 2096
2185 3 2 100 1 2096 72 73 2097
2186 3 2 100 1 2097 73 74 2098
2187 3 2 100 1 2098 74 75 2099
2188 3 2 100 1 2099 75 76 2100
2189 3 2 100 1 2100 76 77 2101
2190 3 2 100 1 2101 77 78 2102
2191 3 2 100 1 2102 78 79 2103
2192 3 2 100 1 2103 79 80 2104
2193 3 2 100 1 2104 80 81 2105
2194 3 2 100 1 2105 81 82 2106
2195 3 2 100 1 2106 82 83 2107
2196 3 2 100 1 2107 83 84 2108
2197 3 2 100 1 2108 84 85 2109
2198 3 2 100 1 2109 85 86 2110
2199 3 2 100 1 2110 86 87 2111
2200 3 2 100 1 2111 87 88 2112
2201 3 2 100 1 2112 88 89 2113
2202 3 2 100 1 2113 89 90 2114
2203 3 2 100 1 2114 90 91 2115
2204 3 2 100 1 2115 91 92 2116
2205 3 2 100 1 2116 92 3 93
