49
1 0 0 0
2 0 1 0
3 1 1 0
4 1 0 0
5 0.1666666666663209 0 0
6 0.333333333332501 0 0
7 0.499999999998692 0 0
8 0.6666666666657874 0 0
9 0.8333333333328937 0 0
10 1 0.1666666666663209 0
11 1 0.333333333332501 0
12 1 0.499999999998692 0
13 1 0.6666666666657874 0
14 1 0.8333333333328937 0
15 0.833333333333102 1 0
16 0.6666666666675918 1 0
17 0.5000000000020595 1 0
18 0.3333333333347207 1 0
19 0.1666666666673604 1 0
20 0 0.833333333333102 0
21 0 0.6666666666675918 0
22 0 0.5000000000020595 0
23 0 0.3333333333347207 0
24 0 0.1666666666673604 0
25 0.1666666666664433 0.1666666666670906 0
26 0.1666666666665812 0.3333333333341212 0
27 0.1666666666667203 0.5000000000009615 0
28 0.1666666666668808 0.6666666666672375 0
29 0.1666666666670906 0.8333333333334436 0
30 0.333333333332871 0.1666666666668807 0
31 0.3333333333331613 0.3333333333337122 0
32 0.3333333333334192 0.5000000000004274 0
33 0.3333333333337122 0.6666666666669531 0
34 0.3333333333341212 0.8333333333334346 0
35 0.4999999999993786 0.1666666666667203 0
36 0.4999999999997737 0.3333333333334192 0
37 0.5000000000000833 0.5000000000000833 0
38 0.5000000000004274 0.6666666666667125 0
39 0.5000000000009615 0.8333333333333423 0
40 0.6666666666661777 0.1666666666665812 0
41 0.6666666666664715 0.3333333333331613 0
42 0.6666666666667126 0.4999999999997737 0
43 0.6666666666669532 0.6666666666664715 0
44 0.6666666666672375 0.8333333333332218 0
45 0.8333333333330732 0.1666666666664433 0
46 0.8333333333332217 0.333333333332871 0
47 0.8333333333333424 0.4999999999993786 0
48 0.8333333333334348 0.6666666666661777 0
49 0.8333333333334436 0.8333333333330732 0
