900
1 0 0 0
2 0 1 0
3 1 1 0
4 1 0 0
5 0.03448275862062319 0 0
6 0.06896551724124121 0 0
7 0.1034482758618778 0 0
8 0.1379310344824967 0 0
9 0.1724137931030857 0 0
10 0.2068965517236747 0 0
11 0.2413793103442637 0 0
12 0.2758620689648527 0 0
13 0.3103448275854417 0 0
14 0.3448275862060307 0 0
15 0.3793103448266197 0 0
16 0.4137931034472087 0 0
17 0.4482758620677977 0 0
18 0.4827586206883868 0 0
19 0.5172413793090714 0 0
20 0.5517241379298521 0 0
21 0.5862068965506327 0 0
22 0.6206896551714133 0 0
23 0.6551724137921939 0 0
24 0.6896551724129745 0 0
25 0.7241379310337551 0 0
26 0.7586206896545358 0 0
27 0.7931034482753163 0 0
28 0.827586206896097 0 0
29 0.8620689655168776 0 0
30 0.8965517241376582 0 0
31 0.9310344827584388 0 0
32 0.9655172413792195 0 0
33 1 0.03448275862062319 0
34 1 0.06896551724124121 0
35 1 0.1034482758618778 0
36 1 0.1379310344824967 0
37 1 0.1724137931030857 0
38 1 0.2068965517236747 0
39 1 0.2413793103442637 0
40 1 0.2758620689648527 0
41 1 0.3103448275854417 0
42 1 0.3448275862060307 0
43 1 0.3793103448266197 0
44 1 0.4137931034472087 0
45 1 0.4482758620677977 0
46 1 0.4827586206883868 0
47 1 0.5172413793090714 0
48 1 0.5517241379298521 0
49 1 0.5862068965506327 0
50 1 0.6206896551714133 0
51 1 0.6551724137921939 0
52 1 0.6896551724129745 0
53 1 0.7241379310337551 0
54 1 0.7586206896545358 0
55 1 0.7931034482753163 0
56 1 0.827586206896097 0
57 1 0.8620689655168776 0
58 1 0.8965517241376582 0
59 1 0.9310344827584388 0
60 1 0.9655172413792195 0
61 0.9655172413791667 1 0
62 0.9310344827583336 1 0
63 0.8965517241375003 1 0
64 0.8620689655168107 1 0
65 0.8275862068963603 1 0
66 0.79310344827591 1 0
67 0.7586206896554596 1 0
68 0.7241379310350091 1 0
69 0.6896551724145588 1 0
70 0.6551724137941082 1 0
71 0.6206896551736578 1 0
72 0.5862068965532072 1 0
73 0.5517241379327569 1 0
74 0.5172413793123064 1 0
75 0.4827586206916645 1 0
76 0.4482758620708314 1 0
77 0.4137931034499982 1 0
78 0.379310344829165 1 0
79 0.3448275862083318 1 0
80 0.3103448275874986 1 0
81 0.2758620689666655 1 0
82 0.2413793103458324 1 0
83 0.2068965517249991 1 0
84 0.1724137931041659 1 0
85 0.1379310344833328 1 0
86 0.1034482758624996 1 0
87 0.06896551724166633 1 0
88 0.03448275862083328 1 0
89 0 0.9655172413791667 0
90 0 0.9310344827583336 0
91 0 0.8965517241375003 0
92 0 0.8620689655168107 0
93 0 0.8275862068963603 0
94 0 0.79310344827591 0
95 0 0.7586206896554596 0
96 0 0.7241379310350091 0
97 0 0.6896551724145588 0
98 0 0.6551724137941082 0
99 0 0.6206896551736578 0
100 0 0.5862068965532072 0
101 0 0.5517241379327569 0
102 0 0.5172413793123064 0
103 0 0.4827586206916645 0
104 0 0.4482758620708314 0
105 0 0.4137931034499982 0
106 0 0.379310344829165 0
107 0 0.3448275862083318 0
108 0 0.3103448275874986 0
109 0 0.2758620689666655 0
110 0 0.2413793103458324 0
111 0 0.2068965517249991 0
112 0 0.1724137931041659 0
113 0 0.1379310344833328 0
114 0 0.1034482758624996 0
115 0 0.06896551724166633 0
116 0 0.03448275862083328 0
117 0.03448275862062655 0.03448275862082255 0
118 0.03448275862063078 0.06896551724164486 0
119 0.03448275862063561 0.1034482758624669 0
120 0.03448275862064101 0.1379310344832884 0
121 0.03448275862064683 0.1724137931041092 0
122 0.03448275862065296 0.206896551724929 0
123 0.03448275862065928 0.2413793103457474 0
124 0.03448275862066565 0.2758620689665641 0
125 0.03448275862067206 0.3103448275873782 0
126 0.03448275862067848 0.3448275862081888 0
127 0.03448275862068488 0.379310344828994 0
128 0.03448275862069129 0.4137931034497898 0
129 0.03448275862069772 0.4482758620705686 0
130 0.0344827586207042 0.4827586206913102 0
131 0.03448275862071076 0.517241379311957 0
132 0.03448275862071747 0.5517241379325092 0
133 0.03448275862072434 0.5862068965530247 0
134 0.03448275862073145 0.6206896551735243 0
135 0.03448275862073884 0.655172413794016 0
136 0.03448275862074656 0.6896551724145044 0
137 0.03448275862075465 0.7241379310349928 0
138 0.03448275862076313 0.7586206896554838 0
139 0.03448275862077205 0.7931034482759826 0
140 0.03448275862078139 0.8275862068964979 0
141 0.03448275862079114 0.8620689655170519 0
142 0.03448275862080128 0.8965517241377102 0
143 0.03448275862081173 0.9310344827584498 0
144 0.03448275862082241 0.9655172413792196 0
145 0.06896551724125217 0.03448275862081195 0
146 0.0689655172412609 0.06896551724162353 0
147 0.0689655172412706 0.1034482758624345 0
148 0.06896551724128148 0.1379310344832445 0
149 0.06896551724129327 0.172413793104053 0
150 0.06896551724130563 0.2068965517248597 0
151 0.06896551724131829 0.2413793103456639 0
152 0.06896551724133107 0.2758620689664648 0
153 0.06896551724134389 0.3103448275872611 0
154 0.06896551724135669 0.344827586208051 0
155 0.06896551724136948 0.3793103448288317 0
156 0.06896551724138224 0.4137931034495984 0
157 0.06896551724139505 0.4482758620703426 0
158 0.06896551724140793 0.4827586206910505 0
159 0.06896551724142098 0.5172413793117022 0
160 0.06896551724143432 0.551724137932298 0
161 0.06896551724144802 0.5862068965528584 0
162 0.06896551724146219 0.6206896551733984 0
163 0.06896551724147693 0.655172413793927 0
164 0.06896551724149234 0.6896551724144504 0
165 0.0689655172415085 0.7241379310349734 0
166 0.06896551724152548 0.7586206896555009 0
167 0.06896551724154334 0.7931034482760386 0
168 0.06896551724156211 0.8275862068965967 0
169 0.0689655172415817 0.8620689655171898 0
170 0.06896551724160209 0.8965517241378386 0
171 0.06896551724162311 0.9310344827585362 0
172 0.06896551724164461 0.9655172413792621 0
173 0.10344827586188 0.03448275862080155 0
174 0.10344827586189 0.0689655172416026 0
175 0.1034482758619043 0.1034482758624028 0
176 0.1034482758619209 0.1379310344832015 0
177 0.103448275861939 0.1724137931039983 0
178 0.1034482758619578 0.2068965517247925 0
179 0.1034482758619769 0.2413793103455832 0
180 0.1034482758619962 0.2758620689663694 0
181 0.1034482758620154 0.3103448275871497 0
182 0.1034482758620345 0.3448275862079219 0
183 0.1034482758620536 0.379310344828683 0
184 0.1034482758620726 0.4137931034494285 0
185 0.1034482758620916 0.4482758620701523 0
186 0.1034482758621109 0.4827586206908464 0
187 0.1034482758621303 0.5172413793115027 0
188 0.1034482758621502 0.5517241379321218 0
189 0.1034482758621705 0.5862068965527124 0
190 0.1034482758621917 0.6206896551732838 0
191 0.1034482758622137 0.6551724137938432 0
192 0.1034482758622367 0.6896551724143968 0
193 0.1034482758622609 0.7241379310349496 0
194 0.1034482758622864 0.7586206896555072 0
195 0.1034482758623133 0.7931034482760748 0
196 0.1034482758623415 0.8275862068966603 0
197 0.1034482758623712 0.8620689655172722 0
198 0.103448275862402 0.8965517241379179 0
199 0.1034482758624339 0.9310344827585946 0
200 0.1034482758624665 0.9655172413792923 0
201 0.1379310344824999 0.03448275862079141 0
202 0.1379310344825149 0.06896551724158222 0
203 0.1379310344825354 0.1034482758623719 0
204 0.1379310344825588 0.1379310344831598 0
205 0.1379310344825837 0.1724137931039454 0
206 0.1379310344826092 0.2068965517247278 0
207 0.1379310344826351 0.2413793103455061 0
208 0.1379310344826608 0.2758620689662792 0
209 0.1379310344826865 0.3103448275870456 0
210 0.1379310344827119 0.344827586207803 0
211 0.1379310344827371 0.3793103448285488 0
212 0.1379310344827622 0.4137931034492797 0
213 0.1379310344827873 0.4482758620699913 0
214 0.1379310344828127 0.4827586206906791 0
215 0.1379310344828383 0.5172413793113398 0
216 0.1379310344828645 0.5517241379319737 0
217 0.1379310344828915 0.5862068965525855 0
218 0.1379310344829194 0.6206896551731806 0
219 0.1379310344829485 0.6551724137937649 0
220 0.1379310344829791 0.6896551724143436 0
221 0.1379310344830112 0.7241379310349214 0
222 0.1379310344830452 0.7586206896555031 0
223 0.1379310344830811 0.7931034482760934 0
224 0.1379310344831191 0.8275862068966976 0
225 0.1379310344831589 0.8620689655173209 0
226 0.1379310344832006 0.8965517241379662 0
227 0.1379310344832437 0.9310344827586315 0
228 0.1379310344832879 0.9655172413793121 0
229 0.1724137931031078 0.03448275862078161 0
230 0.1724137931031341 0.06896551724156252 0
231 0.1724137931031635 0.1034482758623422 0
232 0.1724137931031949 0.1379310344831198 0
233 0.1724137931032274 0.1724137931038948 0
234 0.17241379310326 0.2068965517246663 0
235 0.1724137931032927 0.2413793103454333 0
236 0.1724137931033251 0.2758620689661947 0
237 0.1724137931033571 0.310344827586949 0
238 0.1724137931033886 0.3448275862076944 0
239 0.1724137931034198 0.3793103448284287 0
240 0.1724137931034509 0.4137931034491493 0
241 0.1724137931034819 0.4482758620698533 0
242 0.1724137931035131 0.4827586206905384 0
243 0.1724137931035447 0.5172413793112028 0
244 0.172413793103577 0.5517241379318473 0
245 0.1724137931036102 0.5862068965524745 0
246 0.1724137931036447 0.6206896551730879 0
247 0.1724137931036808 0.6551724137936921 0
248 0.1724137931037187 0.6896551724142913 0
249 0.1724137931037587 0.7241379310348893 0
250 0.1724137931038012 0.7586206896554902 0
251 0.1724137931038462 0.7931034482760981 0
252 0.172413793103894 0.827586206896716 0
253 0.1724137931039444 0.8620689655173477 0
254 0.1724137931039972 0.896551724137994 0
255 0.1724137931040521 0.9310344827586539 0
256 0.1724137931041086 0.9655172413793243 0
257 0.2068965517237115 0.03448275862077219 0
258 0.2068965517237498 0.06896551724154362 0
259 0.2068965517237894 0.1034482758623136 0
260 0.2068965517238298 0.1379310344830816 0
261 0.2068965517238704 0.1724137931038467 0
262 0.2068965517239105 0.2068965517246081 0
263 0.2068965517239502 0.2413793103453649 0
264 0.2068965517239892 0.275862068966116 0
265 0.2068965517240274 0.3103448275868601 0
266 0.2068965517240649 0.3448275862075957 0
267 0.2068965517241019 0.379310344828321 0
268 0.2068965517241386 0.4137931034490343 0
269 0.2068965517241751 0.4482758620697336 0
270 0.2068965517242118 0.4827586206904174 0
271 0.2068965517242491 0.5172413793110853 0
272 0.2068965517242872 0.5517241379317377 0
273 0.2068965517243264 0.5862068965523766 0
274 0.2068965517243671 0.6206896551730043 0
275 0.2068965517244098 0.6551724137936242 0
276 0.2068965517244549 0.68965517241424 0
277 0.2068965517245026 0.7241379310348544 0
278 0.2068965517245535 0.7586206896554709 0
279 0.2068965517246077 0.7931034482760921 0
280 0.2068965517246655 0.8275862068967211 0
281 0.2068965517247267 0.8620689655173595 0
282 0.2068965517247913 0.8965517241380081 0
283 0.2068965517248587 0.931034482758666 0
284 0.2068965517249283 0.9655172413793311 0
285 0.2413793103443138 0.03448275862076316 0
286 0.241379310344364 0.06896551724152554 0
287 0.2413793103444143 0.1034482758622864 0
288 0.2413793103444642 0.1379310344830452 0
289 0.2413793103445133 0.1724137931038011 0
290 0.2413793103445612 0.2068965517245533 0
291 0.2413793103446079 0.241379310345301 0
292 0.2413793103446533 0.275862068966043 0
293 0.2413793103446976 0.3103448275867784 0
294 0.2413793103447408 0.3448275862075059 0
295 0.2413793103447832 0.3793103448282241 0
296 0.2413793103448252 0.413793103448932 0
297 0.241379310344867 0.4482758620696281 0
298 0.2413793103449089 0.4827586206903115 0
299 0.2413793103449514 0.5172413793109824 0
300 0.2413793103449948 0.5517241379316409 0
301 0.2413793103450395 0.5862068965522889 0
302 0.2413793103450862 0.620689655172928 0
303 0.2413793103451351 0.6551724137935608 0
304 0.2413793103451869 0.6896551724141897 0
305 0.2413793103452422 0.7241379310348175 0
306 0.2413793103453012 0.7586206896554464 0
307 0.2413793103453645 0.7931034482760788 0
308 0.2413793103454324 0.8275862068967169 0
309 0.2413793103455049 0.8620689655173615 0
310 0.2413793103455819 0.8965517241380132 0
311 0.2413793103456628 0.9310344827586712 0
312 0.2413793103457467 0.9655172413793341 0
313 0.2758620689649157 0.03448275862075453 0
314 0.2758620689649781 0.06896551724150828 0
315 0.2758620689650394 0.1034482758622605 0
316 0.2758620689650991 0.1379310344830107 0
317 0.2758620689651569 0.172413793103758 0
318 0.2758620689652125 0.2068965517245017 0
319 0.275862068965266 0.2413793103452411 0
320 0.2758620689653179 0.2758620689659752 0
321 0.2758620689653679 0.3103448275867031 0
322 0.2758620689654165 0.3448275862074238 0
323 0.275862068965464 0.3793103448281364 0
324 0.2758620689655109 0.4137931034488401 0
325 0.2758620689655574 0.4482758620695338 0
326 0.2758620689656039 0.4827586206902174 0
327 0.2758620689656512 0.5172413793108908 0
328 0.2758620689656995 0.5517241379315544 0
329 0.2758620689657493 0.5862068965522096 0
330 0.2758620689658013 0.6206896551728577 0
331 0.275862068965856 0.6551724137935008 0
332 0.2758620689659142 0.6896551724141405 0
333 0.2758620689659764 0.7241379310347792 0
334 0.2758620689660433 0.7586206896554185 0
335 0.2758620689661156 0.7931034482760603 0
336 0.2758620689661938 0.8275862068967061 0
337 0.275862068966278 0.8620689655173565 0
338 0.2758620689663681 0.8965517241380117 0
339 0.2758620689664636 0.9310344827586715 0
340 0.2758620689665633 0.9655172413793348 0
341 0.3103448275855181 0.0344827586207463 0
342 0.3103448275855933 0.06896551724149182 0
343 0.310344827585666 0.1034482758622359 0
344 0.3103448275857358 0.1379310344829779 0
345 0.3103448275858023 0.1724137931037173 0
346 0.3103448275858655 0.2068965517244531 0
347 0.3103448275859258 0.241379310345185 0
348 0.3103448275859834 0.275862068965912 0
349 0.3103448275860388 0.3103448275866333 0
350 0.3103448275860922 0.3448275862073483 0
351 0.3103448275861443 0.3793103448280563 0
352 0.3103448275861955 0.4137931034487565 0
353 0.3103448275862463 0.4482758620694486 0
354 0.3103448275862971 0.4827586206901325 0
355 0.3103448275863486 0.5172413793108082 0
356 0.310344827586401 0.5517241379314759 0
357 0.3103448275864553 0.586206896552137 0
358 0.3103448275865121 0.6206896551727925 0
359 0.3103448275865719 0.6551724137934438 0
360 0.3103448275866358 0.6896551724140925 0
361 0.3103448275867045 0.7241379310347401 0
362 0.3103448275867788 0.7586206896553882 0
363 0.3103448275868599 0.793103448276038 0
364 0.3103448275869482 0.8275862068966908 0
365 0.3103448275870443 0.8620689655173466 0
366 0.3103448275871485 0.8965517241380061 0
367 0.31034482758726 0.9310344827586685 0
368 0.3103448275873776 0.9655172413793336 0
369 0.3448275862061219 0.03448275862073841 0
370 0.3448275862062107 0.06896551724147608 0
371 0.3448275862062954 0.1034482758622124 0
372 0.3448275862063754 0.1379310344829468 0
373 0.3448275862064505 0.1724137931036786 0
374 0.344827586206521 0.2068965517244073 0
375 0.3448275862065875 0.2413793103451322 0
376 0.3448275862066505 0.2758620689658528 0
377 0.3448275862067107 0.3103448275865684 0
378 0.3448275862067685 0.3448275862072784 0
379 0.3448275862068246 0.3793103448279823 0
380 0.3448275862068795 0.4137931034486799 0
381 0.3448275862069338 0.4482758620693706 0
382 0.3448275862069882 0.4827586206900546 0
383 0.3448275862070431 0.5172413793107321 0
384 0.3448275862070991 0.5517241379314035 0
385 0.3448275862071571 0.5862068965520694 0
386 0.3448275862072179 0.6206896551727309 0
387 0.3448275862072822 0.6551724137933891 0
388 0.344827586207351 0.6896551724140454 0
389 0.3448275862074255 0.7241379310347008 0
390 0.3448275862075066 0.7586206896553562 0
391 0.3448275862075957 0.7931034482760132 0
392 0.3448275862076938 0.8275862068966721 0
393 0.3448275862078019 0.8620689655173335 0
394 0.3448275862079208 0.8965517241379972 0
395 0.34482758620805 0.9310344827586634 0
396 0.3448275862081882 0.9655172413793313 0
397 0.379310344826728 0.03448275862073087 0
398 0.379310344826832 0.06896551724146105 0
399 0.3793103448269294 0.10344827586219 0
400 0.3793103448270196 0.1379310344829171 0
401 0.3793103448271029 0.1724137931036419 0
402 0.3793103448271802 0.2068965517243638 0
403 0.3793103448272523 0.2413793103450824 0
404 0.3793103448273201 0.2758620689657971 0
405 0.3793103448273843 0.3103448275865075 0
406 0.3793103448274457 0.344827586207213 0
407 0.379310344827505 0.3793103448279135 0
408 0.3793103448275629 0.4137931034486085 0
409 0.3793103448276201 0.4482758620692982 0
410 0.3793103448276772 0.4827586206899824 0
411 0.3793103448277348 0.5172413793106614 0
412 0.3793103448277937 0.5517241379313356 0
413 0.3793103448278547 0.5862068965520056 0
414 0.3793103448279186 0.6206896551726724 0
415 0.3793103448279864 0.6551724137933365 0
416 0.3793103448280593 0.6896551724139991 0
417 0.3793103448281384 0.7241379310346612 0
418 0.3793103448282252 0.7586206896553234 0
419 0.3793103448283213 0.7931034482759867 0
420 0.3793103448284283 0.8275862068966514 0
421 0.3793103448285481 0.862068965517318 0
422 0.379310344828682 0.8965517241379866 0
423 0.3793103448288309 0.9310344827586566 0
424 0.3793103448289935 0.965517241379328 0
425 0.4137931034473387 0.03448275862072363 0
426 0.4137931034474601 0.0689655172414466 0
427 0.4137931034475705 0.1034482758621684 0
428 0.4137931034476705 0.1379310344828887 0
429 0.4137931034477612 0.1724137931036067 0
430 0.4137931034478444 0.2068965517243223 0
431 0.4137931034479209 0.2413793103450349 0
432 0.4137931034479926 0.2758620689657442 0
433 0.4137931034480599 0.3103448275864498 0
434 0.4137931034481241 0.3448275862071514 0
435 0.4137931034481859 0.3793103448278487 0
436 0.413793103448246 0.4137931034485416 0
437 0.4137931034483053 0.4482758620692303 0
438 0.4137931034483645 0.4827586206899145 0
439 0.413793103448424 0.5172413793105948 0
440 0.4137931034484849 0.5517241379312714 0
441 0.4137931034485479 0.5862068965519449 0
442 0.4137931034486139 0.620689655172616 0
443 0.413793103448684 0.6551724137932852 0
444 0.4137931034487598 0.6896551724139535 0
445 0.4137931034488423 0.7241379310346214 0
446 0.4137931034489333 0.7586206896552897 0
447 0.4137931034490349 0.7931034482759588 0
448 0.4137931034491493 0.8275862068966292 0
449 0.4137931034492793 0.8620689655173012 0
450 0.4137931034494278 0.8965517241379743 0
451 0.4137931034495975 0.9310344827586489 0
452 0.4137931034497893 0.9655172413793242 0
453 0.4482758620679575 0.03448275862071661 0
454 0.4482758620680988 0.06896551724143261 0
455 0.448275862068222 0.1034482758621476 0
456 0.4482758620683304 0.1379310344828612 0
457 0.4482758620684271 0.1724137931035729 0
458 0.4482758620685144 0.2068965517242824 0
459 0.4482758620685944 0.2413793103449894 0
460 0.4482758620686687 0.2758620689656935 0
461 0.4482758620687383 0.3103448275863946 0
462 0.4482758620688042 0.3448275862070924 0
463 0.4482758620688677 0.3793103448277869 0
464 0.4482758620689292 0.4137931034484779 0
465 0.4482758620689896 0.4482758620691654 0
466 0.4482758620690498 0.4827586206898498 0
467 0.4482758620691106 0.5172413793105312 0
468 0.4482758620691725 0.5517241379312099 0
469 0.4482758620692365 0.5862068965518864 0
470 0.4482758620693036 0.6206896551725612 0
471 0.4482758620693751 0.655172413793235 0
472 0.4482758620694521 0.6896551724139084 0
473 0.4482758620695363 0.7241379310345817 0
474 0.4482758620696297 0.7586206896552554 0
475 0.4482758620697345 0.79310344827593 0
476 0.4482758620698536 0.8275862068966058 0
477 0.4482758620699912 0.8620689655172827 0
478 0.4482758620701519 0.8965517241379608 0
479 0.448275862070342 0.93103448275864 0
480 0.4482758620705682 0.9655172413793198 0
481 0.4827586206885949 0.0344827586207098 0
482 0.4827586206887559 0.06896551724141907 0
483 0.4827586206888883 0.1034482758621274 0
484 0.482758620689002 0.1379310344828346 0
485 0.4827586206891021 0.1724137931035401 0
486 0.4827586206891918 0.2068965517242438 0
487 0.4827586206892735 0.2413793103449454 0
488 0.4827586206893491 0.2758620689656447 0
489 0.4827586206894196 0.3103448275863415 0
490 0.4827586206894864 0.3448275862070356 0
491 0.4827586206895503 0.3793103448277273 0
492 0.4827586206896124 0.4137931034484164 0
493 0.4827586206896733 0.4482758620691029 0
494 0.4827586206897338 0.4827586206897872 0
495 0.4827586206897947 0.5172413793104695 0
496 0.4827586206898567 0.5517241379311502 0
497 0.4827586206899207 0.5862068965518294 0
498 0.4827586206899878 0.6206896551725076 0
499 0.4827586206900593 0.6551724137931857 0
500 0.4827586206901361 0.6896551724138636 0
501 0.4827586206902202 0.7241379310345418 0
502 0.4827586206903135 0.7586206896552208 0
503 0.4827586206904187 0.7931034482759005 0
504 0.482758620690539 0.8275862068965814 0
505 0.4827586206906793 0.8620689655172636 0
506 0.482758620690846 0.8965517241379466 0
507 0.48275862069105 0.9310344827586304 0
508 0.48275862069131 0.9655172413793152 0
509 0.5172413793092797 0.03448275862070313 0
510 0.5172413793094408 0.06896551724140582 0
511 0.5172413793095735 0.1034482758621077 0
512 0.5172413793096873 0.1379310344828086 0
513 0.5172413793097874 0.1724137931035081 0
514 0.5172413793098772 0.2068965517242062 0
515 0.5172413793099588 0.2413793103449025 0
516 0.5172413793100341 0.275862068965597 0
517 0.5172413793101045 0.3103448275862896 0
518 0.5172413793101711 0.3448275862069803 0
519 0.5172413793102346 0.3793103448276692 0
520 0.5172413793102965 0.4137931034483563 0
521 0.5172413793103566 0.4482758620690418 0
522 0.5172413793104166 0.482758620689726 0
523 0.5172413793104768 0.517241379310409 0
524 0.5172413793105379 0.5517241379310913 0
525 0.5172413793106009 0.586206896551773 0
526 0.5172413793106669 0.6206896551724547 0
527 0.5172413793107368 0.6551724137931364 0
528 0.5172413793108118 0.6896551724138187 0
529 0.5172413793108939 0.7241379310345017 0
530 0.5172413793109846 0.7586206896551855 0
531 0.5172413793110868 0.7931034482758703 0
532 0.5172413793112037 0.8275862068965565 0
533 0.5172413793113401 0.8620689655172435 0
534 0.5172413793115026 0.8965517241379315 0
535 0.517241379311702 0.9310344827586207 0
536 0.5172413793119569 0.9655172413793102 0
537 0.5517241379300123 0.03448275862069659 0
538 0.5517241379301541 0.06896551724139277 0
539 0.5517241379302777 0.1034482758620883 0
540 0.5517241379303864 0.137931034482783 0
541 0.5517241379304832 0.1724137931034767 0
542 0.5517241379305705 0.2068965517241691 0
543 0.5517241379306503 0.2413793103448603 0
544 0.5517241379307242 0.27586206896555 0
545 0.5517241379307931 0.3103448275862385 0
546 0.5517241379308583 0.3448275862069258 0
547 0.5517241379309206 0.3793103448276118 0
548 0.5517241379309811 0.413793103448297 0
549 0.5517241379310401 0.4482758620689814 0
550 0.5517241379310984 0.4827586206896654 0
551 0.551724137931157 0.5172413793103491 0
552 0.5517241379312163 0.5517241379310327 0
553 0.5517241379312774 0.5862068965517169 0
554 0.551724137931341 0.6206896551724014 0
555 0.5517241379314081 0.6551724137930869 0
556 0.5517241379314798 0.6896551724137733 0
557 0.5517241379315578 0.7241379310344608 0
558 0.5517241379316435 0.7586206896551495 0
559 0.5517241379317396 0.7931034482758393 0
560 0.5517241379318484 0.8275862068965305 0
561 0.5517241379319743 0.8620689655172228 0
562 0.5517241379321219 0.896551724137916 0
563 0.551724137932298 0.9310344827586101 0
564 0.5517241379325091 0.9655172413793051 0
565 0.5862068965507635 0.03448275862069012 0
566 0.5862068965508858 0.06896551724137991 0
567 0.5862068965509971 0.1034482758620692 0
568 0.5862068965510976 0.1379310344827577 0
569 0.5862068965511886 0.1724137931034455 0
570 0.5862068965512717 0.2068965517241324 0
571 0.5862068965513481 0.2413793103448183 0
572 0.586206896551419 0.2758620689655034 0
573 0.5862068965514855 0.3103448275861877 0
574 0.5862068965515483 0.3448275862068713 0
575 0.5862068965516085 0.3793103448275545 0
576 0.5862068965516668 0.4137931034482377 0
577 0.5862068965517236 0.4482758620689209 0
578 0.5862068965517797 0.4827586206896045 0
579 0.586206896551836 0.5172413793102888 0
580 0.5862068965518926 0.551724137930974 0
581 0.5862068965519508 0.5862068965516601 0
582 0.586206896552011 0.6206896551723478 0
583 0.5862068965520739 0.6551724137930366 0
584 0.5862068965521409 0.6896551724137271 0
585 0.5862068965522129 0.7241379310344191 0
586 0.5862068965522915 0.7586206896551126 0
587 0.5862068965523783 0.7931034482758076 0
588 0.5862068965524756 0.827586206896504 0
589 0.5862068965525861 0.8620689655172016 0
590 0.5862068965527127 0.8965517241379001 0
591 0.5862068965528585 0.9310344827585996 0
592 0.5862068965530249 0.9655172413792998 0
593 0.6206896551715233 0.03448275862068371 0
594 0.6206896551716287 0.06896551724136714 0
595 0.6206896551717274 0.1034482758620501 0
596 0.6206896551718183 0.1379310344827326 0
597 0.6206896551719022 0.1724137931034145 0
598 0.6206896551719796 0.2068965517240957 0
599 0.6206896551720514 0.2413793103447764 0
600 0.6206896551721184 0.2758620689654566 0
601 0.6206896551721814 0.3103448275861366 0
602 0.6206896551722412 0.3448275862068165 0
603 0.6206896551722983 0.3793103448274968 0
604 0.6206896551723537 0.4137931034481778 0
605 0.6206896551724078 0.4482758620688596 0
606 0.6206896551724607 0.4827586206895427 0
607 0.6206896551725137 0.5172413793102274 0
608 0.6206896551725672 0.5517241379309139 0
609 0.6206896551726215 0.5862068965516024 0
610 0.6206896551726774 0.6206896551722928 0
611 0.6206896551727353 0.6551724137929853 0
612 0.6206896551727964 0.6896551724136799 0
613 0.6206896551728611 0.7241379310343764 0
614 0.6206896551729306 0.7586206896550748 0
615 0.6206896551730064 0.7931034482757748 0
616 0.6206896551730894 0.8275862068964763 0
617 0.6206896551731814 0.8620689655171796 0
618 0.6206896551732842 0.8965517241378836 0
619 0.6206896551733986 0.9310344827585886 0
620 0.6206896551735245 0.9655172413792943 0
621 0.6551724137922876 0.03448275862067733 0
622 0.6551724137923787 0.06896551724135443 0
623 0.6551724137924653 0.1034482758620311 0
624 0.6551724137925468 0.1379310344827075 0
625 0.6551724137926228 0.1724137931033834 0
626 0.6551724137926935 0.2068965517240588 0
627 0.6551724137927598 0.241379310344734 0
628 0.655172413792822 0.2758620689654092 0
629 0.6551724137928808 0.3103448275860847 0
630 0.6551724137929366 0.3448275862067607 0
631 0.6551724137929902 0.3793103448274378 0
632 0.655172413793042 0.4137931034481163 0
633 0.6551724137930925 0.4482758620687966 0
634 0.655172413793142 0.482758620689479 0
635 0.6551724137931911 0.5172413793101642 0
636 0.6551724137932406 0.5517241379308521 0
637 0.6551724137932906 0.5862068965515427 0
638 0.6551724137933413 0.6206896551722361 0
639 0.6551724137933936 0.6551724137929322 0
640 0.6551724137934476 0.6896551724136311 0
641 0.655172413793504 0.7241379310343321 0
642 0.6551724137935635 0.7586206896550357 0
643 0.6551724137936266 0.7931034482757411 0
644 0.6551724137936938 0.8275862068964481 0
645 0.6551724137937661 0.8620689655171568 0
646 0.6551724137938439 0.8965517241378665 0
647 0.6551724137939275 0.9310344827585771 0
648 0.6551724137940163 0.9655172413792884 0
649 0.6896551724130547 0.03448275862067097 0
650 0.6896551724131335 0.06896551724134173 0
651 0.6896551724132091 0.1034482758620122 0
652 0.6896551724132808 0.1379310344826823 0
653 0.6896551724133487 0.172413793103352 0
654 0.6896551724134127 0.2068965517240215 0
655 0.6896551724134727 0.2413793103446911 0
656 0.6896551724135296 0.275862068965361 0
657 0.6896551724135833 0.3103448275860315 0
658 0.6896551724136347 0.3448275862067032 0
659 0.6896551724136841 0.3793103448273767 0
660 0.6896551724137319 0.4137931034480525 0
661 0.6896551724137782 0.448275862068731 0
662 0.6896551724138236 0.4827586206894128 0
663 0.6896551724138686 0.5172413793100983 0
664 0.6896551724139135 0.5517241379307875 0
665 0.6896551724139584 0.5862068965514802 0
666 0.6896551724140036 0.6206896551721769 0
667 0.6896551724140497 0.6551724137928768 0
668 0.6896551724140962 0.6896551724135801 0
669 0.6896551724141439 0.7241379310342863 0
670 0.6896551724141925 0.7586206896549951 0
671 0.6896551724142421 0.793103448275706 0
672 0.6896551724142932 0.8275862068964188 0
673 0.689655172414345 0.8620689655171333 0
674 0.6896551724143977 0.8965517241378489 0
675 0.689655172414451 0.9310344827585653 0
676 0.6896551724145047 0.9655172413792824 0
677 0.7241379310338236 0.03448275862066461 0
678 0.7241379310338912 0.06896551724132903 0
679 0.7241379310339566 0.1034482758619931 0
680 0.7241379310340194 0.1379310344826569 0
681 0.7241379310340791 0.1724137931033204 0
682 0.7241379310341357 0.2068965517239838 0
683 0.7241379310341894 0.2413793103446473 0
684 0.7241379310342405 0.2758620689653113 0
685 0.7241379310342891 0.3103448275859767 0
686 0.7241379310343354 0.3448275862066437 0
687 0.72413793103438 0.3793103448273131 0
688 0.7241379310344231 0.4137931034479858 0
689 0.724137931034465 0.4482758620686622 0
690 0.7241379310345062 0.482758620689343 0
691 0.7241379310345465 0.5172413793100286 0
692 0.7241379310345862 0.5517241379307191 0
693 0.7241379310346258 0.5862068965514142 0
694 0.7241379310346652 0.6206896551721144 0
695 0.7241379310347048 0.6551724137928189 0
696 0.7241379310347438 0.6896551724135269 0
697 0.7241379310347823 0.7241379310342383 0
698 0.7241379310348202 0.7586206896549527 0
699 0.7241379310348565 0.7931034482756694 0
700 0.7241379310348912 0.8275862068963882 0
701 0.7241379310349229 0.8620689655171087 0
702 0.7241379310349507 0.8965517241378305 0
703 0.724137931034974 0.9310344827585532 0
704 0.7241379310349931 0.9655172413792765 0
705 0.7586206896545939 0.03448275862065832 0
706 0.7586206896546513 0.06896551724131642 0
707 0.7586206896547071 0.1034482758619742 0
708 0.758620689654761 0.1379310344826314 0
709 0.7586206896548129 0.1724137931032884 0
710 0.7586206896548623 0.2068965517239453 0
711 0.7586206896549095 0.2413793103446025 0
712 0.7586206896549543 0.2758620689652603 0
713 0.7586206896549973 0.3103448275859197 0
714 0.7586206896550383 0.3448275862065813 0
715 0.758620689655078 0.3793103448272461 0
716 0.758620689655116 0.4137931034479149 0
717 0.7586206896551532 0.4482758620685887 0
718 0.7586206896551895 0.4827586206892682 0
719 0.758620689655225 0.517241379309954 0
720 0.7586206896552595 0.5517241379306459 0
721 0.7586206896552937 0.5862068965513441 0
722 0.7586206896553273 0.6206896551720481 0
723 0.7586206896553601 0.6551724137927571 0
724 0.7586206896553916 0.6896551724134705 0
725 0.7586206896554215 0.7241379310341879 0
726 0.7586206896554489 0.7586206896549081 0
727 0.758620689655473 0.7931034482756311 0
728 0.7586206896554921 0.8275862068963563 0
729 0.7586206896555046 0.862068965517083 0
730 0.7586206896555082 0.8965517241378113 0
731 0.7586206896555016 0.9310344827585404 0
732 0.7586206896554842 0.9655172413792699 0
733 0.7931034482753649 0.03448275862065212 0
734 0.7931034482754129 0.06896551724130395 0
735 0.7931034482754599 0.1034482758619553 0
736 0.7931034482755055 0.1379310344826061 0
737 0.7931034482755493 0.1724137931032563 0
738 0.7931034482755919 0.2068965517239062 0
739 0.7931034482756323 0.2413793103445564 0
740 0.7931034482756707 0.2758620689652074 0
741 0.7931034482757077 0.3103448275858601 0
742 0.7931034482757432 0.3448275862065156 0
743 0.7931034482757775 0.3793103448271749 0
744 0.7931034482758104 0.413793103447839 0
745 0.7931034482758426 0.4482758620685094 0
746 0.7931034482758736 0.4827586206891872 0
747 0.7931034482759041 0.517241379309873 0
748 0.7931034482759336 0.5517241379305668 0
749 0.7931034482759624 0.5862068965512683 0
750 0.79310344827599 0.6206896551719768 0
751 0.7931034482760164 0.6551724137926914 0
752 0.793103448276041 0.6896551724134109 0
753 0.7931034482760629 0.7241379310341345 0
754 0.7931034482760811 0.7586206896548614 0
755 0.7931034482760942 0.7931034482755911 0
756 0.7931034482760998 0.8275862068963231 0
757 0.7931034482760948 0.8620689655170566 0
758 0.7931034482760759 0.8965517241377914 0
759 0.7931034482760395 0.9310344827585271 0
760 0.793103448275983 0.9655172413792633 0
761 0.8275862068961368 0.03448275862064612 0
762 0.8275862068961759 0.06896551724129184 0
763 0.8275862068962144 0.1034482758619369 0
764 0.827586206896252 0.137931034482581 0
765 0.8275862068962883 0.1724137931032241 0
766 0.8275862068963236 0.2068965517238666 0
767 0.8275862068963572 0.2413793103445092 0
768 0.8275862068963894 0.2758620689651525 0
769 0.8275862068964202 0.3103448275857977 0
770 0.8275862068964501 0.3448275862064459 0
771 0.8275862068964788 0.3793103448270984 0
772 0.8275862068965065 0.4137931034477569 0
773 0.8275862068965334 0.448275862068423 0
774 0.8275862068965593 0.4827586206890984 0
775 0.8275862068965845 0.5172413793097841 0
776 0.8275862068966088 0.5517241379304804 0
777 0.8275862068966321 0.586206896551186 0
778 0.8275862068966543 0.6206896551719 0
779 0.8275862068966747 0.6551724137926209 0
780 0.8275862068966932 0.6896551724133474 0
781 0.8275862068967084 0.7241379310340781 0
782 0.8275862068967188 0.7586206896548122 0
783 0.8275862068967229 0.7931034482755492 0
784 0.8275862068967176 0.8275862068962879 0
785 0.8275862068966989 0.8620689655170289 0
786 0.8275862068966613 0.8965517241377705 0
787 0.8275862068965975 0.9310344827585133 0
788 0.8275862068964984 0.9655172413792568 0
789 0.8620689655169089 0.03448275862064042 0
790 0.8620689655169398 0.06896551724128029 0
791 0.8620689655169703 0.1034482758619192 0
792 0.862068965517 0.1379310344825566 0
793 0.8620689655170289 0.1724137931031923 0
794 0.8620689655170568 0.2068965517238268 0
795 0.8620689655170838 0.2413793103444609 0
796 0.8620689655171098 0.2758620689650956 0
797 0.8620689655171345 0.310344827585732 0
798 0.8620689655171583 0.3448275862063717 0
799 0.8620689655171813 0.3793103448270159 0
800 0.8620689655172036 0.413793103447667 0
801 0.862068965517225 0.4482758620683271 0
802 0.8620689655172458 0.4827586206889991 0
803 0.8620689655172659 0.5172413793096846 0
804 0.8620689655172853 0.5517241379303842 0
805 0.8620689655173033 0.5862068965510957 0
806 0.8620689655173204 0.6206896551718168 0
807 0.8620689655173357 0.6551724137925454 0
808 0.8620689655173489 0.6896551724132799 0
809 0.8620689655173585 0.7241379310340188 0
810 0.8620689655173631 0.7586206896547609 0
811 0.862068965517361 0.7931034482755055 0
812 0.8620689655173489 0.8275862068962521 0
813 0.8620689655173218 0.8620689655170002 0
814 0.8620689655172729 0.8965517241377492 0
815 0.8620689655171904 0.9310344827584991 0
816 0.8620689655170525 0.9655172413792494 0
817 0.8965517241376812 0.03448275862063515 0
818 0.8965517241377041 0.06896551724126967 0
819 0.8965517241377269 0.103448275861903 0
820 0.8965517241377491 0.1379310344825337 0
821 0.8965517241377707 0.1724137931031614 0
822 0.8965517241377915 0.206896551723787 0
823 0.8965517241378116 0.2413793103444117 0
824 0.8965517241378312 0.2758620689650368 0
825 0.8965517241378498 0.3103448275856632 0
826 0.8965517241378678 0.3448275862062926 0
827 0.896551724137885 0.3793103448269267 0
828 0.8965517241379016 0.4137931034475679 0
829 0.8965517241379179 0.4482758620682196 0
830 0.8965517241379333 0.4827586206888861 0
831 0.8965517241379484 0.5172413793095717 0
832 0.8965517241379626 0.5517241379302761 0
833 0.896551724137976 0.5862068965509958 0
834 0.8965517241379882 0.6206896551717263 0
835 0.896551724137999 0.6551724137924645 0
836 0.8965517241380079 0.6896551724132084 0
837 0.8965517241380133 0.7241379310339563 0
838 0.8965517241380144 0.7586206896547072 0
839 0.8965517241380093 0.79310344827546 0
840 0.8965517241379948 0.8275862068962146 0
841 0.896551724137967 0.8620689655169704 0
842 0.8965517241379184 0.896551724137727 0
843 0.896551724137839 0.9310344827584844 0
844 0.8965517241377104 0.9655172413792422 0
845 0.9310344827584541 0.03448275862063047 0
846 0.9310344827584693 0.06896551724126031 0
847 0.9310344827584843 0.1034482758618891 0
848 0.9310344827584991 0.1379310344825137 0
849 0.9310344827585133 0.1724137931031326 0
850 0.9310344827585272 0.2068965517237482 0
851 0.9310344827585407 0.2413793103443623 0
852 0.9310344827585535 0.2758620689649763 0
853 0.931034482758566 0.3103448275855915 0
854 0.9310344827585781 0.3448275862062089 0
855 0.9310344827585894 0.3793103448268302 0
856 0.9310344827586006 0.4137931034474582 0
857 0.9310344827586116 0.4482758620680972 0
858 0.9310344827586219 0.4827586206887544 0
859 0.9310344827586317 0.5172413793094396 0
860 0.9310344827586412 0.5517241379301533 0
861 0.9310344827586499 0.5862068965508851 0
862 0.9310344827586576 0.620689655171628 0
863 0.9310344827586646 0.6551724137923783 0
864 0.9310344827586696 0.689655172413133 0
865 0.9310344827586727 0.724137931033891 0
866 0.9310344827586723 0.7586206896546513 0
867 0.9310344827586671 0.7931034482754131 0
868 0.9310344827586546 0.8275862068961761 0
869 0.9310344827586321 0.86206896551694 0
870 0.9310344827585949 0.8965517241377046 0
871 0.9310344827585365 0.9310344827584693 0
872 0.93103448275845 0.9655172413792346 0
873 0.9655172413792269 0.03448275862062639 0
874 0.9655172413792346 0.06896551724125186 0
875 0.9655172413792421 0.1034482758618795 0
876 0.9655172413792495 0.1379310344824993 0
877 0.9655172413792567 0.1724137931031071 0
878 0.9655172413792636 0.2068965517237108 0
879 0.9655172413792702 0.2413793103443129 0
880 0.9655172413792766 0.2758620689649148 0
881 0.9655172413792827 0.3103448275855172 0
882 0.965517241379289 0.344827586206121 0
883 0.9655172413792945 0.3793103448267272 0
884 0.9655172413793002 0.4137931034473377 0
885 0.9655172413793056 0.4482758620679567 0
886 0.9655172413793108 0.4827586206885943 0
887 0.9655172413793158 0.5172413793092794 0
888 0.9655172413793204 0.551724137930012 0
889 0.9655172413793246 0.5862068965507633 0
890 0.9655172413793285 0.620689655171523 0
891 0.9655172413793319 0.6551724137922875 0
892 0.9655172413793343 0.6896551724130546 0
893 0.9655172413793354 0.7241379310338236 0
894 0.9655172413793348 0.7586206896545938 0
895 0.9655172413793317 0.7931034482753649 0
896 0.9655172413793246 0.8275862068961368 0
897 0.9655172413793121 0.8620689655169088 0
898 0.9655172413792923 0.8965517241376815 0
899 0.9655172413792622 0.9310344827584541 0
900 0.9655172413792199 0.9655172413792271 0
