784
1 0 0 0
2 0 1 0
3 1 1 0
4 1 0 0
5 0.03703703703696511 0 0
6 0.07407407407392791 0 0
7 0.1111111111109082 0 0
8 0.1481481481478564 0 0
9 0.1851851851847853 0 0
10 0.2222222222217143 0 0
11 0.2592592592586432 0 0
12 0.2962962962955721 0 0
13 0.333333333332501 0 0
14 0.3703703703694299 0 0
15 0.4074074074063589 0 0
16 0.4444444444432878 0 0
17 0.4814814814802167 0 0
18 0.5185185185172486 0 0
19 0.5555555555543833 0 0
20 0.592592592591518 0 0
21 0.6296296296286528 0 0
22 0.6666666666657874 0 0
23 0.7037037037029222 0 0
24 0.7407407407400569 0 0
25 0.7777777777771916 0 0
26 0.8148148148143264 0 0
27 0.8518518518514611 0 0
28 0.8888888888885959 0 0
29 0.9259259259257305 0 0
30 0.9629629629628652 0 0
31 1 0.03703703703696511 0
32 1 0.07407407407392791 0
33 1 0.1111111111109082 0
34 1 0.1481481481478564 0
35 1 0.1851851851847853 0
36 1 0.2222222222217143 0
37 1 0.2592592592586432 0
38 1 0.2962962962955721 0
39 1 0.333333333332501 0
40 1 0.3703703703694299 0
41 1 0.4074074074063589 0
42 1 0.4444444444432878 0
43 1 0.4814814814802167 0
44 1 0.5185185185172486 0
45 1 0.5555555555543833 0
46 1 0.592592592591518 0
47 1 0.6296296296286528 0
48 1 0.6666666666657874 0
49 1 0.7037037037029222 0
50 1 0.7407407407400569 0
51 1 0.7777777777771916 0
52 1 0.8148148148143264 0
53 1 0.8518518518514611 0
54 1 0.8888888888885959 0
55 1 0.9259259259257305 0
56 1 0.9629629629628652 0
57 0.9629629629628087 1 0
58 0.9259259259256175 1 0
59 0.8888888888884262 1 0
60 0.851851851851492 1 0
61 0.814814814814712 1 0
62 0.777777777777932 1 0
63 0.7407407407411519 1 0
64 0.7037037037043719 1 0
65 0.6666666666675918 1 0
66 0.6296296296308116 1 0
67 0.5925925925940314 1 0
68 0.5555555555572513 1 0
69 0.5185185185204713 1 0
70 0.4814814814834855 1 0
71 0.4444444444462943 1 0
72 0.4074074074091031 1 0
73 0.3703703703719119 1 0
74 0.3333333333347207 1 0
75 0.2962962962975295 1 0
76 0.2592592592603383 1 0
77 0.2222222222231471 1 0
78 0.1851851851859559 1 0
79 0.1481481481487648 1 0
80 0.1111111111115736 1 0
81 0.07407407407438238 1 0
82 0.03703703703719119 1 0
83 0 0.9629629629628087 0
84 0 0.9259259259256175 0
85 0 0.8888888888884262 0
86 0 0.851851851851492 0
87 0 0.814814814814712 0
88 0 0.777777777777932 0
89 0 0.7407407407411519 0
90 0 0.7037037037043719 0
91 0 0.6666666666675918 0
92 0 0.6296296296308116 0
93 0 0.5925925925940314 0
94 0 0.5555555555572513 0
95 0 0.5185185185204713 0
96 0 0.4814814814834855 0
97 0 0.4444444444462943 0
98 0 0.4074074074091031 0
99 0 0.3703703703719119 0
100 0 0.3333333333347207 0
101 0 0.2962962962975295 0
102 0 0.2592592592603383 0
103 0 0.2222222222231471 0
104 0 0.1851851851859559 0
105 0 0.1481481481487648 0
106 0 0.1111111111115736 0
107 0 0.07407407407438238 0
108 0 0.03703703703719119 0
109 0.03703703703696948 0.03703703703717855 0
110 0.03703703703697436 0.07407407407435689 0
111 0.03703703703697993 0.1111111111115348 0
112 0.03703703703698618 0.148148148148712 0
113 0.03703703703699291 0.1851851851858883 0
114 0.03703703703699993 0.2222222222230633 0
115 0.03703703703700711 0.2592592592602365 0
116 0.03703703703701434 0.2962962962974071 0
117 0.03703703703702158 0.3333333333345739 0
118 0.03703703703702881 0.3703703703717349 0
119 0.03703703703703604 0.4074074074088863 0
120 0.03703703703704331 0.4444444444460193 0
121 0.03703703703705065 0.4814814814831126 0
122 0.03703703703705812 0.5185185185201042 0
123 0.03703703703706578 0.5555555555569945 0
124 0.03703703703707371 0.5925925925938458 0
125 0.03703703703708197 0.6296296296306798 0
126 0.03703703703709064 0.6666666666675062 0
127 0.03703703703709978 0.7037037037043298 0
128 0.03703703703710942 0.7407407407411547 0
129 0.03703703703711964 0.7777777777779856 0
130 0.03703703703713041 0.8148148148148306 0
131 0.03703703703714174 0.8518518518517091 0
132 0.03703703703715359 0.8888888888886757 0
133 0.03703703703716586 0.9259259259257528 0
134 0.03703703703717844 0.9629629629628697 0
135 0.07407407407393841 0.03703703703716603 0
136 0.07407407407394796 0.07407407407433166 0
137 0.07407407407395913 0.1111111111114964 0
138 0.07407407407397178 0.14814814814866 0
139 0.07407407407398539 0.1851851851858217 0
140 0.07407407407399956 0.222222222222981 0
141 0.07407407407401398 0.2592592592601369 0
142 0.07407407407402845 0.2962962962972882 0
143 0.07407407407404291 0.3333333333344327 0
144 0.07407407407405733 0.3703703703715676 0
145 0.07407407407407175 0.4074074074086876 0
146 0.07407407407408623 0.4444444444457838 0
147 0.07407407407410083 0.4814814814828412 0
148 0.07407407407411568 0.5185185185198387 0
149 0.07407407407413091 0.5555555555567765 0
150 0.07407407407414669 0.5925925925936767 0
151 0.07407407407416315 0.6296296296305556 0
152 0.07407407407418044 0.666666666667423 0
153 0.07407407407419868 0.7037037037042864 0
154 0.07407407407421797 0.7407407407411515 0
155 0.07407407407423841 0.7777777777780247 0
156 0.07407407407426002 0.8148148148149155 0
157 0.07407407407428278 0.8518518518518385 0
158 0.07407407407430662 0.8888888888888147 0
159 0.07407407407433131 0.9259259259258485 0
160 0.07407407407435666 0.9629629629629169 0
161 0.1111111111109083 0.03703703703715378 0
162 0.1111111111109199 0.07407407407430698 0
163 0.1111111111109367 0.111111111111459 0
164 0.1111111111109562 0.1481481481486093 0
165 0.1111111111109771 0.1851851851857571 0
166 0.1111111111109987 0.2222222222229016 0
167 0.1111111111110205 0.2592592592600415 0
168 0.1111111111110423 0.2962962962971753 0
169 0.1111111111110639 0.3333333333343007 0
170 0.1111111111110854 0.3703703703714145 0
171 0.1111111111111069 0.4074074074085121 0
172 0.1111111111111284 0.4444444444455866 0
173 0.1111111111111501 0.4814814814826293 0
174 0.1111111111111722 0.5185185185196322 0
175 0.1111111111111949 0.5555555555565956 0
176 0.1111111111112184 0.5925925925935291 0
177 0.1111111111112429 0.6296296296304424 0
178 0.1111111111112687 0.6666666666673441 0
179 0.111111111111296 0.7037037037042412 0
180 0.1111111111113249 0.7407407407411395 0
181 0.1111111111113555 0.777777777778046 0
182 0.1111111111113881 0.8148148148149681 0
183 0.1111111111114225 0.851851851851915 0
184 0.1111111111114585 0.8888888888888954 0
185 0.111111111111496 0.9259259259259101 0
186 0.1111111111115345 0.962962962962949 0
187 0.1481481481478665 0.0370370370371419 0
188 0.1481481481478864 0.0740740740742831 0
189 0.1481481481479114 0.1111111111114229 0
190 0.1481481481479391 0.1481481481485606 0
191 0.1481481481479679 0.1851851851856953 0
192 0.1481481481479973 0.2222222222228261 0
193 0.1481481481480266 0.2592592592599515 0
194 0.1481481481480557 0.29629629629707 0
195 0.1481481481480844 0.3333333333341795 0
196 0.1481481481481129 0.370370370371277 0
197 0.1481481481481413 0.4074074074083588 0
198 0.1481481481481697 0.4444444444454205 0
199 0.1481481481481983 0.4814814814824568 0
200 0.1481481481482274 0.5185185185194646 0
201 0.1481481481482572 0.5555555555564444 0
202 0.1481481481482882 0.592592592593401 0
203 0.1481481481483206 0.6296296296303407 0
204 0.1481481481483547 0.6666666666672699 0
205 0.1481481481483909 0.7037037037041945 0
206 0.1481481481484293 0.74074074074112 0
207 0.1481481481484702 0.7777777777780519 0
208 0.1481481481485138 0.8148148148149958 0
209 0.1481481481485601 0.8518518518519581 0
210 0.1481481481486087 0.888888888888942 0
211 0.1481481481486594 0.9259259259259477 0
212 0.1481481481487117 0.9629629629629697 0
213 0.1851851851848149 0.03703703703713052 0
214 0.1851851851848478 0.07407407407426024 0
215 0.1851851851848834 0.1111111111113884 0
216 0.1851851851849204 0.1481481481485142 0
217 0.185185185184958 0.1851851851856367 0
218 0.1851851851849954 0.2222222222227549 0
219 0.1851851851850324 0.2592592592598675 0
220 0.1851851851850688 0.296296296296973 0
221 0.1851851851851046 0.3333333333340693 0
222 0.1851851851851399 0.3703703703711543 0
223 0.1851851851851749 0.4074074074082251 0
224 0.1851851851852098 0.4444444444452788 0
225 0.185185185185245 0.4814814814823124 0
226 0.1851851851852808 0.5185185185193246 0
227 0.1851851851853175 0.555555555556316 0
228 0.1851851851853556 0.5925925925932894 0
229 0.1851851851853956 0.6296296296302494 0
230 0.1851851851854377 0.6666666666672002 0
231 0.1851851851854825 0.7037037037041469 0
232 0.1851851851855304 0.7407407407410938 0
233 0.1851851851855816 0.7777777777780455 0
234 0.1851851851856364 0.8148148148150059 0
235 0.1851851851856947 0.8518518518519791 0
236 0.1851851851857564 0.8888888888889667 0
237 0.1851851851858211 0.9259259259259686 0
238 0.1851851851858879 0.9629629629629813 0
239 0.2222222222217599 0.03703703703711964 0
240 0.2222222222218063 0.07407407407423842 0
241 0.2222222222218536 0.1111111111113555 0
242 0.2222222222219008 0.1481481481484702 0
243 0.2222222222219477 0.1851851851855815 0
244 0.2222222222219935 0.2222222222226883 0
245 0.2222222222220382 0.2592592592597896 0
246 0.2222222222220818 0.2962962962968839 0
247 0.2222222222221245 0.3333333333339696 0
248 0.2222222222221663 0.3703703703710449 0
249 0.2222222222222076 0.4074074074081077 0
250 0.2222222222222487 0.4444444444451563 0
251 0.22222222222229 0.4814814814821888 0
252 0.222222222222332 0.5185185185192049 0
253 0.2222222222223752 0.5555555555562049 0
254 0.2222222222224201 0.5925925925931911 0
255 0.2222222222224671 0.6296296296301664 0
256 0.222222222222517 0.6666666666671344 0
257 0.2222222222225702 0.7037037037040986 0
258 0.2222222222226272 0.7407407407410628 0
259 0.2222222222226886 0.7777777777780298 0
260 0.2222222222227546 0.8148148148150034 0
261 0.2222222222228254 0.8518518518519854 0
262 0.2222222222229009 0.8888888888889774 0
263 0.2222222222229803 0.9259259259259788 0
264 0.2222222222230628 0.9629629629629873 0
265 0.2592592592587037 0.03703703703710931 0
266 0.259259259258764 0.07407407407421775 0
267 0.2592592592588235 0.1111111111113245 0
268 0.2592592592588815 0.1481481481484288 0
269 0.2592592592589378 0.1851851851855297 0
270 0.2592592592589922 0.2222222222226264 0
271 0.2592592592590446 0.2592592592597175 0
272 0.2592592592590953 0.2962962962968023 0
273 0.2592592592591443 0.3333333333338792 0
274 0.2592592592591922 0.3703703703709467 0
275 0.2592592592592394 0.4074074074080036 0
276 0.2592592592592863 0.4444444444450488 0
277 0.2592592592593332 0.4814814814820809 0
278 0.2592592592593809 0.5185185185191001 0
279 0.2592592592594299 0.555555555556107 0
280 0.2592592592594811 0.5925925925931033 0
281 0.2592592592595347 0.6296296296300906 0
282 0.2592592592595917 0.6666666666670721 0
283 0.2592592592596528 0.7037037037040504 0
284 0.2592592592597187 0.7407407407410285 0
285 0.25925925925979 0.7777777777780079 0
286 0.2592592592598673 0.8148148148149922 0
287 0.259259259259951 0.8518518518519822 0
288 0.2592592592600407 0.8888888888889788 0
289 0.2592592592601362 0.9259259259259814 0
290 0.259259259260236 0.9629629629629894 0
291 0.2962962962956479 0.03703703703709952 0
292 0.2962962962957224 0.07407407407419818 0
293 0.2962962962957943 0.1111111111112952 0
294 0.2962962962958636 0.1481481481483898 0
295 0.2962962962959296 0.1851851851854812 0
296 0.2962962962959924 0.2222222222225686 0
297 0.2962962962960522 0.2592592592596509 0
298 0.2962962962961094 0.2962962962967274 0
299 0.2962962962961646 0.3333333333337967 0
300 0.2962962962962181 0.370370370370858 0
301 0.2962962962962705 0.4074074074079105 0
302 0.2962962962963225 0.444444444444953 0
303 0.2962962962963745 0.4814814814819853 0
304 0.2962962962964272 0.5185185185190073 0
305 0.2962962962964815 0.5555555555560197 0
306 0.2962962962965381 0.5925925925930237 0
307 0.2962962962965976 0.6296296296300208 0
308 0.2962962962966611 0.6666666666670131 0
309 0.2962962962967294 0.7037037037040027 0
310 0.2962962962968035 0.7407407407409916 0
311 0.2962962962968844 0.777777777777982 0
312 0.2962962962969729 0.8148148148149752 0
313 0.2962962962970696 0.8518518518519722 0
314 0.2962962962971746 0.8888888888889738 0
315 0.2962962962972875 0.9259259259259797 0
316 0.2962962962974067 0.962962962962989 0
317 0.3333333333325931 0.03703703703709024 0
318 0.3333333333326828 0.07407407407417964 0
319 0.333333333332768 0.1111111111112675 0
320 0.3333333333328486 0.1481481481483531 0
321 0.3333333333329241 0.1851851851854357 0
322 0.333333333332995 0.2222222222225147 0
323 0.3333333333330617 0.259259259259589 0
324 0.3333333333331251 0.2962962962966582 0
325 0.3333333333331855 0.3333333333337212 0
326 0.333333333333244 0.3703703703707773 0
327 0.333333333333301 0.4074074074078259 0
328 0.3333333333333573 0.4444444444448665 0
329 0.3333333333334136 0.4814814814818989 0
330 0.3333333333334708 0.5185185185189233 0
331 0.3333333333335294 0.5555555555559401 0
332 0.3333333333335907 0.5925925925929505 0
333 0.3333333333336553 0.6296296296299555 0
334 0.3333333333337243 0.6666666666669565 0
335 0.3333333333337991 0.7037037037039556 0
336 0.3333333333338806 0.7407407407409538 0
337 0.3333333333339703 0.777777777777953 0
338 0.3333333333340694 0.814814814814954 0
339 0.3333333333341791 0.851851851851958 0
340 0.3333333333343 0.8888888888889646 0
341 0.3333333333344321 0.9259259259259747 0
342 0.3333333333345735 0.9629629629629868 0
343 0.370370370369541 0.03703703703708142 0
344 0.3703703703696472 0.07407407407416207 0
345 0.3703703703697465 0.1111111111112413 0
346 0.3703703703698382 0.1481481481483185 0
347 0.3703703703699228 0.185185185185393 0
348 0.3703703703700012 0.2222222222224641 0
349 0.3703703703700742 0.2592592592595312 0
350 0.3703703703701428 0.2962962962965939 0
351 0.3703703703702078 0.3333333333336512 0
352 0.3703703703702704 0.3703703703707029 0
353 0.3703703703703313 0.4074074074077484 0
354 0.3703703703703911 0.4444444444447873 0
355 0.370370370370451 0.48148148148182 0
356 0.3703703703705114 0.5185185185188461 0
357 0.3703703703705737 0.5555555555558667 0
358 0.3703703703706385 0.592592592592882 0
359 0.3703703703707072 0.6296296296298937 0
360 0.3703703703707807 0.6666666666669022 0
361 0.3703703703708606 0.7037037037039089 0
362 0.3703703703709485 0.7407407407409153 0
363 0.3703703703710458 0.7777777777779223 0
364 0.3703703703711547 0.8148148148149305 0
365 0.3703703703712769 0.8518518518519405 0
366 0.370370370371414 0.8888888888889529 0
367 0.3703703703715671 0.9259259259259673 0
368 0.3703703703717347 0.9629629629629832 0
369 0.4074074074064932 0.03703703703707301 0
370 0.4074074074066185 0.07407407407414532 0
371 0.4074074074067322 0.1111111111112164 0
372 0.4074074074068347 0.1481481481482856 0
373 0.4074074074069276 0.1851851851853524 0
374 0.4074074074070124 0.2222222222224163 0
375 0.4074074074070905 0.2592592592594769 0
376 0.4074074074071633 0.2962962962965335 0
377 0.4074074074072321 0.3333333333335858 0
378 0.4074074074072979 0.3703703703706334 0
379 0.4074074074073614 0.4074074074076761 0
380 0.4074074074074241 0.4444444444447137 0
381 0.4074074074074864 0.4814814814817464 0
382 0.4074074074075493 0.5185185185187743 0
383 0.4074074074076139 0.5555555555557978 0
384 0.4074074074076814 0.5925925925928175 0
385 0.4074074074077528 0.6296296296298344 0
386 0.4074074074078296 0.6666666666668493 0
387 0.4074074074079133 0.7037037037038628 0
388 0.4074074074080057 0.7407407407408761 0
389 0.4074074074081089 0.7777777777778899 0
390 0.4074074074082257 0.8148148148149048 0
391 0.4074074074083588 0.8518518518519209 0
392 0.4074074074085117 0.888888888888939 0
393 0.407407407408687 0.9259259259259585 0
394 0.407407407408886 0.9629629629629789 0
395 0.4444444444434546 0.03703703703706495 0
396 0.4444444444436015 0.07407407407412926 0
397 0.444444444443729 0.1111111111111925 0
398 0.4444444444438408 0.1481481481482541 0
399 0.4444444444439401 0.1851851851853137 0
400 0.4444444444440296 0.2222222222223708 0
401 0.4444444444441115 0.2592592592594251 0
402 0.4444444444441873 0.2962962962964761 0
403 0.4444444444442587 0.3333333333335239 0
404 0.4444444444443265 0.3703703703705678 0
405 0.4444444444443919 0.4074074074076079 0
406 0.4444444444444562 0.4444444444446442 0
407 0.44444444444452 0.4814814814816769 0
408 0.4444444444445844 0.5185185185187061 0
409 0.4444444444446504 0.5555555555557322 0
410 0.4444444444447192 0.5925925925927557 0
411 0.4444444444447921 0.6296296296297771 0
412 0.4444444444448705 0.6666666666667975 0
413 0.444444444444956 0.7037037037038171 0
414 0.4444444444450509 0.7407407407408366 0
415 0.4444444444451576 0.7777777777778567 0
416 0.4444444444452796 0.8148148148148779 0
417 0.4444444444454206 0.8518518518519002 0
418 0.4444444444455865 0.8888888888889238 0
419 0.4444444444457835 0.9259259259259485 0
420 0.444444444446019 0.962962962962974 0
421 0.4814814814804357 0.03703703703705717 0
422 0.4814814814806037 0.07407407407411377 0
423 0.4814814814807416 0.1111111111111695 0
424 0.4814814814808592 0.1481481481482238 0
425 0.4814814814809623 0.1851851851852765 0
426 0.4814814814810544 0.2222222222223271 0
427 0.4814814814811382 0.2592592592593754 0
428 0.4814814814812157 0.2962962962964212 0
429 0.481481481481288 0.3333333333334645 0
430 0.4814814814813568 0.370370370370505 0
431 0.4814814814814231 0.4074074074075427 0
432 0.4814814814814879 0.4444444444445776 0
433 0.4814814814815521 0.4814814814816101 0
434 0.4814814814816168 0.5185185185186404 0
435 0.481481481481683 0.5555555555556687 0
436 0.4814814814817518 0.5925925925926954 0
437 0.4814814814818247 0.629629629629721 0
438 0.481481481481903 0.6666666666667462 0
439 0.4814814814819885 0.7037037037037713 0
440 0.4814814814820833 0.7407407407407968 0
441 0.4814814814821903 0.7777777777778229 0
442 0.4814814814823135 0.81481481481485 0
443 0.4814814814824573 0.8518518518518782 0
444 0.4814814814826294 0.8888888888889076 0
445 0.481481481482841 0.9259259259259378 0
446 0.4814814814831125 0.9629629629629688 0
447 0.5185185185174679 0.03703703703704961 0
448 0.5185185185176362 0.07407407407409874 0
449 0.5185185185177742 0.1111111111111471 0
450 0.518518518517892 0.1481481481481944 0
451 0.5185185185179952 0.1851851851852403 0
452 0.5185185185180873 0.2222222222222846 0
453 0.5185185185181712 0.2592592592593272 0
454 0.5185185185182485 0.296296296296368 0
455 0.5185185185183206 0.3333333333334069 0
456 0.5185185185183891 0.370370370370444 0
457 0.5185185185184551 0.4074074074074792 0
458 0.5185185185185194 0.4444444444445129 0
459 0.518518518518583 0.481481481481545 0
460 0.5185185185186469 0.5185185185185762 0
461 0.5185185185187121 0.5555555555556063 0
462 0.5185185185187796 0.592592592592636 0
463 0.518518518518851 0.6296296296296655 0
464 0.5185185185189274 0.6666666666666953 0
465 0.5185185185190107 0.7037037037037254 0
466 0.5185185185191028 0.7407407407407564 0
467 0.5185185185192066 0.7777777777777882 0
468 0.518518518519326 0.8148148148148212 0
469 0.5185185185194654 0.8518518518518554 0
470 0.5185185185196325 0.8888888888888906 0
471 0.5185185185198387 0.9259259259259267 0
472 0.5185185185201042 0.9629629629629632 0
473 0.5555555555545509 0.0370370370370422 0
474 0.5555555555546987 0.07407407407408403 0
475 0.5555555555548271 0.1111111111111252 0
476 0.5555555555549395 0.1481481481481656 0
477 0.5555555555550392 0.1851851851852048 0
478 0.5555555555551288 0.222222222222243 0
479 0.5555555555552106 0.25925925925928 0
480 0.5555555555552862 0.2962962962963157 0
481 0.555555555555357 0.3333333333333503 0
482 0.5555555555554238 0.3703703703703839 0
483 0.5555555555554882 0.4074074074074167 0
484 0.5555555555555509 0.4444444444444489 0
485 0.555555555555613 0.4814814814814808 0
486 0.555555555555675 0.5185185185185125 0
487 0.555555555555738 0.5555555555555444 0
488 0.555555555555803 0.5925925925925769 0
489 0.5555555555558715 0.6296296296296101 0
490 0.5555555555559443 0.666666666666644 0
491 0.5555555555560231 0.703703703703679 0
492 0.5555555555561099 0.7407407407407152 0
493 0.5555555555562069 0.7777777777777527 0
494 0.5555555555563174 0.8148148148147917 0
495 0.5555555555564453 0.8518518518518318 0
496 0.5555555555565961 0.8888888888888729 0
497 0.5555555555567765 0.9259259259259147 0
498 0.5555555555569944 0.9629629629629572 0
499 0.5925925925916541 0.03703703703703491 0
500 0.592592592591781 0.07407407407406953 0
501 0.592592592591896 0.1111111111111036 0
502 0.5925925925919996 0.1481481481481371 0
503 0.5925925925920932 0.1851851851851698 0
504 0.5925925925921781 0.2222222222222018 0
505 0.5925925925922562 0.259259259259233 0
506 0.5925925925923287 0.2962962962962636 0
507 0.5925925925923965 0.3333333333332938 0
508 0.592592592592461 0.3703703703703239 0
509 0.5925925925925228 0.407407407407354 0
510 0.592592592592583 0.4444444444443847 0
511 0.5925925925926422 0.4814814814814161 0
512 0.5925925925927014 0.5185185185184483 0
513 0.5925925925927612 0.5555555555554818 0
514 0.5925925925928227 0.5925925925925168 0
515 0.5925925925928869 0.6296296296295535 0
516 0.5925925925929546 0.6666666666665916 0
517 0.5925925925930271 0.7037037037036316 0
518 0.592592592593106 0.7407407407406731 0
519 0.5925925925931932 0.7777777777777162 0
520 0.592592592593291 0.8148148148147613 0
521 0.592592592593402 0.8518518518518073 0
522 0.5925925925935296 0.8888888888888544 0
523 0.5925925925936769 0.9259259259259025 0
524 0.5925925925938457 0.9629629629629511 0
525 0.6296296296287665 0.03703703703702767 0
526 0.6296296296288751 0.07407407407405511 0
527 0.6296296296289765 0.1111111111110822 0
528 0.6296296296290699 0.1481481481481088 0
529 0.6296296296291557 0.1851851851851349 0
530 0.6296296296292345 0.2222222222221605 0
531 0.6296296296293075 0.2592592592591859 0
532 0.6296296296293756 0.2962962962962113 0
533 0.6296296296294395 0.3333333333332369 0
534 0.6296296296295003 0.3703703703702632 0
535 0.6296296296295588 0.4074074074072905 0
536 0.6296296296296156 0.4444444444443194 0
537 0.6296296296296712 0.4814814814813498 0
538 0.6296296296297267 0.5185185185183827 0
539 0.6296296296297824 0.5555555555554176 0
540 0.6296296296298393 0.5925925925924552 0
541 0.6296296296298981 0.6296296296294953 0
542 0.6296296296299593 0.6666666666665377 0
543 0.6296296296300242 0.7037037037035826 0
544 0.6296296296300935 0.7407407407406297 0
545 0.6296296296301686 0.7777777777776786 0
546 0.6296296296302507 0.8148148148147295 0
547 0.6296296296303417 0.8518518518517817 0
548 0.6296296296304431 0.8888888888888353 0
549 0.6296296296305559 0.9259259259258897 0
550 0.6296296296306799 0.9629629629629446 0
551 0.6666666666658835 0.03703703703702047 0
552 0.6666666666659767 0.07407407407404075 0
553 0.6666666666660652 0.1111111111110607 0
554 0.666666666666148 0.1481481481480804 0
555 0.6666666666662252 0.1851851851850997 0
556 0.6666666666662971 0.2222222222221188 0
557 0.6666666666663641 0.2592592592591382 0
558 0.6666666666664267 0.296296296296158 0
559 0.666666666666486 0.3333333333331787 0
560 0.6666666666665423 0.3703703703702008 0
561 0.6666666666665964 0.407407407407225 0
562 0.666666666666649 0.4444444444442518 0
563 0.6666666666667006 0.4814814814812816 0
564 0.6666666666667515 0.5185185185183145 0
565 0.6666666666668023 0.555555555555351 0
566 0.6666666666668537 0.5925925925923913 0
567 0.6666666666669062 0.6296296296294348 0
568 0.6666666666669603 0.6666666666664819 0
569 0.6666666666670165 0.7037037037035319 0
570 0.666666666667075 0.7407407407405845 0
571 0.6666666666671365 0.7777777777776395 0
572 0.6666666666672018 0.8148148148146963 0
573 0.666666666667271 0.8518518518517554 0
574 0.6666666666673451 0.8888888888888155 0
575 0.6666666666674236 0.9259259259258763 0
576 0.6666666666675063 0.9629629629629378 0
577 0.7037037037030035 0.03703703703701328 0
578 0.7037037037030832 0.07407407407402639 0
579 0.7037037037031597 0.1111111111110392 0
580 0.7037037037032322 0.1481481481480517 0
581 0.7037037037033006 0.1851851851850641 0
582 0.7037037037033648 0.2222222222220765 0
583 0.7037037037034248 0.2592592592590894 0
584 0.7037037037034815 0.2962962962961032 0
585 0.7037037037035353 0.3333333333331186 0
586 0.7037037037035865 0.3703703703701361 0
587 0.7037037037036358 0.4074074074071567 0
588 0.7037037037036834 0.444444444444181 0
589 0.7037037037037301 0.4814814814812096 0
590 0.703703703703776 0.5185185185182428 0
591 0.7037037037038215 0.5555555555552809 0
592 0.703703703703867 0.5925925925923239 0
593 0.7037037037039128 0.6296296296293713 0
594 0.7037037037039591 0.6666666666664232 0
595 0.7037037037040058 0.7037037037034786 0
596 0.703703703704053 0.7407407407405371 0
597 0.7037037037041006 0.7777777777775984 0
598 0.7037037037041484 0.814814814814662 0
599 0.7037037037041958 0.8518518518517275 0
600 0.703703703704242 0.8888888888887945 0
601 0.7037037037042868 0.9259259259258624 0
602 0.70370370370433 0.9629629629629312 0
603 0.7407407407401256 0.03703703703700613 0
604 0.7407407407401931 0.07407407407401206 0
605 0.7407407407402584 0.1111111111110177 0
606 0.7407407407403209 0.148148148148023 0
607 0.7407407407403802 0.185185185185028 0
608 0.7407407407404363 0.2222222222220333 0
609 0.7407407407404895 0.2592592592590392 0
610 0.7407407407405397 0.2962962962960464 0
611 0.7407407407405876 0.3333333333330558 0
612 0.740740740740633 0.3703703703700681 0
613 0.7407407407406769 0.4074074074070844 0
614 0.7407407407407193 0.4444444444441057 0
615 0.7407407407407605 0.4814814814811327 0
616 0.7407407407408008 0.5185185185181662 0
617 0.7407407407408405 0.5555555555552061 0
618 0.7407407407408799 0.5925925925922522 0
619 0.7407407407409186 0.6296296296293039 0
620 0.7407407407409569 0.6666666666663609 0
621 0.7407407407409944 0.7037037037034221 0
622 0.7407407407410305 0.7407407407404871 0
623 0.7407407407410644 0.7777777777775553 0
624 0.7407407407410953 0.8148148148146259 0
625 0.740740740741121 0.8518518518516984 0
626 0.7407407407411404 0.8888888888887727 0
627 0.7407407407411516 0.9259259259258479 0
628 0.7407407407411546 0.9629629629629236 0
629 0.7777777777772488 0.03703703703699905 0
630 0.7777777777773052 0.07407407407399784 0
631 0.77777777777736 0.1111111111109962 0
632 0.7777777777774129 0.148148148147994 0
633 0.7777777777774633 0.1851851851849915 0
634 0.7777777777775113 0.222222222221989 0
635 0.7777777777775571 0.2592592592589873 0
636 0.7777777777776005 0.2962962962959871 0
637 0.7777777777776419 0.3333333333329896 0
638 0.7777777777776814 0.3703703703699959 0
639 0.7777777777777194 0.407407407407007 0
640 0.7777777777777561 0.4444444444440246 0
641 0.7777777777777917 0.4814814814810497 0
642 0.7777777777778264 0.5185185185180832 0
643 0.7777777777778604 0.555555555555125 0
644 0.7777777777778934 0.5925925925921748 0
645 0.777777777777925 0.6296296296292314 0
646 0.7777777777779555 0.6666666666662943 0
647 0.7777777777779843 0.7037037037033625 0
648 0.77777777777801 0.7407407407404346 0
649 0.7777777777780315 0.7777777777775101 0
650 0.7777777777780468 0.8148148148145881 0
651 0.777777777778053 0.8518518518516681 0
652 0.7777777777780468 0.88888888888875 0
653 0.7777777777780248 0.9259259259258327 0
654 0.7777777777779855 0.9629629629629162 0
655 0.8148148148143728 0.03703703703699215 0
656 0.8148148148144188 0.07407407407398389 0
657 0.8148148148144638 0.1111111111109749 0
658 0.8148148148145075 0.1481481481479651 0
659 0.8148148148145491 0.1851851851849546 0
660 0.8148148148145893 0.2222222222219438 0
661 0.8148148148146273 0.2592592592589336 0
662 0.8148148148146637 0.2962962962959251 0
663 0.8148148148146982 0.3333333333329195 0
664 0.8148148148147317 0.3703703703699182 0
665 0.8148148148147638 0.4074074074069231 0
666 0.8148148148147945 0.4444444444439359 0
667 0.814814814814824 0.4814814814809583 0
668 0.8148148148148531 0.5185185185179917 0
669 0.8148148148148809 0.555555555555036 0
670 0.8148148148149077 0.5925925925920903 0
671 0.814814814814933 0.6296296296291533 0
672 0.8148148148149564 0.6666666666662232 0
673 0.8148148148149771 0.7037037037032988 0
674 0.8148148148149938 0.7407407407403788 0
675 0.8148148148150048 0.7777777777774622 0
676 0.8148148148150071 0.8148148148145483 0
677 0.8148148148149968 0.8518518518516366 0
678 0.8148148148149688 0.8888888888887263 0
679 0.8148148148149156 0.9259259259258169 0
680 0.8148148148148305 0.9629629629629082 0
681 0.8518518518514978 0.03703703703698555 0
682 0.851851851851534 0.07407407407397053 0
683 0.8518518518515693 0.1111111111109544 0
684 0.8518518518516038 0.1481481481479367 0
685 0.8518518518516369 0.1851851851849175 0
686 0.851851851851669 0.2222222222218976 0
687 0.8518518518516995 0.259259259258878 0
688 0.8518518518517286 0.2962962962958599 0
689 0.8518518518517566 0.3333333333328448 0
690 0.8518518518517835 0.3703703703698346 0
691 0.8518518518518091 0.4074074074068311 0
692 0.8518518518518338 0.4444444444438373 0
693 0.8518518518518579 0.4814814814808561 0
694 0.8518518518518808 0.5185185185178891 0
695 0.8518518518519027 0.555555555554937 0
696 0.8518518518519234 0.5925925925919975 0
697 0.8518518518519427 0.6296296296290681 0
698 0.8518518518519599 0.6666666666661466 0
699 0.851851851851974 0.703703703703231 0
700 0.8518518518519836 0.7407407407403199 0
701 0.8518518518519869 0.7777777777774121 0
702 0.85185185185198 0.8148148148145067 0
703 0.8518518518519589 0.8518518518516034 0
704 0.8518518518519155 0.8888888888887014 0
705 0.8518518518518386 0.9259259259258004 0
706 0.8518518518517091 0.9629629629629 0
707 0.8888888888886228 0.03703703703697944 0
708 0.8888888888886498 0.07407407407395816 0
709 0.8888888888886761 0.1111111111109353 0
710 0.8888888888887017 0.1481481481479096 0
711 0.8888888888887264 0.1851851851848812 0
712 0.8888888888887503 0.2222222222218511 0
713 0.8888888888887733 0.2592592592588208 0
714 0.8888888888887951 0.2962962962957916 0
715 0.8888888888888161 0.3333333333327652 0
716 0.8888888888888363 0.3703703703697436 0
717 0.8888888888888558 0.4074074074067295 0
718 0.8888888888888744 0.4444444444437265 0
719 0.8888888888888924 0.4814814814807393 0
720 0.8888888888889095 0.5185185185177721 0
721 0.8888888888889256 0.5555555555548252 0
722 0.8888888888889409 0.5925925925918945 0
723 0.8888888888889547 0.6296296296289752 0
724 0.8888888888889662 0.6666666666660641 0
725 0.8888888888889753 0.7037037037031588 0
726 0.88888888888898 0.7407407407402578 0
727 0.8888888888889784 0.7777777777773595 0
728 0.8888888888889676 0.8148148148144634 0
729 0.8888888888889427 0.8518518518515691 0
730 0.8888888888888958 0.8888888888886761 0
731 0.8888888888888148 0.9259259259257836 0
732 0.8888888888886757 0.9629629629628916 0
733 0.9259259259257483 0.03703703703697402 0
734 0.9259259259257664 0.07407407407394731 0
735 0.9259259259257835 0.1111111111109189 0
736 0.9259259259258005 0.1481481481478852 0
737 0.9259259259258172 0.1851851851848463 0
738 0.925925925925833 0.2222222222218046 0
739 0.9259259259258482 0.2592592592587621 0
740 0.9259259259258629 0.2962962962957203 0
741 0.9259259259258769 0.3333333333326807 0
742 0.9259259259258905 0.3703703703696453 0
743 0.9259259259259033 0.4074074074066167 0
744 0.9259259259259156 0.4444444444435998 0
745 0.9259259259259277 0.4814814814806022 0
746 0.9259259259259391 0.5185185185176349 0
747 0.9259259259259498 0.5555555555546976 0
748 0.9259259259259597 0.5925925925917799 0
749 0.9259259259259683 0.6296296296288741 0
750 0.9259259259259757 0.666666666665976 0
751 0.9259259259259808 0.7037037037030827 0
752 0.9259259259259827 0.7407407407401926 0
753 0.9259259259259796 0.7777777777773049 0
754 0.9259259259259691 0.8148148148144188 0
755 0.9259259259259481 0.8518518518515339 0
756 0.9259259259259105 0.8888888888886497 0
757 0.9259259259258488 0.9259259259257662 0
758 0.9259259259257528 0.9629629629628829 0
759 0.962962962962874 0.0370370370369693 0
760 0.962962962962883 0.0740740740739381 0
761 0.9629629629628915 0.1111111111109078 0
762 0.9629629629629 0.1481481481478659 0
763 0.9629629629629083 0.1851851851848141 0
764 0.9629629629629163 0.222222222221759 0
765 0.9629629629629239 0.2592592592587027 0
766 0.9629629629629313 0.2962962962956468 0
767 0.9629629629629382 0.3333333333325921 0
768 0.962962962962945 0.37037037036954 0
769 0.9629629629629515 0.4074074074064923 0
770 0.9629629629629578 0.4444444444434537 0
771 0.9629629629629638 0.481481481480435 0
772 0.9629629629629692 0.5185185185174672 0
773 0.9629629629629747 0.5555555555545504 0
774 0.9629629629629796 0.5925925925916535 0
775 0.9629629629629837 0.6296296296287659 0
776 0.9629629629629872 0.6666666666658831 0
777 0.9629629629629893 0.7037037037030033 0
778 0.96296296296299 0.7407407407401253 0
779 0.9629629629629877 0.7777777777772488 0
780 0.9629629629629816 0.8148148148143729 0
781 0.9629629629629698 0.8518518518514977 0
782 0.9629629629629494 0.8888888888886228 0
783 0.9629629629629168 0.9259259259257484 0
784 0.9629629629628695 0.962962962962874 0
