32
1 1 2 10 1 1 5
2 1 2 10 1 5 6
3 1 2 10 1 6 7
4 1 2 10 1 7 4
5 1 2 11 2 4 8
6 1 2 11 2 8 9
7 1 2 11 2 9 10
8 1 2 11 2 10 3
9 1 2 12 3 3 11
10 1 2 12 3 11 12
11 1 2 12 3 12 13
12 1 2 12 3 13 2
13 1 2 13 4 2 14
14 1 2 13 4 14 15
15 1 2 13 4 15 16
16 1 2 13 4 16 1
17 3 2 100 1 1 5 17 16
18 3 2 100 1 16 17 18 15
19 3 2 100 1 15 18 19 14
20 3 2 100 1 14 19 13 2
21 3 2 100 1 5 6 20 17
22 3 2 100 1 17 20 21 18
23 3 2 100 1 18 21 22 19
24 3 2 100 1 19 22 12 13
25 3 2 100 1 6 7 23 20
26 3 2 100 1 20 23 24 21
27 3 2 100 1 21 24 25 22
28 3 2 100 1 22 25 11 12
29 3 2 100 1 7 4 8 23
30 3 2 100 1 23 8 9 24
31 3 2 100 1 24 9 10 25
32 3 2 100 1 25 10 3 11
